camera intrinsic parameters (fx, fy, ox, oy, baseline): 1019.3 1019.3 789.38 612.212 0.558253
0 -0.00579531 0.063683 -1 3.43159 -0.0103812 0.114075 0.0665068 -1 Y
1 -0.00753467 0.0302887 -1 3.83751 -0.0134969 0.0542562 0.0288788 -1 Y
2 -0.0225027 0.00966785 -1 20.8782 -0.0403092 0.017318 0.0158757 -1 Y
3 -0.01996 -0.0224978 -1 64.5103 -0.0357543 -0.0403004 0.0614746 -1 Y
4 -0.0197435 -0.0283403 -1 64.7945 -0.0353665 -0.050766 0.0559884 -1 Y
5 -0.00845015 0.0136039 -1 3.97814 -0.0151368 0.0243688 0.00990502 -1 Y
6 -0.00681623 0.0119961 -1 3.90977 -0.0122099 0.0214886 0.0103216 -1 Y
7 -0.00851566 0.00864601 -1 4.50747 -0.0152541 0.0154876 0.00541021 -1 Y
8 -0.00441649 -0.00486691 -1 3.11032 -0.00791126 -0.00871812 -0.00589697 -1 Y
9 -0.00181336 -0.0167351 -1 2.21668 -0.00324827 -0.0299776 -0.0166251 -1 Y
10 -0.00401869 -0.0455276 -1 26.1985 -0.00719869 -0.0815537 -0.0085168 -1 Y
11 0.00605366 -0.0369965 -1 21.0264 0.0108439 -0.0662719 0.00554509 -1 Y
12 0.0158555 -0.0406928 -1 15.9751 0.0284019 -0.0728931 0.00628879 -1 Y
13 -0.0020285 -0.024626 -1 2.47303 -0.00363366 -0.0441127 -0.0249628 -1 Y
14 -0.00267009 -0.0174505 -1 2.6878 -0.00478294 -0.031259 -0.0177553 -1 Y
15 -0.000588807 -0.0146342 -1 1.28078 -0.00105473 -0.0262143 -0.0143108 -1 Y
16 5.73683e-05 -0.0138313 -1 0.830522 0.000102764 -0.024776 -0.0133418 -1 Y
17 -7.95175e-05 -0.0133445 -1 0.927224 -0.00014244 -0.0239041 -0.012838 -1 Y
18 -0.0607982 0.00206883 -1 80.3896 -0.108908 0.0037059 0.0591591 -1 Y
19 -0.00282205 -0.154617 -1 31.5371 -0.00505515 -0.276965 -0.114842 -1 Y
20 -0.00142418 -0.142966 -1 30.0619 -0.00255114 -0.256095 -0.10296 -1 Y
21 -0.00469107 -0.0662821 -1 30.8681 -0.00840312 -0.118731 -0.0235728 -1 Y
22 -0.00973948 -0.0511374 -1 35.8196 -0.0174463 -0.0916025 -0.00558045 -1 Y
23 -0.0278068 -0.0391559 -1 54.3667 -0.0498104 -0.0701401 0.0148407 -1 Y
24 0.0390049 0.0224192 -1 -24.8 0.0698696 0.0401595 0.0346467 -1 Y
25 0.0488393 0.000893613 -1 -35.2045 0.0874859 0.00160073 0.0068456 -1 Y
26 0.0468722 -0.00406889 -1 -32.5431 0.0839623 -0.00728861 0.0034548 -1 Y
27 0.0504936 -0.000711413 -1 -36.8056 0.0904494 -0.00127436 0.00459993 -1 Y
28 0.0489087 -0.00847514 -1 -34.2635 0.0876104 -0.0151815 -0.00148409 -1 Y
29 0.0199815 -0.000193822 -1 2.46598 0.0357928 -0.000347194 0.0318441 -1 Y
30 0.00497732 -0.0013024 -1 22.094 0.00891588 -0.00233299 0.044331 -1 Y
31 0.00146623 0.0025116 -1 26.7257 0.00262646 0.00449904 0.0517034 -1 Y
32 -0.00361258 0.00306831 -1 33.7778 -0.00647122 0.00549626 0.0576499 -1 Y
33 -0.000782036 0.00423392 -1 29.5423 -0.00140086 0.00758423 0.0553874 -1 Y
34 0.00184178 0.00398659 -1 25.6423 0.00329918 0.00714118 0.0519073 -1 Y
35 0.00483289 0.00616904 -1 20.9781 0.00865716 0.0110506 0.050208 -1 Y
36 -0.00610252 0.00235675 -1 11.425 -0.0109315 0.00422166 0.014148 -1 Y
37 0.358048 0.877713 -1 -60.9965 0.641372 1.57225 1.33382 -1 N
38 0.0210691 0.00257558 -1 69.5865 0.0377411 0.00461365 0.154289 -1 Y
39 -0.0247738 0.00984704 -1 20.9843 -0.0443774 0.017639 0.0131045 -1 Y
40 -0.0149789 0.00469095 -1 19.9752 -0.0268317 0.00840291 0.0193717 -1 Y
41 0.00109266 0.0049855 -1 17.0879 0.00195728 0.00893054 0.0369094 -1 Y
42 -0.0207155 -0.029286 -1 64.9729 -0.0371076 -0.0524601 0.0539361 -1 Y
43 -0.0250557 -0.0204119 -1 65.3748 -0.0448823 -0.0365638 0.0581691 -1 Y
44 -0.0237784 -0.0108827 -1 64.284 -0.0425943 -0.0194942 0.0682763 -1 Y
45 0.0109123 -0.0183547 -1 18.0717 0.0195473 -0.0328788 0.0271493 -1 Y
46 0.0096018 -0.0273182 -1 19.2777 0.0171997 -0.0489352 0.0178068 -1 Y
47 0.00481189 -0.0249992 -1 21.0927 0.00861955 -0.044781 0.0168468 -1 Y
48 0.000752622 -0.0288782 -1 23.2943 0.00134817 -0.0517297 0.0109112 -1 Y
49 0.0216257 -0.0436808 -1 12.9544 0.0387381 -0.0782456 0.00577017 -1 Y
50 0.112565 -0.206345 -1 -26.4761 0.201638 -0.369627 -0.112378 -1 Y
51 0.0604772 -0.326325 -1 14.0503 0.108333 -0.584546 -0.242501 -1 Y
52 -0.00980197 -0.233332 -1 54.205 -0.0175583 -0.417968 -0.169378 -1 Y
53 -0.0743496 -0.213114 -1 98.315 -0.133183 -0.381751 -0.15965 -1 Y
54 -0.0820617 -0.134696 -1 96.8605 -0.146997 -0.241282 -0.0885368 -1 Y
55 -0.024217 -0.0559 -1 45.5061 -0.04338 -0.100134 -0.0137656 -1 Y
56 0.00232197 -0.0271032 -1 21.622 0.00415935 -0.0485501 0.0120591 -1 Y
57 0.00353255 -0.0177619 -1 19.8701 0.00632787 -0.0318169 0.02071 -1 Y
58 0.00271676 -0.037218 -1 22.0034 0.00486653 -0.0666687 0.00239476 -1 Y
59 -0.00604059 -0.0459959 -1 31.1248 -0.0108205 -0.0823926 -0.00316819 -1 Y
60 -0.00826254 -0.0465785 -1 33.5617 -0.0148007 -0.0834361 -0.00259472 -1 Y
61 0.029262 0.00986668 -1 -14.1732 0.0524171 0.0176742 0.026301 -1 Y
62 0.0308895 0.00596572 -1 -15.5723 0.0553325 0.0106864 0.0219031 -1 Y
63 0.0465173 -0.00273532 -1 -32.4648 0.0833266 -0.00489979 0.00453487 -1 Y
64 0.0559204 -0.00143583 -1 -43.4969 0.10017 -0.00257201 -0.000410331 -1 Y
65 0.052569 -0.000630569 -1 -39.1704 0.094167 -0.00112954 0.00341016 -1 Y
66 0.0257615 0.00102052 -1 -4.97741 0.0461466 0.00182805 0.0280881 -1 Y
67 0.00521067 -0.00057198 -1 21.7733 0.00933389 -0.00102459 0.0448769 -1 Y
68 0.00280274 -0.00265358 -1 25.105 0.00502056 -0.00475337 0.045152 -1 Y
69 0.00232285 -0.000323144 -1 25.5268 0.00416092 -0.000578848 0.0477349 -1 Y
70 -0.00208646 0.00392201 -1 31.4329 -0.00373749 0.00702551 0.0565647 -1 Y
71 0.00331485 0.0042035 -1 23.3778 0.0059379 0.00752974 0.0502045 -1 Y
72 0.000810433 0.00391526 -1 27.2037 0.00145173 0.00701342 0.0531438 -1 Y
73 -0.00410358 -0.00322462 -1 8.42897 -0.00735075 -0.00577627 0.00565091 -1 Y
74 1.99708 -0.00148038 -1 -16.1675 3.57738 -0.0026518 2.74042 -1 N
75 0.0211978 0.000590897 -1 69.6095 0.0379717 0.00105848 0.152372 -1 Y
76 -0.031991 0.00811612 -1 22.2303 -0.0573055 0.0145384 0.00341999 -1 Y
77 -0.0221464 0.00834783 -1 20.7124 -0.0396709 0.0149535 0.0146584 -1 Y
78 0.00126275 0.000280758 -1 17.3058 0.00226198 0.000502923 0.0324666 -1 Y
79 0.022303 0.0127772 -1 11.9862 0.0399515 0.0228879 0.0657507 -1 Y
80 -0.0204426 -0.0290024 -1 64.6526 -0.0366189 -0.0519521 0.0540569 -1 Y
81 -0.0177968 -0.0215108 -1 63.1597 -0.0318795 -0.0385323 0.0631638 -1 Y
82 0.00441947 0.00794147 -1 17.9329 0.00791661 0.0142256 0.0461899 -1 Y
83 0.00404618 -0.0119365 -1 20.0996 0.00724793 -0.0213819 0.0280932 -1 Y
84 0.000555754 0.00260303 -1 20.3006 0.000995524 0.00466282 0.0392473 -1 Y
85 0.000821872 0.00426881 -1 20.0595 0.00147222 0.00764673 0.0409849 -1 Y
86 -0.0038464 -0.0231249 -1 25.0797 -0.00689007 -0.0414237 0.0138588 -1 Y
87 -0.00477413 -0.148105 -1 39.721 -0.00855191 -0.265302 -0.0961629 -1 Y
88 -0.00178541 -0.198461 -1 45.0069 -0.00319821 -0.355503 -0.136904 -1 Y
89 -0.0177572 -0.211489 -1 57.569 -0.0318085 -0.37884 -0.151001 -1 Y
90 -0.0282808 -0.179509 -1 61.601 -0.0506595 -0.321554 -0.124107 -1 Y
91 -0.00189997 -0.0614893 -1 28.3101 -0.00340342 -0.110146 -0.0190398 -1 Y
92 0.00526813 -0.0306893 -1 19.2728 0.00943681 -0.0549739 0.00815952 -1 Y
93 0.0121932 0.0104499 -1 9.33936 0.0218418 0.0187188 0.0445705 -1 Y
94 0.00642819 0.00765975 -1 14.7787 0.0115148 0.0137209 0.0431301 -1 Y
95 -1.85046e-05 0.00695765 -1 20.4557 -3.31473e-05 0.0124633 0.0434084 -1 Y
96 -0.00887393 0.0041955 -1 29.1833 -0.0158959 0.00751542 0.0434897 -1 Y
97 -0.0253572 0.006774 -1 45.5123 -0.0454225 0.0121343 0.0520937 -1 Y
98 0.000434211 0.00634747 -1 17.8684 0.000777803 0.0113702 0.0388331 -1 Y
99 0.0254873 -0.00530804 -1 -8.48582 0.0456555 -0.00950831 0.0147333 -1 Y
100 0.0543785 0.00244341 -1 -42.079 0.0974083 0.00437689 0.00411607 -1 Y
101 0.0582033 0.00259889 -1 -46.4517 0.10426 0.0046554 0.00190483 -1 Y
102 0.053108 -0.000116308 -1 -39.7959 0.0951325 -0.000208343 0.00361198 -1 Y
103 0.0309641 0.00594731 -1 -12.1504 0.0554661 0.0106534 0.0280004 -1 Y
104 0.00315677 -0.000490422 -1 24.666 0.00565474 -0.000878494 0.047199 -1 Y
105 0.00643859 -0.0105759 -1 20.6075 0.0115335 -0.0189446 0.0337685 -1 Y
106 0.00131668 0.00370317 -1 26.5966 0.00235857 0.0066335 0.0525509 -1 Y
107 0.000847141 0.00468323 -1 27.0624 0.00151749 0.00838908 0.0537727 -1 Y
108 0.00428192 0.00269391 -1 22.0086 0.00767022 0.00482561 0.0475158 -1 Y
109 0.0091759 0.00250982 -1 14.6388 0.0164368 0.00449584 0.0411553 -1 Y
110 -0.00852851 -0.00304521 -1 15.3942 -0.0152771 -0.00545489 0.011946 -1 Y
111 -0.0678027 0.0175346 -1 25.0116 -0.121455 0.0314097 -0.0312384 -1 Y
112 -0.0646516 0.00958613 -1 25.0207 -0.115811 0.0171717 -0.0354029 -1 Y
113 -0.0390389 0.00379097 -1 23.3196 -0.0699305 0.00679078 -0.00909631 -1 Y
114 -0.024342 0.00201888 -1 21.9425 -0.0436039 0.00361642 0.00696514 -1 Y
115 -0.00357368 0.00308993 -1 18.0181 -0.00640154 0.005535 0.0300314 -1 Y
116 0.0305018 0.00691282 -1 11.0237 0.054638 0.0123829 0.0691235 -1 Y
117 0.00960742 0.00322599 -1 17.3927 0.0172098 0.00577872 0.0473641 -1 Y
118 0.00947366 0.00514209 -1 16.851 0.0169702 0.00921104 0.0482881 -1 Y
119 0.0092523 0.00896698 -1 16.2868 0.0165737 0.0160626 0.0511047 -1 Y
120 0.00523111 0.0150493 -1 16.9875 0.0093705 0.0269579 0.0533016 -1 Y
121 0.00945196 0.00303644 -1 17.1743 0.0169313 0.00543918 0.0465607 -1 Y
122 -0.0112698 0.0079071 -1 26.6869 -0.0201877 0.014164 0.0397721 -1 Y
123 -0.0214814 0.0135966 -1 31.3398 -0.0384797 0.0243555 0.0399043 -1 Y
124 -0.0300836 -0.00406691 -1 37.72 -0.0538888 -0.00728507 0.0201796 -1 Y
125 -0.00690412 0.00241311 -1 22.5984 -0.0123674 0.00432261 0.0327325 -1 Y
126 0.000180499 0.00394765 -1 17.8275 0.000323328 0.00707144 0.0358272 -1 Y
127 8.94241e-05 -0.00119128 -1 18.6706 0.000160186 -0.00213394 0.0316536 -1 Y
128 0.0025463 -0.0288816 -1 21.2658 0.00456119 -0.0517357 0.00983106 -1 Y
129 0.0371859 0.0183883 -1 -12.2298 0.0666111 0.0329389 0.049877 -1 Y
130 0.00610048 0.026653 -1 13.4482 0.0109278 0.0477436 0.0607721 -1 Y
131 0.00381636 0.0271127 -1 15.1275 0.00683625 0.0485671 0.0610491 -1 Y
132 0.00300294 0.0252594 -1 16.1354 0.00537918 0.0452472 0.059698 -1 Y
133 0.0024174 0.0314618 -1 15.5167 0.00433029 0.0563575 0.0644714 -1 Y
134 -0.00194002 0.0326864 -1 19.6645 -0.00347516 0.0585513 0.0670336 -1 Y
135 0.0121489 -0.0160976 -1 7.68082 0.0217623 -0.0288357 0.0130322 -1 Y
136 0.0429108 -0.000705867 -1 -28.558 0.0768663 -0.00126442 0.00858089 -1 Y
137 0.0583992 0.00505922 -1 -47.051 0.104611 0.0090626 0.0037703 -1 Y
138 0.0560085 0.000834698 -1 -43.5718 0.100328 0.0014952 0.00202313 -1 Y
139 0.05686 0.00411987 -1 -45.069 0.101853 0.00737993 0.0041076 -1 Y
140 0.0308414 0.0057154 -1 -12.1558 0.0552462 0.010238 0.0275711 -1 Y
141 -0.000504755 -0.000819813 -1 29.6811 -0.000904168 -0.00146853 0.0505786 -1 Y
142 0.00440626 -0.00265637 -1 22.7138 0.00789295 -0.00475835 0.0431713 -1 Y
143 0.00376919 -0.00360667 -1 23.9865 0.00675176 -0.00646064 0.0435017 -1 Y
144 0.00357202 0.000244444 -1 23.6876 0.00639858 0.000437874 0.0468462 -1 Y
145 0.00371979 -0.000493142 -1 23.4001 0.00666326 -0.000883367 0.0457525 -1 Y
146 0.00639029 0.000871753 -1 19.2774 0.0114469 0.00156157 0.0436805 -1 Y
147 -0.00319915 -0.00194521 -1 6.80956 -0.00573064 -0.00348446 0.00543617 -1 Y
148 -0.0786257 0.00694832 -1 26.8063 -0.140842 0.0124465 -0.0544882 -1 Y
149 -0.068487 0.00826091 -1 25.5398 -0.122681 0.0147978 -0.0412368 -1 Y
150 -0.0455375 0.00310005 -1 24.4851 -0.0815714 0.00555313 -0.0168064 -1 Y
151 -0.0295083 0.00925926 -1 21.3747 -0.0528582 0.0165861 0.00659025 -1 Y
152 -0.0078218 -0.00497759 -1 20.1131 -0.0140112 -0.00891637 0.0191402 -1 Y
153 0.0273978 -0.0215915 -1 16.4316 0.0490778 -0.038677 0.0436537 -1 Y
154 0.0132668 -0.00826445 -1 18.0817 0.0237648 -0.0148041 0.0412889 -1 Y
155 0.0342464 -0.00236433 -1 10.1342 0.0613457 -0.00423523 0.0627739 -1 Y
156 0.00719354 0.0140438 -1 16.3296 0.0128858 0.0251567 0.053786 -1 Y
157 0.00280637 -0.00327184 -1 21.4829 0.00502705 -0.00586086 0.0381265 -1 Y
158 0.000187385 0.00107205 -1 21.7309 0.000335664 0.00192036 0.0396028 -1 Y
159 -0.00429158 -0.00324094 -1 25.0185 -0.00768753 -0.0058055 0.0345266 -1 Y
160 -0.0257162 0.0137526 -1 33.2937 -0.0460655 0.0246351 0.0376314 -1 Y
161 -0.0330905 0.00645752 -1 37.7615 -0.0592751 0.0115674 0.0274043 -1 Y
162 -0.00858916 0.002407 -1 23.5377 -0.0153858 0.00431167 0.032039 -1 Y
163 -0.000907964 -0.000987894 -1 19.2761 -0.00162644 -0.00176962 0.031553 -1 Y
164 -0.000655038 -0.00146798 -1 19.1959 -0.00117337 -0.0026296 0.0312464 -1 Y
165 0.0018497 -0.00501855 -1 17.9421 0.00331338 -0.00898975 0.0286975 -1 Y
166 0.137231 0.0355298 -1 -96.4687 0.245822 0.0636446 0.0590661 -1 Y
167 0.00052349 0.0427271 -1 15.8644 0.000937729 0.0765371 0.0745754 -1 Y
168 0.00586382 0.0233534 -1 15.4731 0.0105039 0.041833 0.0604523 -1 Y
169 0.00728508 0.0395241 -1 9.66005 0.0130498 0.0707995 0.0696059 -1 Y
170 0.00833631 0.0361768 -1 9.64042 0.0149329 0.0648035 0.0674284 -1 Y
171 0.00189204 0.0391157 -1 14.4494 0.00338921 0.0700681 0.0701018 -1 Y
172 0.0409654 -0.0160401 -1 -23.657 0.0733815 -0.0287327 -0.00200285 -1 Y
173 0.0506287 -0.00452203 -1 -36.4511 0.0906913 -0.00810033 0.00131059 -1 Y
174 0.0540267 0.00246148 -1 -41.5407 0.0967782 0.00440926 0.00459341 -1 Y
175 0.0574111 0.00192886 -1 -45.4227 0.102841 0.00345517 0.00189318 -1 Y
176 0.051639 0.00398989 -1 -38.4647 0.092501 0.0071471 0.0083313 -1 Y
177 0.0201042 0.00558032 -1 1.73715 0.0360128 0.00999604 0.036946 -1 Y
178 -0.00110973 0.00200593 -1 30.1064 -0.00198786 0.00359323 0.0535269 -1 Y
179 -0.0017667 0.0014135 -1 30.3973 -0.0031647 0.002532 0.0524894 -1 Y
180 -0.00203742 0.00165409 -1 31.4885 -0.00364963 0.00296298 0.0542904 -1 Y
181 0.00310652 0.000201153 -1 24.4524 0.00556472 0.000360326 0.0474979 -1 Y
182 0.00324616 -0.000195409 -1 24.1725 0.00581486 -0.000350037 0.0467732 -1 Y
183 0.00833371 0.00145233 -1 16.1446 0.0149282 0.00260157 0.0414955 -1 Y
184 -0.00140042 -0.00353964 -1 4.27054 -0.00250857 -0.00634056 0.00175398 -1 Y
185 -0.0692546 0.000943634 -1 28.1294 -0.124056 0.00169033 -0.0456233 -1 Y
186 -0.074315 0.00565322 -1 26.8577 -0.133121 0.0101266 -0.0498113 -1 Y
187 -0.0462215 0.00671983 -1 24.0061 -0.0827966 0.0120372 -0.0147026 -1 Y
188 -0.0280867 0.0106028 -1 20.9756 -0.0503117 0.0189927 0.00930647 -1 Y
189 -0.0192144 0.00846321 -1 19.5884 -0.0344188 0.0151602 0.0168747 -1 Y
190 -0.00200376 0.00469786 -1 16.5199 -0.00358935 0.0084153 0.0313064 -1 Y
191 0.0294335 -0.0149482 -1 14.334 0.0527244 -0.0267767 0.0499389 -1 Y
192 0.0313422 0.00202949 -1 9.54958 0.0561433 0.00363542 0.0624447 -1 Y
193 0.0179292 -0.00222499 -1 15.9558 0.0321167 -0.00398563 0.0505186 -1 Y
194 -0.000560965 0.00300709 -1 21.0322 -0.00100486 0.00538661 0.0394187 -1 Y
195 -0.00617254 -0.00254641 -1 25.2653 -0.0110569 -0.00456138 0.0330982 -1 Y
196 0.00443231 -0.0057017 -1 21.0951 0.0079396 -0.0102135 0.0370862 -1 Y
197 -0.0329291 0.0028222 -1 63.9225 -0.058986 0.00505541 0.0696919 -1 Y
198 -0.040585 -0.00145502 -1 68.488 -0.0727 -0.00260638 0.0624927 -1 Y
199 -0.0327722 -0.00705715 -1 65.2878 -0.0587049 -0.0126415 0.0616798 -1 Y
200 -0.0432743 -0.00895388 -1 72.4973 -0.0775174 -0.0160391 0.05774 -1 Y
201 -0.0262667 -0.0276995 -1 65.7778 -0.0470517 -0.0496181 0.0493566 -1 Y
202 -0.0559265 -0.00825855 -1 82.2482 -0.100181 -0.0147936 0.0580725 -1 Y
203 -0.0597265 0.00388061 -1 82.3766 -0.106988 0.00695135 0.066087 -1 Y
204 0.0052677 0.00449082 -1 20.0727 0.00943604 0.00804442 0.0474144 -1 Y
205 0.0105992 0.00334842 -1 15.6652 0.0189864 0.00599802 0.0458358 -1 Y
206 0.00570833 0.0152042 -1 17.2742 0.0102253 0.0272353 0.054634 -1 Y
207 0.000240001 0.0216391 -1 21.0007 0.000429915 0.0387621 0.0605202 -1 Y
208 -0.0044185 0.0347062 -1 22.2653 -0.00791487 0.0621694 0.0703391 -1 Y
209 0.0565528 0.00028675 -1 -43.9886 0.101303 0.000513657 0.00145604 -1 Y
210 0.0559429 0.00121063 -1 -43.4952 0.100211 0.00216861 0.00247122 -1 Y
211 0.0552629 0.00235898 -1 -42.9348 0.0989927 0.00422566 0.00374821 -1 Y
212 0.0564217 0.00170212 -1 -44.2184 0.101068 0.003049 0.0023933 -1 Y
213 0.0542815 -0.000758675 -1 -40.831 0.0972346 -0.00135902 0.00272967 -1 Y
214 0.0268202 -0.00450766 -1 -4.68142 0.0480431 -0.00807458 0.0241293 -1 Y
215 -0.00242891 0.00552593 -1 31.0142 -0.00435091 0.00989861 0.0570794 -1 Y
216 0.000937315 0.00570416 -1 26.3049 0.00167901 0.0102179 0.053665 -1 Y
217 -0.000617775 0.00376139 -1 29.0199 -0.00110662 0.00673778 0.0541886 -1 Y
218 0.00113431 0.00437946 -1 26.3563 0.00203189 0.00784493 0.0526034 -1 Y
219 0.00469259 0.00369963 -1 21.0911 0.00840585 0.00662715 0.0475551 -1 Y
220 0.00966594 0.00513415 -1 13.0898 0.0173146 0.00919682 0.0419365 -1 Y
221 0.0209131 0.00176737 -1 -3.45713 0.0374617 0.0031659 0.0248374 -1 Y
222 -0.0695527 -0.0100958 -1 30.3799 -0.12459 -0.0180846 -0.0539591 -1 Y
223 -0.0641107 -0.00841186 -1 29.373 -0.114842 -0.0150682 -0.0463676 -1 Y
224 -0.0303942 -0.00154622 -1 24.5615 -0.0544452 -0.00276975 -0.000663636 -1 Y
225 -0.0230713 0.00463646 -1 21.8805 -0.0413277 0.0083053 0.0114352 -1 Y
226 -0.0149863 0.010021 -1 18.5387 -0.0268451 0.0179506 0.0225713 -1 Y
227 0.00632148 0.0175558 -1 10.8325 0.0113237 0.0314478 0.0466942 -1 Y
228 0.0316757 0.0102124 -1 7.29459 0.0567407 0.0182936 0.0677485 -1 Y
229 0.0170202 0.00932698 -1 12.4563 0.0304883 0.0167074 0.0555362 -1 Y
230 0.00906391 -0.00750285 -1 20.4224 0.0162362 -0.0134399 0.0403915 -1 Y
231 -0.00414403 0.00578007 -1 23.0418 -0.00742322 0.0103539 0.0409631 -1 Y
232 -0.0156107 -0.0089262 -1 31.1351 -0.0279635 -0.0159895 0.0234568 -1 Y
233 0.000594422 -0.0130541 -1 24.5792 0.00106479 -0.0233839 0.0299747 -1 Y
234 -0.0316893 -0.00297097 -1 65.0544 -0.0567651 -0.00532191 0.0671682 -1 Y
235 -0.046707 -0.00318407 -1 72.8493 -0.0836663 -0.00570363 0.0598043 -1 Y
236 -0.0328231 -0.00118809 -1 63.7904 -0.0587961 -0.00212822 0.0652921 -1 Y
237 -0.0461503 0.00588345 -1 71.0692 -0.0826691 0.010539 0.0672039 -1 Y
238 -0.0449083 -0.00702835 -1 73.6417 -0.0804443 -0.0125899 0.059556 -1 Y
239 -0.0410597 0.000458864 -1 68.3618 -0.0735504 0.000821965 0.0636715 -1 Y
240 -0.0489548 0.00499777 -1 73.3558 -0.0876929 0.00895252 0.0663789 -1 Y
241 0.017232 0.00271346 -1 10.0899 0.0308677 0.00486063 0.044556 -1 Y
242 -0.00162416 -0.0154769 -1 32.6656 -0.00290937 -0.0277238 0.0385013 -1 Y
243 0.00302501 -0.00578619 -1 25.0406 0.00541872 -0.0103648 0.041977 -1 Y
244 0.000127305 0.000577267 -1 26.4054 0.000228041 0.00103406 0.0472018 -1 Y
245 0.0171756 0.00311653 -1 8.5284 0.0307667 0.00558265 0.0421673 -1 Y
246 0.00536295 0.0152713 -1 18.4004 0.00960666 0.0273555 0.0562063 -1 Y
247 0.0540658 0.00404461 -1 -42.1087 0.0968482 0.00724512 0.00535276 -1 Y
248 0.0558097 0.00328025 -1 -43.784 0.0999721 0.00587591 0.00400556 -1 Y
249 0.0548457 0.00217938 -1 -42.4475 0.0982452 0.00390393 0.00383245 -1 Y
250 0.05398 0.00379362 -1 -41.6663 0.0966944 0.00679553 0.00574107 -1 Y
251 0.0287026 0.00261584 -1 -8.86279 0.051415 0.00468576 0.0270564 -1 Y
252 0.00280727 0.00388317 -1 24.4735 0.00502867 0.00695593 0.0510814 -1 Y
253 -0.000518585 0.00153035 -1 29.4406 -0.000928943 0.00274131 0.0526653 -1 Y
254 0.000835901 0.00313669 -1 27.1867 0.00149735 0.00561877 0.0523116 -1 Y
255 0.0035362 0.00581948 -1 22.5307 0.00633441 0.0104244 0.0507616 -1 Y
256 0.00379298 0.00545289 -1 22.1418 0.00679437 0.00976777 0.05004 -1 Y
257 0.00781201 0.00555725 -1 15.8911 0.0139937 0.00995472 0.0447428 -1 Y
258 -0.0185607 -0.00388735 -1 31.664 -0.0332477 -0.00696343 0.0257153 -1 Y
259 -0.0757465 0.0179501 -1 21.7327 -0.135685 0.0321541 -0.0475736 -1 Y
260 -0.0546092 0.00669233 -1 23.2795 -0.0978215 0.011988 -0.0276448 -1 Y
261 -0.0244127 -5.89302e-05 -1 22.9469 -0.0437306 -0.000105562 0.00639661 -1 Y
262 -0.0206794 -0.00247145 -1 23.5783 -0.0370431 -0.00442712 0.0100896 -1 Y
263 -0.00897202 0.00358941 -1 19.5105 -0.0160716 0.00642971 0.0257028 -1 Y
264 0.0143965 0.0357726 -1 4.75073 0.0257885 0.0640796 0.0668075 -1 Y
265 0.0228851 0.0361225 -1 2.79418 0.0409942 0.0647064 0.0755213 -1 Y
266 -0.00111258 0.00986456 -1 18.6601 -0.00199297 0.0176704 0.0418626 -1 Y
267 -0.00780541 0.00504679 -1 22.4379 -0.0139818 0.00904032 0.0340337 -1 Y
268 -0.00579106 -0.0191186 -1 29.831 -0.0103735 -0.0342472 0.0238212 -1 Y
269 0.00358972 -0.0186018 -1 25.5326 0.00643027 -0.0333214 0.0298368 -1 Y
270 0.00339165 -0.0104302 -1 22.6257 0.00607547 -0.0186837 0.0332451 -1 Y
271 0.00295577 0.00356079 -1 17.9205 0.00529468 0.00637846 0.0394244 -1 Y
272 -0.0480948 -0.00760594 -1 74.9976 -0.0861523 -0.0136245 0.0568969 -1 Y
273 -0.0394723 -0.00271939 -1 68.2962 -0.0707068 -0.00487126 0.062339 -1 Y
274 -0.0577613 0.0147177 -1 76.4005 -0.103468 0.0263639 0.0699704 -1 Y
275 -0.0375225 0.00657571 -1 63.7513 -0.0672142 0.0117791 0.0670572 -1 Y
276 -0.0311901 0.00211215 -1 60.5034 -0.0558708 0.00378349 0.0653317 -1 Y
277 0.0085089 -0.00970737 -1 21.064 0.015242 -0.0173888 0.0383772 -1 Y
278 0.00637065 -0.0180765 -1 25.8626 0.0114118 -0.0323805 0.0348397 -1 Y
279 0.0120114 -0.0339279 -1 25.2922 0.021516 -0.0607751 0.024608 -1 Y
280 0.0117498 -0.0166652 -1 20.3695 0.0210475 -0.0298524 0.0341668 -1 Y
281 -0.00245516 0.00296327 -1 27.4608 -0.00439793 0.00530812 0.0480413 -1 Y
282 0.0125087 -0.00706361 -1 16.9881 0.0224069 -0.0126531 0.0396074 -1 Y
283 0.017355 -0.0219377 -1 16.1457 0.0310881 -0.0392971 0.0288471 -1 Y
284 0.00983892 0.0158587 -1 13.2254 0.0176245 0.0284077 0.0539532 -1 Y
285 0.000904814 -0.0034643 -1 29.4497 0.0016208 -0.0062056 0.0492822 -1 Y
286 0.0537164 0.00150489 -1 -40.7786 0.0962224 0.00269571 0.00447319 -1 Y
287 0.0542366 0.00305754 -1 -41.8747 0.0971542 0.00547697 0.00493898 -1 Y
288 0.0394246 0.00343157 -1 -22.8157 0.0706213 0.00614697 0.0182874 -1 Y
289 0.00743937 0.00125684 -1 19.3388 0.0133262 0.00225139 0.045658 -1 Y
290 0.000676779 0.00252247 -1 27.5921 0.00121232 0.0045185 0.0521424 -1 Y
291 0.000934593 0.00215259 -1 27.5809 0.00167414 0.00385593 0.0520824 -1 Y
292 0.00785196 0.00269088 -1 17.0836 0.0140652 0.00482018 0.0438099 -1 Y
293 0.00571751 0.00636131 -1 19.1401 0.0102418 0.011395 0.048412 -1 Y
294 0.0386612 0.0498731 -1 -40.2866 0.0692539 0.0893379 0.0364915 -1 Y
295 -0.0236844 -0.00338646 -1 39.6549 -0.0424259 -0.00606617 0.0331893 -1 Y
296 -0.0784283 0.0408492 -1 14.5103 -0.140489 0.0731732 -0.0393497 -1 Y
297 -0.0796738 0.0352008 -1 16.1783 -0.14272 0.0630552 -0.044223 -1 Y
298 -0.0576445 0.0266604 -1 17.3064 -0.103259 0.0477569 -0.0208692 -1 Y
299 -0.0238113 0.00286879 -1 22.02 -0.0426533 0.00513886 0.00875203 -1 Y
300 -0.0179568 0.000489134 -1 21.798 -0.0321661 0.000876186 0.0139231 -1 Y
301 0.013543 -0.0413262 -1 30.994 0.0242596 -0.0740277 0.0287932 -1 Y
302 0.00491534 -0.0842563 -1 49.6508 0.00880486 -0.150928 0.00342368 -1 Y
303 -0.00485193 -0.0400545 -1 37.7858 -0.00869128 -0.0717497 0.0165791 -1 Y
304 -0.00698112 -0.00564304 -1 26.4694 -0.0125053 -0.0101084 0.030761 -1 Y
305 -0.013887 -0.00726498 -1 29.1151 -0.0248758 -0.0130138 0.0240853 -1 Y
306 0.0068302 -0.0463239 -1 33.1899 0.012235 -0.0829801 0.017963 -1 Y
307 0.0250907 -0.0165323 -1 13.8887 0.0449449 -0.0296144 0.0414275 -1 Y
308 0.0441947 -0.00487505 -1 -0.635444 0.079166 -0.00873269 0.0549468 -1 Y
309 0.0210277 -0.0202459 -1 19.4585 0.037667 -0.0362665 0.0415841 -1 Y
310 0.000924161 -0.0135741 -1 29.0666 0.00165545 -0.0243153 0.0377588 -1 Y
311 -0.0148852 -0.0127396 -1 37.4509 -0.0266639 -0.0228204 0.0314598 -1 Y
312 0.00427434 -0.0229802 -1 27.6047 0.00765663 -0.0411645 0.0297173 -1 Y
313 0.0134278 -0.0126002 -1 17.3923 0.0240533 -0.0225708 0.035636 -1 Y
314 0.0121335 -0.0159297 -1 20.444 0.0217348 -0.0285349 0.0356214 -1 Y
315 0.0111525 -0.0161783 -1 21.1693 0.0199775 -0.0289802 0.0352676 -1 Y
316 0.00904875 -0.0260269 -1 25.8881 0.016209 -0.046622 0.0300459 -1 Y
317 0.0272045 -0.0244678 -1 8.53612 0.0487316 -0.0438293 0.0264157 -1 Y
318 -0.00997356 -0.0137738 -1 41.3269 -0.0178657 -0.0246731 0.0439722 -1 Y
319 -0.00794102 -0.0483248 -1 51.1374 -0.0142248 -0.0865644 0.0268596 -1 Y
320 0.00699514 -0.0378168 -1 32.0557 0.0125304 -0.0677413 0.0253513 -1 Y
321 0.0534645 0.00521049 -1 -42.0001 0.0957711 0.00933356 0.00596376 -1 Y
322 0.0544412 -0.00101279 -1 -40.5971 0.0975206 -0.00181421 0.00308875 -1 Y
323 0.0562663 0.00238096 -1 -44.261 0.10079 0.00426502 0.00283314 -1 Y
324 0.0545696 0.00297436 -1 -42.2468 0.0977507 0.00532797 0.00465748 -1 Y
325 0.0222553 0.000577858 -1 0.31381 0.039866 0.00103512 0.0320466 -1 Y
326 -0.00177961 -0.00101899 -1 32.3229 -0.00318783 -0.00182532 0.0532385 -1 Y
327 0.000145534 -5.17241e-05 -1 29.0399 0.000260696 -9.26534e-05 0.0511803 -1 Y
328 -0.00123542 -0.000290851 -1 31.2387 -0.00221301 -0.000521002 0.0528715 -1 Y
329 0.0058987 -0.00137045 -1 21.413 0.0105664 -0.00245489 0.0443391 -1 Y
330 0.0102925 -0.00608099 -1 16.4531 0.018437 -0.0108929 0.03665 -1 Y
331 0.0381041 -0.0244699 -1 -18.9054 0.068256 -0.043833 -0.00669121 -1 Y
332 -0.0247361 -0.00193543 -1 40.8162 -0.0443099 -0.00346694 0.0353322 -1 Y
333 -0.0493794 0.00397744 -1 29.3419 -0.0884535 0.00712479 -0.012657 -1 Y
334 -0.0748656 0.00963474 -1 26.872 -0.134107 0.0172587 -0.0462664 -1 Y
335 -0.0525203 0.0131046 -1 22.3772 -0.0940797 0.0234742 -0.019434 -1 Y
336 -0.0351387 0.0168142 -1 18.5885 -0.062944 0.0301194 0.0020116 -1 Y
337 -0.0301681 0.0128429 -1 19.5921 -0.0540402 0.0230056 0.00639787 -1 Y
338 -0.0250583 -0.00045398 -1 23.8811 -0.0448871 -0.000813215 0.00671783 -1 Y
339 -0.0200381 -0.0131519 -1 27.7757 -0.0358943 -0.023559 0.00686473 -1 Y
340 -0.029844 -0.0430813 -1 43.8107 -0.0534596 -0.0771716 -0.0107594 -1 Y
341 -0.00661336 0.0261498 -1 7.09659 -0.0118465 0.0468423 0.0314314 -1 Y
342 -0.0112543 0.00913671 -1 21.3791 -0.0201599 0.0163666 0.0317888 -1 Y
343 0.0327209 -0.0274569 -1 13.9477 0.0586129 -0.0491836 0.0403625 -1 Y
344 0.0518815 -0.042618 -1 10.6208 0.0929355 -0.0763417 0.0447846 -1 Y
345 0.0291885 -0.0256966 -1 16.0537 0.0522855 -0.0460303 0.0410573 -1 Y
346 0.0151159 -0.0437251 -1 31.7166 0.0270772 -0.0783249 0.0296641 -1 Y
347 0.0174605 -0.0427423 -1 29.6038 0.031277 -0.0765644 0.030261 -1 Y
348 -0.0182636 -0.0189784 -1 42.4572 -0.0327155 -0.0339961 0.0288587 -1 Y
349 2.91221e-05 -0.0203874 -1 29.6272 5.21665e-05 -0.0365201 0.030172 -1 Y
350 0.0203242 -0.0135905 -1 12.6353 0.0364067 -0.0243447 0.0357776 -1 Y
351 0.00756607 -0.0289378 -1 29.0732 0.0135531 -0.0518364 0.0304547 -1 Y
352 -0.00746911 -0.0520335 -1 50.8195 -0.0133794 -0.0932077 0.0229654 -1 Y
353 0.00525637 -0.0605927 -1 43.0239 0.00941575 -0.10854 0.0177101 -1 Y
354 0.0495266 -0.0367497 -1 -7.72765 0.0887171 -0.0658299 0.0155862 -1 Y
355 -0.0658711 -0.012582 -1 95.454 -0.117995 -0.0225382 0.0628329 -1 Y
356 -0.0725584 -0.0297227 -1 108.085 -0.129974 -0.0532423 0.0573114 -1 Y
357 0.0340891 -0.00438032 -1 -17.0595 0.0610639 -0.00784647 0.012597 -1 Y
358 0.0530981 0.00216281 -1 -40.5262 0.0951147 0.00387424 0.00476689 -1 Y
359 0.0553375 0.00251564 -1 -43.0716 0.0991261 0.00450627 0.00377973 -1 Y
360 0.0555283 0.00894674 -1 -46.0806 0.099468 0.0160263 0.00567562 -1 Y
361 0.0555391 0.00890882 -1 -45.8908 0.0994874 0.0159584 0.00598337 -1 Y
362 0.0298206 0.0032233 -1 -10.5462 0.0534177 0.00577391 0.0263024 -1 Y
363 0.00159738 0.00879586 -1 23.898 0.00286139 0.015756 0.0536771 -1 Y
364 0.000685515 0.0100249 -1 24.0121 0.00122796 0.0179575 0.0539349 -1 Y
365 1.80068e-05 0.0106131 -1 25.1504 3.22556e-05 0.0190113 0.0556422 -1 Y
366 -0.00321075 0.00386008 -1 32.6105 -0.00575143 0.00691457 0.0570079 -1 Y
367 0.0052754 -0.00855216 -1 25.135 0.00944984 -0.0153195 0.0422887 -1 Y
368 0.016983 -0.00656107 -1 6.31944 0.0304217 -0.0117529 0.0276061 -1 Y
369 0.033682 -0.0186009 -1 -14.5766 0.0603347 -0.0333199 0.00109596 -1 Y
370 -0.066442 -0.00900174 -1 34.9576 -0.119018 -0.0161248 -0.040422 -1 Y
371 -0.0752197 -0.0105015 -1 35.0534 -0.134741 -0.0188113 -0.054044 -1 Y
372 -0.0353415 -0.00916105 -1 30.2765 -0.0633072 -0.0164102 -0.00567609 -1 Y
373 -0.0314509 0.00845623 -1 21.8129 -0.056338 0.0151477 0.00380157 -1 Y
374 -0.0338764 0.0101706 -1 21.7111 -0.0606828 0.0182186 0.00210233 -1 Y
375 -0.0327483 0.0093025 -1 21.6301 -0.0586621 0.0166636 0.00259103 -1 Y
376 -0.0254013 0.00275186 -1 22.664 -0.0455015 0.00492941 0.00755212 -1 Y
377 -0.0158464 -0.00430086 -1 23.0322 -0.0283858 -0.00770413 0.0138662 -1 Y
378 -0.0396672 0.0167908 -1 30.5155 -0.071056 0.0300774 0.0166644 -1 Y
379 -0.0421113 0.0357258 -1 22.6686 -0.0754341 0.0639957 0.0198557 -1 Y
380 0.0632159 -0.0451191 -1 6.02835 0.113239 -0.0808219 0.0497466 -1 Y
381 0.0029783 -0.0319616 -1 29.9644 0.00533504 -0.0572529 0.0224033 -1 Y
382 0.0275636 -0.0601913 -1 30.8298 0.0493747 -0.107821 0.0276578 -1 Y
383 0.0150146 -0.0682557 -1 41.6136 0.0268958 -0.122267 0.0205242 -1 Y
384 -0.0298452 -0.0127887 -1 39.7767 -0.0534618 -0.0229083 0.0147412 -1 Y
385 -0.0025142 -0.0250481 -1 26.8842 -0.00450368 -0.0448688 0.0168088 -1 Y
386 0.0187565 -0.0168338 -1 8.53942 0.0335985 -0.0301545 0.0229153 -1 Y
387 0.0104241 -0.036372 -1 29.4748 0.0186727 -0.0651532 0.0271269 -1 Y
388 6.16712e-05 -0.053996 -1 45.8238 0.000110472 -0.0967232 0.0225216 -1 Y
389 -0.0203331 -0.0542513 -1 62.9995 -0.0364228 -0.0971804 0.0241387 -1 Y
390 -0.0093225 -0.0527992 -1 52.1323 -0.0166994 -0.0945793 0.0218777 -1 Y
391 0.1348 -0.0149646 -1 -97.3984 0.241468 -0.0268062 -0.000265987 -1 Y
392 -0.0763277 0.0111464 -1 95.6889 -0.136726 0.0199666 0.074269 -1 Y
393 0.0539527 -0.00568685 -1 -37.8738 0.0966456 -0.0101869 0.00216832 -1 Y
394 0.0544191 -0.000859494 -1 -40.6571 0.097481 -0.00153961 0.00311758 -1 Y
395 0.0566036 0.00766662 -1 -47.04 0.101394 0.0137332 0.00410411 -1 Y
396 0.0553536 0.00867773 -1 -45.9058 0.099155 0.0155444 0.00545107 -1 Y
397 0.0493115 0.0319257 -1 -49.1641 0.0883318 0.0571886 0.0163554 -1 Y
398 0.0479003 0.0276825 -1 -44.7551 0.085804 0.0495877 0.0175807 -1 Y
399 0.0287385 0.0217536 -1 -17.1749 0.0514794 0.0389672 0.0330887 -1 Y
400 0.00299677 0.0238988 -1 15.4526 0.00536812 0.04281 0.0570257 -1 Y
401 0.000534132 0.0253377 -1 18.0456 0.000956791 0.0453875 0.0597144 -1 Y
402 0.00406459 0.0263053 -1 12.5851 0.0072809 0.0471208 0.0560568 -1 Y
403 0.011173 0.03281 -1 -0.928499 0.0200143 0.0587727 0.0491678 -1 Y
404 0.0156774 0.0370138 -1 -9.48643 0.0280829 0.0663028 0.0448996 -1 Y
405 0.0137317 0.0956795 -1 -33.3737 0.0245976 0.171391 0.0633392 -1 Y
406 0.0263786 0.129229 -1 -67.8855 0.047252 0.231488 0.0563287 -1 Y
407 -0.0697662 -0.0117912 -1 35.4331 -0.124972 -0.0211216 -0.047199 -1 Y
408 -0.0638233 0.00423566 -1 26.8242 -0.114327 0.00758735 -0.0368408 -1 Y
409 -0.0383923 -0.00258107 -1 27.1164 -0.0687723 -0.00462347 -0.00838247 -1 Y
410 -0.0315327 0.0123156 -1 19.474 -0.0564846 0.022061 0.00372998 -1 Y
411 -0.032534 0.0125837 -1 20.0922 -0.0582783 0.0225411 0.00371571 -1 Y
412 -0.036047 0.00665044 -1 23.6208 -0.064571 0.0119129 -0.00134002 -1 Y
413 -0.0335441 0.00808284 -1 22.3424 -0.0600876 0.0144788 0.00142651 -1 Y
414 -0.0261769 0.00324042 -1 22.5955 -0.0468908 0.00580458 0.00688151 -1 Y
415 -0.019276 -0.00532759 -1 24.5286 -0.0345291 -0.00954332 0.0106338 -1 Y
416 -0.0439782 -0.145948 -1 110.124 -0.0787783 -0.261436 -0.0245013 -1 Y
417 -0.0359727 -0.0741149 -1 70.1986 -0.0644379 -0.132762 -0.00627651 -1 Y
418 -0.0143104 -0.0508001 -1 48.1705 -0.0256343 -0.0909984 0.0101466 -1 Y
419 0.0145324 -0.052131 -1 33.2284 0.0260319 -0.0933824 0.0224676 -1 Y
420 -0.0079513 -0.0353687 -1 38.6211 -0.0142432 -0.063356 0.0187888 -1 Y
421 -0.0288407 -0.0321305 -1 48.4926 -0.0516624 -0.0575554 0.0106421 -1 Y
422 -0.0035939 -0.0180201 -1 24.6722 -0.00643776 -0.0322794 0.0189852 -1 Y
423 0.0364927 -0.0256674 -1 0.859195 0.0653694 -0.0459781 0.0245187 -1 Y
424 0.0298519 -0.0820941 -1 36.588 0.0534738 -0.147055 0.0173865 -1 Y
425 0.0101031 -0.0761966 -1 48.6939 0.0180977 -0.136491 0.01761 -1 Y
426 -0.0177631 -0.044422 -1 55.5124 -0.031819 -0.0795732 0.0251215 -1 Y
427 0.0171217 -0.0426289 -1 23.19 0.0306701 -0.0763612 0.0186415 -1 Y
428 0.199691 -0.0117877 -1 -158.695 0.357708 -0.0211153 -0.0145489 -1 Y
429 0.0632052 -0.000220648 -1 -49.8972 0.11322 -0.000395247 -0.000245044 -1 Y
430 0.0604858 0.00314771 -1 -48.9709 0.108348 0.00563849 0.0012344 -1 Y
431 0.0655697 0.0135773 -1 -59.5059 0.117455 0.024321 0.0009942 -1 Y
432 0.0609082 0.0248007 -1 -60.0338 0.109105 0.0444255 0.00567479 -1 Y
433 0.0683979 0.0397088 -1 -75.4675 0.122521 0.0711305 0.00498143 -1 Y
434 0.0534808 0.00965645 -1 -40.9701 0.0958002 0.0172976 0.01258 -1 Y
435 0.0380564 0.00901774 -1 -22.7634 0.0681705 0.0161535 0.0224916 -1 Y
436 0.0273166 0.0147855 -1 -11.0595 0.0489323 0.0264853 0.0343664 -1 Y
437 0.0107472 0.00759808 -1 13.7477 0.0192515 0.0136105 0.0472436 -1 Y
438 0.00231015 -0.00926322 -1 33.426 0.00413818 -0.0165932 0.0519806 -1 Y
439 0.00558843 0.00712261 -1 20.304 0.0100106 0.0127587 0.0510973 -1 Y
440 0.00799306 -0.00265199 -1 21.6592 0.014318 -0.00475051 0.0462985 -1 Y
441 0.0279489 -0.0110848 -1 -3.9106 0.0500648 -0.0198563 0.0199733 -1 Y
442 0.0344318 -0.018149 -1 -9.91383 0.0616778 -0.0325104 0.0108165 -1 Y
443 0.0143736 -0.0363895 -1 30.6794 0.0257475 -0.0651847 0.0347039 -1 Y
444 -0.0462863 -0.00346806 -1 30.7094 -0.0829127 -0.00621235 -0.0139733 -1 Y
445 -0.0475863 0.00915527 -1 23.2568 -0.0852414 0.0163999 -0.0152925 -1 Y
446 -0.0330356 0.0193041 -1 15.8045 -0.0591768 0.0345796 0.0027152 -1 Y
447 0.00823142 0.044736 -1 -2.57185 0.014745 0.0801357 0.0550301 -1 Y
448 0.00799916 0.0104219 -1 18.5764 0.0143289 0.0186687 0.0549552 -1 Y
449 -0.0389985 0.0191746 -1 18.1385 -0.069858 0.0343475 -0.00159422 -1 Y
450 -0.0397523 0.0144054 -1 20.7986 -0.0712085 0.0258045 -0.00309631 -1 Y
451 -0.0304388 0.00922597 -1 20.8639 -0.0545251 0.0165265 0.00436604 -1 Y
452 -0.0270634 0.0031383 -1 22.9679 -0.0484787 0.00562165 0.00619642 -1 Y
453 -0.00707179 -0.0329281 -1 34.9664 -0.0126677 -0.0589842 0.0162119 -1 Y
454 -0.00540947 -0.0428512 -1 38.6232 -0.00969 -0.0767595 0.0142682 -1 Y
455 -0.00542366 -0.029602 -1 30.8595 -0.00971542 -0.0530261 0.0148595 -1 Y
456 0.0196627 -0.0388173 -1 23.5251 0.0352218 -0.0695336 0.0268561 -1 Y
457 0.00794556 -0.0346731 -1 27.8913 0.0142329 -0.06211 0.0227337 -1 Y
458 -0.0158886 -0.00209045 -1 18.3026 -0.0284613 -0.00374462 0.00787422 -1 Y
459 0.01612 -0.0434231 -1 24.6817 0.0288757 -0.0777839 0.019019 -1 Y
460 0.0341203 -0.0500234 -1 15.5025 0.0611198 -0.0896071 0.0207572 -1 Y
461 0.0285033 -0.201878 -1 100.272 0.051058 -0.361624 -0.00144149 -1 Y
462 0.0393918 -0.0508609 -1 3.28086 0.0705626 -0.0911073 0.0056909 -1 Y
463 -0.0133843 -0.0448777 -1 51.6344 -0.0239754 -0.0803896 0.0238906 -1 Y
464 0.070754 -0.0078013 -1 -42.71 0.126742 -0.0139745 0.0147018 -1 Y
465 0.220349 0.000972114 -1 -185.511 0.394712 0.00174135 -0.0192905 -1 Y
466 0.000144054 0.00495867 -1 25.2374 0.000258044 0.00888248 0.0498864 -1 Y
467 0.0618665 0.00206618 -1 -49.6182 0.110822 0.00370115 0.000848532 -1 Y
468 0.0645972 -0.000300849 -1 -51.1189 0.115713 -0.000538911 -0.000547215 -1 Y
469 0.0663776 -0.00245594 -1 -51.5491 0.118902 -0.00439934 -0.0011519 -1 Y
470 0.0532843 -0.00055772 -1 -37.0899 0.0954483 -0.000999045 0.00813703 -1 Y
471 0.0416842 -0.028193 -1 -7.60541 0.074669 -0.0505022 0.0141278 -1 Y
472 0.0379154 -0.0223464 -1 -6.00952 0.0679179 -0.0400292 0.0179944 -1 Y
473 0.0182269 -0.0157348 -1 15.5705 0.03265 -0.0281858 0.0357195 -1 Y
474 -0.000322658 -0.0255173 -1 45.1855 -0.000577978 -0.0457093 0.0515066 -1 Y
475 -0.00724808 -0.024358 -1 53.5233 -0.0129835 -0.0436325 0.0577994 -1 Y
476 0.00263716 -0.0333823 -1 44.8303 0.00472395 -0.0597978 0.0465265 -1 Y
477 0.023328 -0.0215669 -1 8.02783 0.0417876 -0.0386328 0.0232659 -1 Y
478 0.025742 -0.0183214 -1 2.83054 0.0461117 -0.0328191 0.0209729 -1 Y
479 0.0272643 -0.0213384 -1 2.8515 0.0488386 -0.0382235 0.0198755 -1 Y
480 0.00176811 -0.0331667 -1 48.3441 0.00316722 -0.0594115 0.051728 -1 Y
481 -0.0413176 0.00125021 -1 27.6789 -0.0740123 0.00223951 -0.00732996 -1 Y
482 -0.0255269 0.00742578 -1 22.3583 -0.0457265 0.0133018 0.0118694 -1 Y
483 -0.015532 0.0101983 -1 19.8418 -0.0278225 0.0182682 0.0242952 -1 Y
484 0.0242914 0.00442109 -1 17.4769 0.0435133 0.00791951 0.069168 -1 Y
485 0.0414501 0.00552328 -1 14.8436 0.0742497 0.00989387 0.0895293 -1 Y
486 -0.0483621 0.0111861 -1 25.0677 -0.0866311 0.0200376 -0.0110014 -1 Y
487 -0.042734 0.00205799 -1 28.4415 -0.0765495 0.00368649 -0.0070856 -1 Y
488 -0.0324154 0.00185037 -1 25.6181 -0.0580658 0.00331457 0.00204355 -1 Y
489 -0.0246992 0.00437551 -1 21.2689 -0.0442437 0.00783786 0.0078213 -1 Y
490 -0.0292804 -0.00206 -1 26.8884 -0.05245 -0.00369009 0.00441787 -1 Y
491 -0.0149156 -0.00907132 -1 24.4537 -0.0267183 -0.0162495 0.0125232 -1 Y
492 -0.00183116 -0.00227136 -1 13.4761 -0.00328016 -0.00406869 0.0186985 -1 Y
493 0.00942041 -0.0177856 -1 16.5171 0.0168748 -0.0318593 0.0229598 -1 Y
494 -0.0455616 0.0269277 -1 20.1175 -0.0816147 0.0482356 0.00112031 -1 Y
495 -0.035045 0.0212103 -1 16.8144 -0.0627762 0.037994 0.00375337 -1 Y
496 -0.0209844 0.0141703 -1 12.516 -0.0375895 0.0253833 0.00813062 -1 Y
497 -0.0313931 -0.024012 -1 42.1797 -0.0562345 -0.0430127 0.00474175 -1 Y
498 -0.016291 -0.0624015 -1 53.59 -0.0291821 -0.11178 0.00444135 -1 Y
499 0.0274342 -0.110635 -1 47.7411 0.049143 -0.19818 0.00292663 -1 Y
500 0.0349156 -0.0229192 -1 -8.70389 0.0625444 -0.0410552 0.00848182 -1 Y
501 0.0750754 0.0553884 -1 -82.7841 0.134483 0.0992174 0.0182562 -1 Y
502 0.195818 0.0195442 -1 -172.829 0.350769 0.0350095 -0.011052 -1 Y
503 0.0653299 -0.00490462 -1 -49.3704 0.117026 -0.00878565 -0.00141106 -1 Y
504 0.0651855 -0.00765844 -1 -47.6097 0.116767 -0.0137186 -0.00147998 -1 Y
505 0.0674657 0.0111784 -1 -61.3726 0.120852 0.020024 -0.00223709 -1 Y
506 0.0619115 -0.018779 -1 -37.447 0.110902 -0.0336389 -0.000126708 -1 Y
507 0.0519755 0.0045775 -1 -39.9965 0.0931039 0.00819968 0.0067383 -1 Y
508 0.0448793 -0.0057544 -1 -24.8579 0.0803924 -0.0103079 0.0123826 -1 Y
509 0.0417532 0.00232269 -1 -25.5714 0.0747927 0.00416063 0.0154821 -1 Y
510 0.0197525 -0.0059247 -1 7.66746 0.0353827 -0.0106129 0.0345017 -1 Y
511 -0.00172227 -0.00881667 -1 37.4302 -0.0030851 -0.0157933 0.0539041 -1 Y
512 -0.00943179 0.00256498 -1 41.0829 -0.0168952 0.00459465 0.0618736 -1 Y
513 0.00260851 0.00308625 -1 23.0898 0.00467263 0.0055284 0.0475165 -1 Y
514 0.0196581 -0.00125465 -1 1.97681 0.0352136 -0.00224746 0.0293946 -1 Y
515 0.0237608 -0.00939456 -1 0.644141 0.0425627 -0.0168285 0.0239863 -1 Y
516 0.0287258 -0.00511789 -1 -9.1703 0.0514566 -0.00916769 0.0182275 -1 Y
517 -0.0239822 -0.00226125 -1 71.4613 -0.0429594 -0.00405059 0.0898825 -1 Y
518 -0.0397159 -0.00103404 -1 29.1301 -0.0711432 -0.00185228 -0.0050154 -1 Y
519 -0.0365506 0.00546424 -1 24.512 -0.0654731 0.0097881 -0.00174869 -1 Y
520 -0.0189105 0.00669234 -1 22.3219 -0.0338744 0.011988 0.0201948 -1 Y
521 0.0230995 -0.011592 -1 27.8094 0.0413782 -0.0207649 0.0684443 -1 Y
522 0.0481139 0.00240449 -1 15.6422 0.0861865 0.00430717 0.0968216 -1 Y
523 -0.0479975 -0.00463452 -1 34.6804 -0.085978 -0.00830183 -0.0106237 -1 Y
524 -0.0501699 0.00014178 -1 31.8247 -0.0898695 0.000253971 -0.0135171 -1 Y
525 -0.0317483 -0.0024737 -1 27.9266 -0.0568708 -0.00443115 0.00237379 -1 Y
526 -0.0221504 0.00175131 -1 22.0076 -0.0396781 0.00313713 0.00983196 -1 Y
527 -0.121783 0.0263852 -1 54.9905 -0.218151 0.0472638 -0.0439157 -1 Y
528 -0.0171691 0.000106021 -1 20.0593 -0.0307551 0.000189916 0.0115481 -1 Y
529 0.0428261 0.123738 -1 -80.9395 0.0767145 0.221653 0.0502972 -1 Y
530 0.0321298 -0.0128842 -1 2.62602 0.0575542 -0.0230794 0.0353247 -1 Y
531 0.0999958 0.0090323 -1 -49.6569 0.179123 0.0161796 0.0611698 -1 Y
532 -0.0116874 0.0423669 -1 -2.49739 -0.0209356 0.0758919 0.02498 -1 Y
533 0.00162203 0.0774053 -1 -27.7963 0.00290555 0.138656 0.0366809 -1 Y
534 -0.0574199 0.0898839 -1 -8.58701 -0.102856 0.161009 0.00195932 -1 Y
535 0.0372673 0.256196 -1 -184.667 0.0667569 0.458925 0.00280649 -1 Y
536 0.0431961 0.213511 -1 -162.156 0.0773773 0.382462 0.00466699 -1 Y
537 0.0689376 0.152586 -1 -144.712 0.123488 0.273328 0.00548406 -1 Y
538 0.0775826 0.0597973 -1 -88.0681 0.138974 0.107115 0.0171918 -1 Y
539 0.0880758 0.023226 -1 -73.4352 0.15777 0.0416048 0.0181173 -1 Y
540 -0.0532095 0.0290543 -1 60.051 -0.0953142 0.052045 0.0629772 -1 Y
541 -0.0639398 0.030853 -1 69.7264 -0.114536 0.0552671 0.0670302 -1 Y
542 -0.055107 0.0595909 -1 41.4679 -0.0987132 0.106745 0.0605413 -1 Y
543 0.0577828 0.0130138 -1 -52.2285 0.103507 0.0233117 0.00237474 -1 Y
544 0.0796317 0.0294673 -1 -87.3233 0.142645 0.0527848 -0.0112884 -1 Y
545 0.0525487 0.032681 -1 -57.1896 0.0941307 0.0585416 0.00755509 -1 Y
546 0.0256213 0.0273616 -1 -20.8546 0.0458956 0.0490129 0.0283314 -1 Y
547 0.0219279 0.0122503 -1 -6.35066 0.0392795 0.0219441 0.0324387 -1 Y
548 0.00246796 0.00855448 -1 21.3246 0.00442086 0.0153237 0.0501027 -1 Y
549 0.00167557 0.0165163 -1 17.4184 0.00300145 0.0295857 0.0507048 -1 Y
550 0.00769255 0.0130804 -1 16.9522 0.0137797 0.0234309 0.0545359 -1 Y
551 -0.0102091 0.0247893 -1 35.6481 -0.0182877 0.0444051 0.075155 -1 Y
552 -0.0115125 0.0824759 -1 -1.01858 -0.0206224 0.147739 0.0709742 -1 Y
553 -0.0253058 0.0312513 -1 53.3199 -0.0453303 0.0559806 0.0922209 -1 Y
554 -0.0361371 0.0265306 -1 72.9547 -0.0647325 0.0475244 0.106622 -1 Y
555 0.20463 -0.00366837 -1 2.41969 0.366554 -0.00657116 0.284176 -1 N
556 -0.0210083 0.0237142 -1 10.958 -0.0376321 0.0424793 0.0156277 -1 Y
557 -0.0262482 0.015 -1 17.4441 -0.0470186 0.0268695 0.0103816 -1 Y
558 -0.0150649 0.000925933 -1 25.5988 -0.0269857 0.00165863 0.0250843 -1 Y
559 0.114193 -0.0457375 -1 55.636 0.204554 -0.0819298 0.206978 -1 Y
560 0.00717413 -0.0529107 -1 78.7293 0.012851 -0.0947791 0.0913833 -1 Y
561 0.0175948 0.293124 -1 -155.317 0.0315176 0.525074 0.0668269 -1 Y
562 -0.0873356 0.0109869 -1 71.7163 -0.156445 0.0196808 0.016698 -1 Y
563 -0.0984303 0.0186103 -1 70.4397 -0.176318 0.0333367 0.00726548 -1 Y
564 -0.0206998 0.0581438 -1 -7.38091 -0.0370796 0.104153 0.0208696 -1 Y
565 0.00399829 0.113264 -1 -55.9301 0.00716214 0.202891 0.0291159 -1 Y
566 0.0287667 0.105218 -1 -61.3283 0.0515299 0.188477 0.045332 -1 Y
567 -0.00495142 0.0650517 -1 -15.7465 -0.00886949 0.116527 0.035447 -1 Y
568 -0.000795264 0.332591 -1 -204.98 -0.00142456 0.595772 -0.00349956 -1 Y
569 0.000708574 0.0599439 -1 -15.79 0.00126927 0.107378 0.0377269 -1 Y
570 -0.0141252 0.0626128 -1 -7.44338 -0.0253025 0.112159 0.0346885 -1 Y
571 -0.0102186 0.34482 -1 -206.539 -0.0183047 0.617676 -0.00615519 -1 Y
572 -0.00194254 0.342572 -1 -211.2 -0.00347968 0.61365 -0.00528404 -1 Y
573 -0.000555323 0.323389 -1 -199.077 -0.000994752 0.579287 -0.00269452 -1 Y
574 0.0166062 0.307962 -1 -202.769 0.0297468 0.551653 -0.00197305 -1 Y
575 0.123173 0.111856 -1 -163.34 0.22064 0.200368 0.0041649 -1 Y
576 0.0897862 0.0553617 -1 -95.9975 0.160834 0.0991696 0.015414 -1 Y
577 0.0310229 0.031587 -1 -23.6446 0.0555713 0.0565819 0.0354677 -1 Y
578 -0.0262782 0.032149 -1 30.7251 -0.0470722 0.0575886 0.0521302 -1 Y
579 -0.025492 0.114165 -1 -25.9622 -0.0456638 0.204504 0.0418396 -1 Y
580 0.0208121 0.251397 -1 -169.262 0.0372807 0.450328 0.00188843 -1 Y
581 0.0465006 0.200049 -1 -162.554 0.0832966 0.358349 -0.00593025 -1 Y
582 0.030773 0.0679798 -1 -53.4511 0.0551237 0.121772 0.0218942 -1 Y
583 0.0110676 0.0360925 -1 -7.85905 0.0198255 0.0646525 0.0403736 -1 Y
584 0.0131878 0.0292247 -1 -6.2033 0.0236234 0.0523502 0.0388356 -1 Y
585 0.0123875 0.0226002 -1 -1.21646 0.0221897 0.0404837 0.0393618 -1 Y
586 0.0192151 0.00644961 -1 5.26014 0.03442 0.0115532 0.042839 -1 Y
587 0.00389548 0.0292534 -1 11.3758 0.00697798 0.0524018 0.0568689 -1 Y
588 -0.000784885 0.0184111 -1 25.7666 -0.00140597 0.0329799 0.0640012 -1 Y
589 -0.0149154 0.0171466 -1 47.8663 -0.026718 0.0307147 0.0818757 -1 Y
590 -0.0292826 0.0535278 -1 44.6893 -0.0524541 0.0958845 0.0955039 -1 Y
591 -0.0394647 0.0410362 -1 69.0753 -0.0706933 0.0735082 0.110795 -1 Y
592 -0.0100186 0.302617 -1 -184.756 -0.0179464 0.542078 -0.0130036 -1 Y
593 -0.0131467 0.310626 -1 -190.799 -0.0235498 0.556426 -0.0193453 -1 Y
594 -0.0226041 0.339937 -1 -211.971 -0.0404907 0.608929 -0.0381368 -1 Y
595 0.0636654 -0.0245217 -1 137.851 0.114044 -0.0439258 0.304193 -1 Y
596 0.0114632 0.00476131 -1 49.6467 0.020534 0.00852894 0.108273 -1 Y
597 -0.0124275 0.0135551 -1 48.661 -0.0222614 0.0242813 0.0828596 -1 Y
598 -0.0529833 0.0172347 -1 57.1579 -0.094909 0.0308726 0.0454903 -1 Y
599 -0.0856205 0.0137295 -1 69.4632 -0.153372 0.0245937 0.0180684 -1 Y
600 -0.103981 0.00838759 -1 79.81 -0.186261 0.0150247 0.00503455 -1 Y
601 -0.118872 0.0145134 -1 81.0861 -0.212935 0.0259978 -0.00678978 -1 Y
602 0.0118891 0.377587 -1 -244.396 0.021297 0.676373 -0.00676174 -1 Y
603 0.0174007 0.36722 -1 -239.579 0.0311699 0.657803 -0.00180374 -1 Y
604 0.0070188 0.355016 -1 -225.365 0.0125728 0.635941 -0.00435705 -1 Y
605 0.00396859 0.351583 -1 -221.221 0.00710894 0.629791 -0.0049999 -1 Y
606 -0.00161611 0.352646 -1 -218.563 -0.00289495 0.631696 -0.00693202 -1 Y
607 -0.00155659 0.356109 -1 -221.188 -0.00278832 0.6379 -0.00773599 -1 Y
608 0.00098088 0.350937 -1 -219.314 0.00175705 0.628635 -0.00648743 -1 Y
609 0.00330458 0.351805 -1 -221.844 0.00591951 0.630189 -0.0067763 -1 Y
610 0.00334176 0.345038 -1 -217.199 0.00598611 0.618068 -0.00584218 -1 Y
611 -0.0022853 0.341057 -1 -209.881 -0.00409367 0.610936 -0.00507199 -1 Y
612 0.00513979 0.363464 -1 -232.563 0.00920692 0.651074 -0.0105255 -1 Y
613 0.00508356 0.367038 -1 -235.172 0.0091062 0.657476 -0.0113422 -1 Y
614 0.00335311 0.344612 -1 -216.95 0.00600644 0.617304 -0.00584713 -1 Y
615 -0.000413842 0.329082 -1 -201.679 -0.000741316 0.589486 -0.00094493 -1 Y
616 0.00151886 0.33114 -1 -204.986 0.00272074 0.593172 -0.00186109 -1 Y
617 0.0128507 0.318361 -1 -207.979 0.0230195 0.57028 -0.0051507 -1 Y
618 0.0149653 0.256007 -1 -165.536 0.0268073 0.458587 0.0052862 -1 Y
619 0.00197193 0.260286 -1 -153.266 0.00353232 0.466251 0.0134275 -1 Y
620 -0.000736046 0.258681 -1 -148.906 -0.00131848 0.463377 0.0156062 -1 Y
621 0.0085502 0.245536 -1 -151.201 0.015316 0.439829 0.0103131 -1 Y
622 0.016223 0.201436 -1 -129.845 0.0290602 0.360832 0.0110402 -1 Y
623 0.0306789 0.0941319 -1 -72.0464 0.0549552 0.168619 0.0172215 -1 Y
624 0.00463496 0.0616098 -1 -12.5704 0.00830261 0.110362 0.0506241 -1 Y
625 0.00351219 0.0434197 -1 1.83615 0.0062914 0.0777777 0.0548137 -1 Y
626 0.00389195 0.111016 -1 -47.1524 0.00697166 0.198863 0.0419753 -1 Y
627 0.00497002 0.150161 -1 -77.0838 0.00890282 0.268983 0.0329851 -1 Y
628 -0.00400183 0.18174 -1 -85.8145 -0.00716848 0.325552 0.0391722 -1 Y
629 0.199985 -0.000471806 -1 0.194246 0.358233 -0.000845147 0.27726 -1 N
630 -0.0129434 0.332394 -1 -207.032 -0.0231855 0.595418 -0.02417 -1 Y
631 -0.00891359 0.347669 -1 -219.196 -0.0159669 0.62278 -0.0235226 -1 Y
632 0.0209657 0.0125153 -1 42.0323 0.037556 0.0224187 0.116416 -1 Y
633 0.0110126 0.00871868 -1 46.7254 0.019727 0.0156178 0.106772 -1 Y
634 -0.00475409 0.0197708 -1 42.0246 -0.00851601 0.0354154 0.088529 -1 Y
635 -0.0493252 0.0245453 -1 50.1863 -0.0883563 0.043968 0.0461784 -1 Y
636 -0.0835517 0.0176388 -1 65.7314 -0.149666 0.0315965 0.0185861 -1 Y
637 0.00739898 0.348422 -1 -219.767 0.0132538 0.62413 -0.00108588 -1 Y
638 0.00350011 0.362694 -1 -229.511 0.00626976 0.649695 -0.00826479 -1 Y
639 0.00711126 0.36483 -1 -232.72 0.0127384 0.653521 -0.00659635 -1 Y
640 0.00831123 0.363594 -1 -232.397 0.0148879 0.651306 -0.00569341 -1 Y
641 0.00445289 0.360892 -1 -228.3 0.00797647 0.646467 -0.0067534 -1 Y
642 0.00137443 0.358886 -1 -225.036 0.00246201 0.642873 -0.0074451 -1 Y
643 -0.000613142 0.357692 -1 -222.88 -0.00109832 0.640735 -0.00769791 -1 Y
644 -0.00201433 0.357362 -1 -221.746 -0.00360828 0.640144 -0.00800469 -1 Y
645 0.000242823 0.3587 -1 -224.405 0.000434969 0.64254 -0.00810625 -1 Y
646 0.00170761 0.360068 -1 -226.5 0.00305884 0.644991 -0.00828432 -1 Y
647 -0.000837338 0.361594 -1 -225.65 -0.00149993 0.647724 -0.0086798 -1 Y
648 -0.00060599 0.360791 -1 -225.365 -0.00108551 0.646286 -0.00872086 -1 Y
649 0.00387647 0.362639 -1 -230.57 0.00694393 0.649596 -0.00966271 -1 Y
650 0.00509076 0.361261 -1 -230.558 0.00911908 0.647128 -0.00943889 -1 Y
651 0.00277147 0.363259 -1 -229.965 0.00496453 0.650706 -0.00946455 -1 Y
652 0.00178101 0.355706 -1 -223.37 0.00319032 0.637178 -0.00737451 -1 Y
653 0.0029831 0.348578 -1 -219.251 0.00534363 0.624409 -0.0061374 -1 Y
654 -0.00116793 0.349623 -1 -215.424 -0.00209212 0.62628 -0.00404749 -1 Y
655 -0.00563808 0.359682 -1 -218.037 -0.0100995 0.644299 -0.00401779 -1 Y
656 0.001768 0.360358 -1 -227.069 0.00316703 0.64551 -0.00888824 -1 Y
657 0.00164708 0.367518 -1 -232.404 0.00295041 0.658337 -0.0107285 -1 Y
658 0.0024008 0.374219 -1 -238.548 0.00430055 0.67034 -0.0132713 -1 Y
659 0.00264665 0.370256 -1 -235.872 0.00474095 0.663241 -0.0124911 -1 Y
660 0.000194541 0.374661 -1 -235.906 0.000348481 0.671131 -0.0112125 -1 Y
661 -0.000712571 0.374275 -1 -234.259 -0.00127643 0.67044 -0.00999259 -1 Y
662 -1.63893e-05 0.381554 -1 -240.856 -2.93581e-05 0.683479 -0.0127875 -1 Y
663 -0.00117389 0.371152 -1 -231.051 -0.00210279 0.664845 -0.00835385 -1 Y
664 -0.00255637 0.380908 -1 -236.468 -0.00457923 0.682322 -0.00929629 -1 Y
665 0.00751213 0.359774 -1 -235.864 0.0134565 0.644464 -0.017005 -1 Y
666 0.192071 0.00440149 -1 -3.37699 0.344057 0.0078844 0.265249 -1 Y
667 7.7456e-07 0.358586 -1 -228.239 1.38747e-06 0.642337 -0.0153017 -1 Y
668 -0.00477241 0.364354 -1 -232.666 -0.00854884 0.652668 -0.0234981 -1 Y
669 0.010169 0.367126 -1 -236.497 0.0182158 0.657634 -0.00652134 -1 Y
670 0.0130697 0.367995 -1 -237.663 0.0234118 0.65919 -0.00361173 -1 Y
671 0.017557 0.371826 -1 -241.685 0.0314499 0.666053 -0.000333771 -1 Y
672 0.0144167 0.366718 -1 -236.746 0.0258247 0.656903 -0.00150578 -1 Y
673 0.0108323 0.362602 -1 -232.323 0.0194039 0.649529 -0.00313389 -1 Y
674 0.00910125 0.357327 -1 -227.426 0.0163031 0.64008 -0.00260478 -1 Y
675 0.00569877 0.359872 -1 -228.159 0.0102082 0.64464 -0.00587374 -1 Y
676 0.00610754 0.360022 -1 -228.421 0.0109405 0.644909 -0.00560662 -1 Y
677 0.00442739 0.358351 -1 -226.249 0.00793079 0.641915 -0.00591723 -1 Y
678 0.00173573 0.354085 -1 -221.342 0.00310923 0.634274 -0.00561724 -1 Y
679 0.00101008 0.354539 -1 -221.296 0.00180935 0.635087 -0.00605416 -1 Y
680 -0.00210782 0.353654 -1 -218.695 -0.00377574 0.633502 -0.00676087 -1 Y
681 -0.000292439 0.34974 -1 -216.815 -0.000523846 0.626491 -0.00514992 -1 Y
682 0.0026778 0.352686 -1 -221.311 0.00479674 0.631767 -0.00576104 -1 Y
683 0.00319449 0.352933 -1 -221.918 0.00572229 0.632209 -0.00584668 -1 Y
684 -0.000681876 0.354593 -1 -220.186 -0.00122145 0.635184 -0.00639262 -1 Y
685 -0.00174454 0.353181 -1 -218.27 -0.00312501 0.632654 -0.00601869 -1 Y
686 0.00303101 0.351393 -1 -220.987 0.00542945 0.629451 -0.00609373 -1 Y
687 0.00423853 0.352032 -1 -222.5 0.00759249 0.630595 -0.00639103 -1 Y
688 0.00273435 0.354596 -1 -222.989 0.00489805 0.635189 -0.00657652 -1 Y
689 -0.00281703 0.355852 -1 -218.481 -0.00504615 0.637439 -0.0050053 -1 Y
690 -0.000552085 0.355881 -1 -220.97 -0.000988951 0.63749 -0.00620642 -1 Y
691 -0.00193099 0.35527 -1 -219.006 -0.00345898 0.636396 -0.00532408 -1 Y
692 0.000252185 0.353997 -1 -220.453 0.000451739 0.634115 -0.00620793 -1 Y
693 0.00132605 0.351744 -1 -219.82 0.00237535 0.63008 -0.00603096 -1 Y
694 0.00244018 0.350796 -1 -220.367 0.00437109 0.628382 -0.00646627 -1 Y
695 0.00283464 0.353588 -1 -223.026 0.0050777 0.633382 -0.00758767 -1 Y
696 0.000855262 0.344655 -1 -213.157 0.00153203 0.617381 -0.00260107 -1 Y
697 0.00307863 0.351882 -1 -222.027 0.00551476 0.630328 -0.0073293 -1 Y
698 0.00257571 0.345029 -1 -215.899 0.00461388 0.618051 -0.00463034 -1 Y
699 0.000671614 0.353997 -1 -220.364 0.00120306 0.634116 -0.00547019 -1 Y
700 0.00142774 0.342238 -1 -212.162 0.00255752 0.613052 -0.00265782 -1 Y
701 0.0035689 0.341206 -1 -214.778 0.00639299 0.611204 -0.00539533 -1 Y
702 6.38403 0.00176342 -1 -10170.7 11.4357 0.00315883 -9.01574 -1 N
703 0.203879 0.00794961 -1 -6.5349 0.365209 0.0142402 0.279897 -1 Y
704 0.00467491 0.362709 -1 -231.943 0.00837418 0.649721 -0.0108915 -1 Y
705 0.00416634 0.36641 -1 -235.045 0.00746318 0.656351 -0.013067 -1 Y
706 0.00907178 0.365231 -1 -234.497 0.0162503 0.654238 -0.00656891 -1 Y
707 0.0107511 0.363511 -1 -233.209 0.0192586 0.651159 -0.00382404 -1 Y
708 0.0107168 0.357954 -1 -228.398 0.019197 0.641204 -0.00139558 -1 Y
709 0.00966471 0.357806 -1 -228.023 0.0173124 0.640938 -0.00235627 -1 Y
710 0.00856517 0.3576 -1 -227.468 0.0153428 0.640571 -0.00312684 -1 Y
711 0.00956203 0.357431 -1 -227.633 0.0171285 0.640266 -0.00221646 -1 Y
712 0.00455281 0.354858 -1 -223.462 0.00815547 0.635658 -0.00460402 -1 Y
713 0.00274482 0.35366 -1 -221.566 0.0049168 0.633512 -0.00506844 -1 Y
714 0.00235939 0.351608 -1 -219.639 0.00422638 0.629837 -0.00442429 -1 Y
715 -0.00116061 0.347789 -1 -214.439 -0.002079 0.622996 -0.00427795 -1 Y
716 -0.00226866 0.347202 -1 -213.288 -0.00406386 0.621944 -0.00442441 -1 Y
717 -0.00474117 0.341727 -1 -207.229 -0.00849287 0.612137 -0.00309684 -1 Y
718 0.00056607 0.344333 -1 -212.928 0.001014 0.616804 -0.00294688 -1 Y
719 0.00324453 0.347948 -1 -217.811 0.00581194 0.62328 -0.00392312 -1 Y
720 0.00316318 0.346856 -1 -216.79 0.00566621 0.621325 -0.00341456 -1 Y
721 0.00135811 0.349792 -1 -217.871 0.00243279 0.626583 -0.00466143 -1 Y
722 -0.00400134 0.349797 -1 -213.506 -0.00716762 0.626592 -0.00441879 -1 Y
723 0.00029297 0.346515 -1 -214.568 0.000524798 0.620712 -0.00385922 -1 Y
724 0.00642952 0.345754 -1 -219.508 0.0115172 0.61935 -0.00484674 -1 Y
725 0.00643142 0.346973 -1 -220.462 0.0115206 0.621533 -0.00520917 -1 Y
726 -0.000715192 0.348814 -1 -214.869 -0.00128113 0.624831 -0.00331343 -1 Y
727 -4.04241e-05 0.349829 -1 -216.441 -7.24119e-05 0.626649 -0.00404768 -1 Y
728 -0.00181672 0.352696 -1 -216.984 -0.0032543 0.631784 -0.0043824 -1 Y
729 -3.52751e-05 0.35148 -1 -217.953 -6.31884e-05 0.629608 -0.00492145 -1 Y
730 -0.00102622 0.348529 -1 -214.241 -0.00183828 0.624321 -0.00294733 -1 Y
731 -0.00139487 0.34596 -1 -211.603 -0.00249863 0.619719 -0.00158783 -1 Y
732 -0.000258043 0.341041 -1 -208.821 -0.000462234 0.610908 -0.000413055 -1 Y
733 -0.00200905 0.336663 -1 -202.81 -0.00359882 0.603065 0.00301005 -1 Y
734 -0.000683869 0.337003 -1 -204.832 -0.00122502 0.603675 0.00166205 -1 Y
735 -0.00275047 0.33211 -1 -197.864 -0.00492693 0.594909 0.00577547 -1 Y
736 -0.00310764 0.331368 -1 -196.576 -0.00556671 0.59358 0.00674449 -1 Y
737 -0.00295649 0.327984 -1 -193.957 -0.00529597 0.587518 0.00791583 -1 Y
738 -0.00254118 0.326033 -1 -193.009 -0.00455202 0.584024 0.00806001 -1 Y
739 0.00183726 0.326358 -1 -200.07 0.00329109 0.584606 0.00207423 -1 Y
740 0.218465 0.00839916 -1 -7.16231 0.391337 0.0150454 0.299513 -1 Y
741 0.287304 0.10443 -1 -77.7611 0.514649 0.187066 0.374259 -1 Y
742 0.00446084 0.352116 -1 -222.426 0.00799072 0.630746 -0.00586189 -1 Y
743 0.0102741 0.354146 -1 -225.054 0.0184039 0.634382 -0.000231945 -1 Y
744 0.0116975 0.354558 -1 -225.688 0.0209538 0.635121 0.00107344 -1 Y
745 0.0124728 0.353885 -1 -225.268 0.0223425 0.633915 0.00216226 -1 Y
746 0.0107058 0.354211 -1 -225.131 0.0191774 0.634499 0.000301957 -1 Y
747 0.00761501 0.353433 -1 -223.507 0.0136408 0.633106 -0.00196851 -1 Y
748 0.00779764 0.350911 -1 -221.395 0.0139679 0.628588 -0.000716865 -1 Y
749 0.0058252 0.350649 -1 -220.431 0.0104347 0.628118 -0.00204043 -1 Y
750 0.00407791 0.352497 -1 -221.246 0.00730477 0.631428 -0.00390797 -1 Y
751 0.00166514 0.352333 -1 -219.964 0.00298277 0.631136 -0.00517911 -1 Y
752 -0.00518984 0.347293 -1 -211.766 -0.00929657 0.622107 -0.00570416 -1 Y
753 -0.00957762 0.343237 -1 -205.733 -0.0171564 0.614841 -0.00555243 -1 Y
754 -0.00627171 0.345685 -1 -210.234 -0.0112345 0.619226 -0.00624355 -1 Y
755 0.00361072 0.341 -1 -212.349 0.00646789 0.610834 -0.00129136 -1 Y
756 0.00489597 0.339463 -1 -211.651 0.00877017 0.608081 6.47431e-05 -1 Y
757 0.0261915 -0.0167873 -1 -3.23177 0.0469169 -0.0300712 0.0125931 -1 Y
758 0.0163393 -0.0127542 -1 0.697181 0.0292687 -0.0228466 0.0101697 -1 Y
759 0.0104175 -0.0335361 -1 24.3315 0.0186609 -0.0600733 0.02113 -1 Y
760 0.00379165 0.340124 -1 -212.186 0.00679199 0.609265 -0.00169652 -1 Y
761 0.0074629 0.344379 -1 -219.26 0.0133683 0.616887 -0.00445722 -1 Y
762 0.00662585 -0.026365 -1 20.4482 0.0118689 -0.0472276 0.0167612 -1 Y
763 -0.00716912 -0.0360194 -1 43.4508 -0.0128421 -0.0645217 0.0276614 -1 Y
764 0.00195899 0.352611 -1 -221.116 0.00350914 0.631633 -0.00649771 -1 Y
765 -0.00250837 0.352946 -1 -216.415 -0.00449324 0.632233 -0.00407232 -1 Y
766 -0.00110721 0.352495 -1 -217.724 -0.00198334 0.631425 -0.00491388 -1 Y
767 -0.00357404 0.347952 -1 -210.73 -0.00640218 0.623287 -0.000933395 -1 Y
768 -0.00538911 0.345247 -1 -206.1 -0.00965354 0.618442 0.00177581 -1 Y
769 -0.0041314 0.342453 -1 -205.178 -0.00740059 0.613437 0.00213419 -1 Y
770 -0.00497416 0.340628 -1 -202.423 -0.00891022 0.610167 0.00384361 -1 Y
771 -0.0041801 0.337384 -1 -200.549 -0.00748783 0.604358 0.00474906 -1 Y
772 -0.00538671 0.337114 -1 -198.643 -0.00964923 0.603874 0.00613463 -1 Y
773 -0.00382632 0.333082 -1 -197.217 -0.0068541 0.596651 0.00646631 -1 Y
774 -0.00632055 0.329381 -1 -190.196 -0.011322 0.59002 0.0113617 -1 Y
775 -0.00527006 0.330395 -1 -192.654 -0.00944027 0.591838 0.00959127 -1 Y
776 -0.00241609 0.326786 -1 -193.854 -0.00432795 0.585372 0.00755827 -1 Y
777 0.238451 0.0125249 -1 -11.301 0.427138 0.0224359 0.324404 -1 Y
778 0.0381001 -0.422115 -1 433.129 0.0682489 -0.756136 0.359877 -1 Y
779 0.00985941 0.344735 -1 -216.348 0.0176612 0.617525 0.00436788 -1 Y
780 0.0112227 0.349747 -1 -221.215 0.0201033 0.626503 0.00309825 -1 Y
781 0.0132799 0.348047 -1 -219.931 0.0237883 0.623458 0.00638051 -1 Y
782 0.011083 0.349091 -1 -220.471 0.0198529 0.625328 0.0035058 -1 Y
783 0.00774975 0.346019 -1 -216.797 0.0138821 0.619825 0.00203473 -1 Y
784 0.00708344 0.348343 -1 -218.817 0.0126886 0.623988 6.09929e-05 -1 Y
785 0.0091987 0.350759 -1 -221.847 0.0164777 0.628315 0.000269188 -1 Y
786 0.00907579 0.353939 -1 -224.758 0.0162575 0.634012 -0.00159629 -1 Y
787 0.0018611 0.348047 -1 -215.925 0.00333379 0.623458 -0.0024202 -1 Y
788 -0.00197651 0.348812 -1 -214.851 -0.00354053 0.624827 -0.00503409 -1 Y
789 -0.00629909 0.341804 -1 -206.055 -0.0112836 0.612275 -0.00311086 -1 Y
790 -0.00812152 0.347572 -1 -210.514 -0.0145481 0.622607 -0.00727074 -1 Y
791 -0.00514354 0.360751 -1 -224.915 -0.00921363 0.646214 -0.014269 -1 Y
792 0.00191602 0.354317 -1 -223.552 0.00343217 0.634689 -0.00900123 -1 Y
793 0.00220917 0.347463 -1 -217.299 0.0039573 0.622412 -0.00497952 -1 Y
794 -0.00268496 0.346695 -1 -212.781 -0.00480957 0.621036 -0.00465645 -1 Y
795 -0.00461839 -0.0136886 -1 19.1158 -0.00827293 -0.0245203 0.0124595 -1 Y
796 -0.000839304 -0.0122205 -1 14.2066 -0.00150345 -0.0218905 0.0106542 -1 Y
797 0.00357624 -0.0129441 -1 11.0623 0.00640613 -0.0231869 0.0104753 -1 Y
798 0.00834334 -0.0130043 -1 6.51681 0.0149454 -0.0232947 0.00903548 -1 Y
799 0.000801621 -0.0211393 -1 21.6197 0.00143595 -0.0378668 0.0163626 -1 Y
800 -0.0121927 -0.0229602 -1 36.5284 -0.0218408 -0.0411286 0.0225775 -1 Y
801 0.00428163 0.348273 -1 -219.548 0.0076697 0.623862 -0.00518774 -1 Y
802 -0.000763859 0.349959 -1 -215.589 -0.0013683 0.626883 -0.00341358 -1 Y
803 -0.00352812 0.351 -1 -213.492 -0.00631993 0.628747 -0.00244374 -1 Y
804 -0.00599891 0.351196 -1 -210.776 -0.0107459 0.629098 -0.000888025 -1 Y
805 -0.00694952 0.352376 -1 -210.755 -0.0124487 0.631211 -0.000900028 -1 Y
806 -0.00565519 0.34885 -1 -209.094 -0.0101302 0.624896 2.09032e-05 -1 Y
807 -0.00432449 0.347081 -1 -209.257 -0.00774647 0.621727 -0.000323102 -1 Y
808 -0.00395818 0.34567 -1 -208.485 -0.0070903 0.619199 2.32305e-05 -1 Y
809 -0.0075553 0.346911 -1 -204.61 -0.0135338 0.621423 0.00317934 -1 Y
810 -0.00641066 0.339703 -1 -199.515 -0.0114834 0.608511 0.00596669 -1 Y
811 -0.00966217 0.341834 -1 -196.679 -0.0173079 0.612328 0.00873126 -1 Y
812 -0.00523976 0.340563 -1 -202.263 -0.00938599 0.610051 0.0036869 -1 Y
813 -0.00711454 0.340371 -1 -199.049 -0.0127443 0.609707 0.00652702 -1 Y
814 0.276343 0.0159968 -1 -15.3798 0.495015 0.0286552 0.373537 -1 Y
815 0.0571915 -0.127723 -1 148.394 0.102447 -0.22879 0.202706 -1 Y
816 0.0128351 0.337451 -1 -209.611 0.0229915 0.604477 0.0124986 -1 Y
817 0.0139052 0.341071 -1 -213.287 0.0249084 0.610961 0.0114175 -1 Y
818 0.0106687 0.342524 -1 -214.066 0.0191109 0.613564 0.0071224 -1 Y
819 0.00836059 0.343683 -1 -214.686 0.0149763 0.61564 0.00407756 -1 Y
820 0.00927074 0.34625 -1 -217.515 0.0166067 0.620238 0.00313013 -1 Y
821 0.00908921 0.347424 -1 -218.59 0.0162815 0.622342 0.00225308 -1 Y
822 0.0107331 0.349046 -1 -220.656 0.0192262 0.625247 0.00264693 -1 Y
823 0.00463523 0.345889 -1 -215.047 0.0083031 0.619591 0.000648757 -1 Y
824 -0.00350868 0.335129 -1 -200.842 -0.0062851 0.600318 0.00273888 -1 Y
825 -0.00490237 0.339163 -1 -204.253 -0.00878162 0.607543 -0.000849858 -1 Y
826 -0.00371327 0.342755 -1 -208.445 -0.00665158 0.613979 -0.00270083 -1 Y
827 -0.0026751 0.350139 -1 -216.196 -0.00479192 0.627204 -0.00693886 -1 Y
828 -0.00161496 0.35508 -1 -221.604 -0.00289288 0.636056 -0.00965501 -1 Y
829 0.000182917 0.357259 -1 -225.07 0.00032766 0.63996 -0.0109092 -1 Y
830 -0.000335832 0.351321 -1 -218.693 -0.000601576 0.629322 -0.00680946 -1 Y
831 -0.00135803 -0.00710203 -1 9.54401 -0.00243264 -0.0127219 0.00724753 -1 Y
832 -0.000429798 -0.0114975 -1 13.2604 -0.000769899 -0.0205954 0.0103373 -1 Y
833 0.00162795 -0.0107744 -1 10.9112 0.00291615 -0.0193002 0.00984143 -1 Y
834 0.00207218 -0.0065505 -1 6.17151 0.00371189 -0.0117339 0.00667267 -1 Y
835 0.00567374 -0.0078531 -1 4.02286 0.0101634 -0.0140673 0.00649145 -1 Y
836 0.0218167 0.322604 -1 -212.259 0.0390803 0.577882 0.00433206 -1 Y
837 -0.0040139 -0.00436296 -1 10.1868 -0.00719012 -0.00781538 0.00763973 -1 Y
838 0.00449377 0.34495 -1 -216.652 0.00804971 0.617909 -0.00337892 -1 Y
839 0.00120067 0.348546 -1 -216.481 0.00215076 0.624352 -0.00377589 -1 Y
840 -0.00484585 0.350563 -1 -211.495 -0.00868038 0.627965 -0.00123159 -1 Y
841 -0.00544728 0.349771 -1 -210.021 -0.00975772 0.626545 -0.000328709 -1 Y
842 -0.00555152 0.349055 -1 -209.199 -0.00994446 0.625262 0.000200875 -1 Y
843 -0.00630377 0.350302 -1 -209.487 -0.011292 0.627498 -5.7382e-06 -1 Y
844 -0.00705536 0.351903 -1 -210.087 -0.0126383 0.630365 -0.00038067 -1 Y
845 -0.00694736 0.350615 -1 -209.006 -0.0124448 0.628057 0.000282176 -1 Y
846 -0.00728628 0.348869 -1 -206.833 -0.0130519 0.62493 0.00175229 -1 Y
847 -0.00924765 0.346485 -1 -201.664 -0.0165653 0.62066 0.00554987 -1 Y
848 -0.0124197 0.346554 -1 -197.067 -0.0222475 0.620783 0.00930231 -1 Y
849 -0.0072194 0.347336 -1 -205.698 -0.0129321 0.622184 0.00219021 -1 Y
850 -0.00765318 0.347577 -1 -205.226 -0.0137092 0.622616 0.00267776 -1 Y
851 0.317001 0.0245938 -1 -24.8716 0.567845 0.044055 0.422507 -1 N
852 0.119384 0.0686041 -1 -61.8383 0.213852 0.122891 0.130751 -1 Y
853 -0.00499952 -0.366984 -1 394.627 -0.00895566 -0.657379 0.29174 -1 Y
854 0.0168553 0.33076 -1 -203.502 0.030193 0.592491 0.0216128 -1 Y
855 0.0178404 0.333623 -1 -206.464 0.0319576 0.597619 0.0208548 -1 Y
856 0.0123443 0.334209 -1 -205.954 0.0221124 0.59867 0.0147567 -1 Y
857 0.00979999 0.336385 -1 -207.56 0.0175548 0.602568 0.0107467 -1 Y
858 0.00945541 0.337055 -1 -208.018 0.0169375 0.603768 0.0101837 -1 Y
859 0.00685639 0.328357 -1 -197.983 0.0122819 0.588187 0.0148559 -1 Y
860 -0.00416015 0.3205 -1 -185.663 -0.00745208 0.574113 0.012772 -1 Y
861 -0.00386002 0.321764 -1 -187.18 -0.00691446 0.576377 0.0118814 -1 Y
862 -0.00334854 0.3336 -1 -199.536 -0.00599825 0.597579 0.00361102 -1 Y
863 -0.00237109 0.337596 -1 -204.025 -0.00424734 0.604736 0.00137616 -1 Y
864 -0.00847386 0.0092994 -1 -3.19145 -0.0151792 0.016658 -0.00735873 -1 Y
865 -0.00631225 0.00419975 -1 0.769364 -0.0113071 0.00752303 -0.00288606 -1 Y
866 -2.81424 -0.0896571 -1 2065.44 -5.04115 -0.160603 -0.37072 -1 N
867 -0.00100597 -0.00227997 -1 4.3282 -0.001802 -0.00408412 0.00375776 -1 Y
868 -0.00105602 -0.00107212 -1 3.05366 -0.00189165 -0.00192049 0.002748 -1 Y
869 0.000618238 -0.00634963 -1 7.07251 0.00110745 -0.0113741 0.00645523 -1 Y
870 0.00571262 -0.000425964 -1 -3.21486 0.010233 -0.00076303 0.00181675 -1 Y
871 0.00439446 -0.000192244 -1 -2.26189 0.0078718 -0.000344367 0.00191434 -1 Y
872 0.00507594 0.00156578 -1 -4.69178 0.00909254 0.00280479 0.000480911 -1 Y
873 -0.000802251 -0.00441267 -1 7.35398 -0.00143707 -0.00790443 0.00706326 -1 Y
874 -0.000204054 -0.00748072 -1 9.54324 -0.000365523 -0.0134002 0.00843958 -1 Y
875 0.000833667 -0.0149883 -1 16.2312 0.00149335 -0.0268486 0.0135551 -1 Y
876 0.00782814 -0.0251345 -1 18.9709 0.0140226 -0.0450236 0.0171567 -1 Y
877 0.0107675 -0.0361139 -1 27.4904 0.0192879 -0.064691 0.0243936 -1 Y
878 0.00649867 -0.0194072 -1 14.3907 0.0116411 -0.0347642 0.0134251 -1 Y
879 0.0215979 -0.00936885 -1 -14.7851 0.0386883 -0.0167824 -0.00610137 -1 Y
880 0.0212406 -0.0511875 -1 29.9378 0.0380484 -0.0916924 0.0270058 -1 Y
881 -0.00655831 0.347546 -1 -206.433 -0.0117479 0.62256 0.00204112 -1 Y
882 -0.0070081 0.347303 -1 -205.607 -0.0125536 0.622125 0.00260778 -1 Y
883 -0.00727853 0.346107 -1 -203.96 -0.013038 0.619982 0.00383974 -1 Y
884 -0.00976331 0.347872 -1 -202.273 -0.017489 0.623145 0.005257 -1 Y
885 -0.00880178 0.34747 -1 -203.289 -0.0157666 0.622424 0.00437384 -1 Y
886 -0.00582429 0.350938 -1 -211.461 -0.0104331 0.628636 -0.00212772 -1 Y
887 -0.00724828 0.348615 -1 -206.859 -0.0129839 0.624474 0.00148647 -1 Y
888 0.33997 0.0295166 -1 -30.4537 0.608989 0.0528731 0.449857 -1 Y
889 -0.0695429 -0.172042 -1 258.941 -0.124572 -0.308179 0.173487 -1 Y
890 -0.0693654 -0.166964 -1 253.397 -0.124254 -0.299083 0.169454 -1 Y
891 0.0177131 0.327201 -1 -199.907 0.0317296 0.586115 0.0252915 -1 Y
892 0.0177408 0.327825 -1 -200.358 0.0317792 0.587233 0.0252088 -1 Y
893 0.0103831 0.322868 -1 -193.501 0.0185993 0.578354 0.0217189 -1 Y
894 0.00820602 0.327858 -1 -198.344 0.0146995 0.587293 0.0155563 -1 Y
895 0.00747609 0.327172 -1 -197.377 0.0133919 0.586064 0.0155047 -1 Y
896 0.00298222 0.324 -1 -192.367 0.00534206 0.580381 0.0146621 -1 Y
897 -0.000658942 0.32298 -1 -189.933 -0.00118036 0.578556 0.0127923 -1 Y
898 -4.19076 -1.20088 -1 3265.43 -7.50691 -2.15114 -1.36701 -1 N
899 -0.11038 -0.377456 -1 474.286 -0.197723 -0.676138 0.274277 -1 Y
900 -0.0142975 0.0101458 -1 -0.801082 -0.0256111 0.0181742 -0.010326 -1 Y
901 -0.0114321 0.00655311 -1 1.38218 -0.0204783 0.0117386 -0.00637956 -1 Y
902 -0.00529444 0.00132932 -1 3.20001 -0.00948394 0.00238121 -0.000290825 -1 Y
903 -0.00175326 -0.00214152 -1 4.72912 -0.00314061 -0.00383611 0.00357463 -1 Y
904 -0.00237418 -0.00142052 -1 4.44443 -0.00425287 -0.00254458 0.00298868 -1 Y
905 0.00225954 -0.00146438 -1 0.955408 0.00404752 -0.00262315 0.00323803 -1 Y
906 0.00229386 0.00340945 -1 -4.24228 0.00410899 0.00610735 -0.000604987 -1 Y
907 0.00360267 0.00297397 -1 -4.83411 0.00645347 0.00532728 -0.000297938 -1 Y
908 0.00831815 -0.000443353 -1 -5.09561 0.0149003 -0.00079418 0.00210734 -1 Y
909 0.00111399 -0.00702225 -1 8.67192 0.00199549 -0.012579 0.00923004 -1 Y
910 -0.00747595 -0.00442361 -1 13.8461 -0.0133917 -0.00792402 0.00920251 -1 Y
911 -0.0045411 -0.00449121 -1 10.9429 -0.00813449 -0.00804511 0.00809917 -1 Y
912 -0.00469445 -0.00568351 -1 12.4485 -0.00840919 -0.0101809 0.0092496 -1 Y
913 -0.00183982 -0.0100699 -1 13.9896 -0.00329568 -0.0180383 0.0111985 -1 Y
914 0.00162638 -0.00918431 -1 9.12847 0.00291335 -0.0164519 0.00841706 -1 Y
915 0.00776777 -0.00637226 -1 -0.993813 0.0139144 -0.0114146 0.00217342 -1 Y
916 0.0168692 -0.0119877 -1 -6.13255 0.0302178 -0.0214735 -0.000272989 -1 Y
917 0.00843772 -0.012649 -1 5.10275 0.0151145 -0.0226581 0.0070637 -1 Y
918 0.00363782 -0.0070208 -1 5.12267 0.00651643 -0.0125764 0.00649539 -1 Y
919 0.0121293 -0.0118625 -1 -1.1675 0.0217272 -0.0212492 0.00201177 -1 Y
920 0.0289924 -0.0132437 -1 -18.0089 0.0519341 -0.0237234 -0.00567772 -1 Y
921 0.0387888 0.00450484 -1 -50.4881 0.0694825 0.00806952 -0.0300706 -1 Y
922 -0.00845218 0.350328 -1 -206.753 -0.0151404 0.627543 0.00184604 -1 Y
923 -0.00545142 0.335678 -1 -195.906 -0.00976515 0.601302 0.00930993 -1 Y
924 -0.00471621 0.348024 -1 -210.245 -0.00844816 0.623416 -0.0015884 -1 Y
925 0.042063 0.000778568 -1 1.18509 0.0753476 0.00139465 0.0612717 -1 Y
926 0.101601 0.0795441 -1 -65.0509 0.181998 0.142488 0.112206 -1 Y
927 0.0977275 -0.0349851 -1 52.6941 0.17506 -0.0626688 0.190535 -1 Y
928 0.211512 -0.216896 -1 221.556 0.378881 -0.388527 0.449418 -1 Y
929 0.0193642 0.32558 -1 -198.543 0.0346872 0.583212 0.0282353 -1 Y
930 -0.00556819 -0.199437 -1 384.897 -0.00997432 -0.357251 0.454113 -1 Y
931 0.0097502 0.328154 -1 -199.139 0.0174656 0.587823 0.0166208 -1 Y
932 0.00581805 0.328162 -1 -197.922 0.0104219 0.587837 0.0133127 -1 Y
933 0.00200185 0.32558 -1 -193.789 0.00358592 0.583212 0.0125034 -1 Y
934 -0.324351 -0.249061 -1 436.671 -0.581012 -0.446144 0.0494805 -1 Y
935 0.134017 -0.0607674 -1 251.067 0.240066 -0.108853 0.561754 -1 Y
936 -0.104032 0.262803 -1 -229.975 -0.186353 0.47076 -0.265724 -1 Y
937 -0.0170683 0.00875435 -1 2.18011 -0.0305745 0.0156817 -0.0104279 -1 Y
938 -0.0181071 -0.00143864 -1 14.2738 -0.0324354 -0.00257704 -0.0015823 -1 Y
939 -0.00735344 -0.00345948 -1 9.83354 -0.0131722 -0.00619697 0.00335825 -1 Y
940 -0.00282146 -0.00660609 -1 10.394 -0.0050541 -0.0118335 0.00724465 -1 Y
941 -0.000419943 -0.0052062 -1 7.09243 -0.000752245 -0.00932588 0.00628022 -1 Y
942 0.00169188 -0.00260544 -1 2.56677 0.00303068 -0.00466713 0.00405467 -1 Y
943 0.00125139 -0.00194391 -1 2.19842 0.00224162 -0.00348212 0.00350801 -1 Y
944 0.000632466 -0.00331623 -1 4.2353 0.00113294 -0.00594037 0.00475251 -1 Y
945 0.00105047 -0.00612543 -1 7.04601 0.00188171 -0.0109725 0.00724947 -1 Y
946 -0.00109559 -0.00880887 -1 12.0893 -0.00196253 -0.0157793 0.0102482 -1 Y
947 -0.00131532 -0.00307123 -1 5.9041 -0.00235614 -0.0055015 0.00524677 -1 Y
948 -0.000370225 -0.0011437 -1 2.87071 -0.000663186 -0.00204871 0.00330083 -1 Y
949 -0.00242264 -0.00109235 -1 4.97007 -0.00433969 -0.00195673 0.00419826 -1 Y
950 -0.000338687 -0.00174303 -1 3.36181 -0.00060669 -0.0031223 0.00356281 -1 Y
951 0.00227862 0.00109615 -1 -2.83533 0.0040817 0.00196353 -0.000642428 -1 Y
952 0.0127174 0.00329135 -1 -17.5757 0.0227807 0.0058958 -0.00970393 -1 Y
953 0.00631122 -0.00213853 -1 -3.03454 0.0113053 -0.00383075 0.00112151 -1 Y
954 0.00175983 0.000326878 -1 -0.163415 0.00315239 0.000585537 0.00250581 -1 Y
955 -0.000417133 0.00240456 -1 0.3887 -0.000747212 0.0043073 0.00269147 -1 Y
956 0.00366038 -3.43686e-05 -1 -2.48541 0.00655685 -6.15645e-05 0.00067304 -1 Y
957 0.0113044 -0.00407764 -1 -8.73161 0.0202496 -0.00730429 -0.00404993 -1 Y
958 0.0176072 -0.00343883 -1 -18.4545 0.0315399 -0.00615998 -0.0117058 -1 Y
959 0.0285739 -0.00737129 -1 -21.8448 0.0511846 -0.0132042 -0.00668147 -1 Y
960 0.0237153 0.00294842 -1 -25.8796 0.0424813 0.00528151 -0.00940926 -1 Y
961 0.0252959 0.0117679 -1 -37.9795 0.0453126 0.0210798 -0.0189919 -1 Y
962 0.0576096 0.000299182 -1 1.3769 0.103196 0.000535926 0.0826598 -1 Y
963 0.165782 -0.456239 -1 578.152 0.296965 -0.817262 0.755148 -1 Y
964 0.0957796 -0.0347462 -1 52.6425 0.17157 -0.0622409 0.187999 -1 Y
965 0.524424 1.12978 -1 -1273.61 0.939402 2.02378 -0.295195 -1 Y
966 -0.785313 5.61291 -1 -6255.54 -1.40673 10.0544 -6.0439 -1 N
967 -0.192752 0.262409 -1 -166.273 -0.345277 0.470053 -0.277275 -1 Y
968 0.408138 -0.714533 -1 848.895 0.731098 -1.27995 1.28925 -1 Y
969 0.250259 0.167366 -1 -88.6343 0.44829 0.299803 0.371472 -1 Y
970 -0.594803 -4.07776 -1 5119.36 -1.06547 -7.3045 3.78431 -1 N
971 -0.324338 -0.249155 -1 436.773 -0.580988 -0.446312 0.0495785 -1 N
972 0.0105868 -0.250487 -1 290.785 0.0189642 -0.448698 0.256209 -1 N
973 0.00949214 -0.241295 -1 280.628 0.0170033 -0.432232 0.246732 -1 N
974 0.00929153 -0.263838 -1 307.187 0.0166439 -0.472613 0.268873 -1 N
975 -29.0179 -0.331402 -1 17125.6 -51.9799 -0.593642 -10.5152 -1 N
976 -0.00155384 -0.0132523 -1 17.2663 -0.00278339 -0.0237388 0.01393 -1 Y
977 0.00111645 -0.00990615 -1 11.4046 0.00199989 -0.0177449 0.0109331 -1 Y
978 0.00591385 -0.0172876 -1 16.4785 0.0105935 -0.0309673 0.0185634 -1 N
979 0.00387891 -0.0071062 -1 6.06225 0.0069483 -0.0127294 0.00838915 -1 Y
980 0.00475928 -0.00578848 -1 3.76392 0.00852531 -0.0103689 0.00698913 -1 Y
981 0.0037933 -0.00541489 -1 3.97688 0.00679494 -0.0096997 0.00642527 -1 Y
982 0.000385253 -0.00531128 -1 6.755 0.000690105 -0.00951412 0.00669118 -1 Y
983 0.0012644 -0.00542791 -1 6.07881 0.00226493 -0.00972304 0.00659697 -1 Y
984 0.00127997 0.000210877 -1 -0.388085 0.00229281 0.000377745 0.00132049 -1 Y
985 0.00123429 0.000174583 -1 -0.275874 0.00221098 0.00031273 0.00141526 -1 Y
986 0.000709662 0.000574795 -1 -0.280752 0.00127122 0.00102963 0.0011095 -1 Y
987 0.00164153 0.00175212 -1 -2.7822 0.00294049 0.00313858 -0.000727083 -1 Y
988 0.00652626 0.00381044 -1 -10.7862 0.0116905 0.00682565 -0.00580233 -1 Y
989 0.00259448 -0.00415333 -1 3.31366 0.0046475 -0.00743987 0.00495399 -1 Y
990 0.00467016 -0.00120379 -1 -2.11775 0.00836566 -0.00215636 0.00146179 -1 Y
991 0.00205535 -0.00269686 -1 3.15933 0.00368175 -0.00483089 0.00550186 -1 Y
992 0.00484042 0.00022543 -1 -3.95674 0.00867065 0.000403812 3.86822e-06 -1 Y
993 0.00381413 -0.00938619 -1 8.49437 0.00683226 -0.0168135 0.0101204 -1 Y
994 0.00770298 -0.00728214 -1 0.633248 0.0137984 -0.0130445 0.00396397 -1 Y
995 0.0137878 -0.00936589 -1 -6.00322 0.024698 -0.0167771 -0.00149966 -1 Y
996 0.00223614 -0.0405164 -1 48.1337 0.0040056 -0.0725771 0.0441 -1 Y
997 -0.00327546 -0.0494152 -1 66.9961 -0.00586735 -0.0885175 0.0600284 -1 Y
998 -0.0297715 0.00666856 -1 55.2888 -0.0533297 0.0119454 0.0630377 -1 Y
