camera intrinsic parameters (fx, fy, ox, oy, baseline): 1019.3 1019.3 789.38 612.212 0.558253
0 -0.000255234 -0.0212252 -1 4.76562 -0.000457201 -0.0380208 -0.014815 -1 Y
1 -0.0209085 0.00749631 -1 21.312 -0.0374534 0.0134282 0.0165134 -1 Y
2 -0.0181106 -0.00256443 -1 21.3498 -0.0324416 -0.00459368 0.00963684 -1 Y
3 -0.012012 0.00219373 -1 20.1032 -0.0215171 0.00392964 0.0210257 -1 Y
4 -0.0208698 -0.029073 -1 65.8234 -0.0373842 -0.0520785 0.0554458 -1 Y
5 -0.0216118 -0.0353573 -1 66.2309 -0.0387133 -0.0633356 0.0483715 -1 Y
6 -0.00023727 -0.00493586 -1 4.70431 -0.000425023 -0.00884162 0.00262767 -1 Y
7 0.000322444 -0.00151154 -1 4.50676 0.000577594 -0.00270763 0.00674113 -1 Y
8 -0.001512 -0.0529838 -1 25.5039 -0.00270845 -0.09491 -0.0142822 -1 Y
9 -0.00182315 -0.00102976 -1 5.25939 -0.0032658 -0.00184461 0.00560568 -1 Y
10 0.00271733 -0.0311829 -1 22.7279 0.00486756 -0.0558581 0.0101617 -1 Y
11 0.000642224 -0.0361108 -1 23.9165 0.00115042 -0.0646854 0.00407013 -1 Y
12 0.00397479 -0.0429392 -1 22.4589 0.00712005 -0.0769171 -0.00121495 -1 Y
13 -0.00139682 0.000161496 -1 4.89518 -0.00250212 0.000289288 0.0068387 -1 Y
14 0.00230493 3.97977e-05 -1 2.67966 0.00412882 7.12897e-05 0.00794947 -1 Y
15 0.0021009 0.00158728 -1 2.88843 0.00376334 0.00284329 0.00969823 -1 Y
16 -0.000611339 0.00243195 -1 4.73263 -0.00109509 0.00435636 0.0100854 -1 Y
17 -0.00131067 -7.80946e-05 -1 5.30478 -0.0023478 -0.000139891 0.00742027 -1 Y
18 -0.00278311 -0.116305 -1 7.39184 -0.00498539 -0.208337 -0.116002 -1 Y
19 0.00790619 -0.043008 -1 18.5037 0.0141624 -0.0770403 -0.00278593 -1 Y
20 0.00115441 -0.0404951 -1 24.0295 0.00206789 -0.072539 0.000262106 -1 Y
21 -0.00196596 -0.0376225 -1 26.7977 -0.00352163 -0.0673933 0.00388889 -1 Y
22 -0.00403026 -0.0350823 -1 28.6714 -0.00721941 -0.062843 0.007051 -1 Y
23 -0.00552379 -0.0309849 -1 30.0468 -0.00989478 -0.0555033 0.0118045 -1 Y
24 0.047805 0.0118245 -1 -34.4466 0.0856332 0.0211812 0.018503 -1 Y
25 0.0495062 0.00349961 -1 -36.0124 0.0886805 0.00626886 0.00915469 -1 Y
26 0.0540312 -0.00655466 -1 -40.8011 0.0967863 -0.0117414 -0.00380091 -1 Y
27 0.0570711 -0.00818099 -1 -44.356 0.102232 -0.0146546 -0.00758084 -1 Y
28 0.0525137 -0.00689144 -1 -38.7158 0.0940679 -0.0123446 -0.00260371 -1 Y
29 0.0340586 -0.00671405 -1 -15.0934 0.0610092 -0.0120269 0.0134991 -1 Y
30 0.00478127 0.00550231 -1 22.8071 0.00856469 0.00985629 0.0526332 -1 Y
31 0.000630773 0.00184582 -1 28.5301 0.0011299 0.00330642 0.052999 -1 Y
32 0.00354362 0.000231157 -1 24.553 0.0063477 0.000414072 0.0483134 -1 Y
33 -0.00227609 0.000324229 -1 32.7862 -0.00407716 0.000580792 0.054809 -1 Y
34 -0.00261219 0.00355165 -1 33.2105 -0.00467922 0.00636208 0.0585608 -1 Y
35 -0.000991382 0.00827502 -1 30.4031 -0.00177586 0.0148231 0.0609574 -1 Y
36 -0.0193125 0.000922158 -1 34.1634 -0.0345945 0.00165186 0.0342391 -1 Y
37 0.640145 0.296679 -1 -20.3346 1.14669 0.531442 1.17149 -1 N
38 -0.0320188 0.0114632 -1 21.9006 -0.0573554 0.020534 0.00640297 -1 Y
39 -0.0238934 0.00379594 -1 21.5293 -0.0428003 0.00679968 0.00877339 -1 Y
40 -0.00772412 -0.00622811 -1 19.9396 -0.0138362 -0.0111564 0.0176255 -1 Y
41 0.00747345 0.00489284 -1 16.2805 0.0133872 0.00876456 0.0442426 -1 Y
42 -0.0209188 -0.0331415 -1 65.9966 -0.0374718 -0.0593664 0.0513051 -1 Y
43 -0.0229211 -0.0325762 -1 66.3819 -0.0410586 -0.0583538 0.0498127 -1 Y
44 -0.0133973 -0.0338472 -1 63.2894 -0.0239986 -0.0606305 0.0562224 -1 Y
45 -0.00688875 -0.0298803 -1 26.1895 -0.0123398 -0.0535246 0.0043207 -1 Y
46 -0.00977062 -0.00499492 -1 57.48 -0.0175021 -0.00894742 0.0820859 -1 Y
47 0.00371395 -0.0144887 -1 21.3456 0.00665281 -0.0259536 0.0270761 -1 Y
48 -0.00823214 -0.0176914 -1 27.3706 -0.0147462 -0.0316907 0.0176466 -1 Y
49 -0.00675947 -0.0347421 -1 27.7418 -0.0121083 -0.0622336 0.0019973 -1 Y
50 0.000895449 -0.0010405 -1 3.55266 0.00160402 -0.00186385 0.0063661 -1 Y
51 0.00351736 1.40088e-05 -1 1.87466 0.00630065 2.5094e-05 0.00818896 -1 Y
52 0.00305323 0.0010706 -1 2.23333 0.00546926 0.00191778 0.00931221 -1 Y
53 -0.000708133 0.00188162 -1 4.86873 -0.00126848 0.00337054 0.00959826 -1 Y
54 0.0163049 -0.0344591 -1 10.9823 0.029207 -0.0617266 0.00484472 -1 Y
55 0.0123865 -0.0380307 -1 14.2633 0.022188 -0.0681245 0.00133217 -1 Y
56 0.00183481 -0.0247767 -1 22.3684 0.00328671 -0.0443825 0.0151982 -1 Y
57 -0.000876563 -0.0288233 -1 25.0511 -0.00157019 -0.0516312 0.0117976 -1 Y
58 -0.000209088 -0.0237878 -1 24.0612 -0.000374541 -0.0426112 0.0164016 -1 Y
59 -0.00112253 -0.0218209 -1 24.8399 -0.00201079 -0.0390879 0.018619 -1 Y
60 -0.00483288 -0.0254921 -1 28.8485 -0.00865716 -0.045664 0.0165667 -1 Y
61 0.0486492 0.00355025 -1 -35.0638 0.0871454 0.00635957 0.00968729 -1 Y
62 0.0473001 -0.00249015 -1 -33.2686 0.0847287 -0.00446061 0.0044718 -1 Y
63 0.0492893 -0.00297483 -1 -35.5764 0.0882921 -0.00532882 0.00265421 -1 Y
64 0.0574752 -0.000859101 -1 -45.3043 0.102955 -0.00153891 -0.000809303 -1 Y
65 0.0554637 0.000654461 -1 -42.8055 0.0993522 0.00117234 0.00242006 -1 Y
66 0.0430649 -0.000879351 -1 -26.7827 0.0771422 -0.00157518 0.0117278 -1 Y
67 0.0117726 0.00342488 -1 13.6498 0.0210882 0.006135 0.0440039 -1 Y
68 0.000888233 0.00141334 -1 28.2985 0.00159109 0.00253172 0.0524839 -1 Y
69 -9.80086e-05 0.00123123 -1 29.6073 -0.000175563 0.00220551 0.05322 -1 Y
70 -0.000774265 0.0033867 -1 30.414 -0.00138694 0.00606661 0.0560184 -1 Y
71 -0.00305866 0.00519968 -1 33.7636 -0.00547899 0.00931419 0.0606865 -1 Y
72 -0.00881179 0.00884633 -1 42.4352 -0.0157846 0.0158465 0.0718682 -1 Y
73 -0.0195566 -0.00014407 -1 34.5985 -0.0350318 -0.000258073 0.0335179 -1 Y
74 0.3778 -0.0959818 -1 17.1974 0.676755 -0.171933 0.451056 -1 Y
75 -0.0347225 0.0113761 -1 21.578 -0.0621985 0.020378 0.00199168 -1 Y
76 -0.0218582 -0.000284788 -1 22.0481 -0.0391546 -0.000510142 0.00811788 -1 Y
77 -0.0174651 0.00365434 -1 20.589 -0.0312854 0.00654602 0.0158859 -1 Y
78 0.0131054 -0.00222599 -1 15.6599 0.0234757 -0.00398742 0.0433058 -1 Y
79 0.0233597 0.0128693 -1 12.8646 0.0418443 0.0230528 0.0688593 -1 Y
80 0.009908 0.00515627 -1 17.1882 0.0177482 0.00923644 0.0494985 -1 Y
81 0.00695698 0.00796225 -1 17.7185 0.0124621 0.0142628 0.0493555 -1 Y
82 0.0023196 0.0104364 -1 18.9201 0.00415511 0.0186947 0.047696 -1 Y
83 -0.0224112 -0.0102711 -1 63.0907 -0.0401452 -0.0183987 0.0687338 -1 Y
84 0.00669377 0.0104002 -1 17.5333 0.0119906 0.01863 0.051288 -1 Y
85 -0.0103458 0.012301 -1 25.4153 -0.0185325 0.0220348 0.0435466 -1 Y
86 -0.0135824 -0.0103615 -1 29.2872 -0.0243301 -0.0185607 0.0214789 -1 Y
87 -0.0368961 0.0283039 -1 63.8576 -0.0660921 0.0507008 0.09149 -1 Y
88 -0.0439976 0.0460073 -1 66.463 -0.078813 0.082413 0.105264 -1 Y
89 0.00527765 0.000889949 -1 0.705863 0.00945387 0.00159417 0.00951931 -1 Y
90 0.0025722 0.0011723 -1 2.53292 0.00460759 0.00209994 0.00928081 -1 Y
91 0.0133744 -0.0155985 -1 11.3526 0.0239576 -0.0279416 0.0217221 -1 Y
92 -0.00781832 0.0052977 -1 42.4865 -0.014005 0.00948979 0.0695186 -1 Y
93 0.00652865 0.0108797 -1 14.8919 0.0116948 0.0194889 0.0469328 -1 Y
94 -0.00185514 0.0234473 -1 21.0307 -0.00332311 0.0420011 0.0596119 -1 Y
95 -0.00576543 -0.0190374 -1 28.6321 -0.0103276 -0.0341017 0.0218373 -1 Y
96 0.00165352 0.00367617 -1 19.3092 0.00296196 0.00658514 0.0401826 -1 Y
97 -0.0202167 -0.00257719 -1 42.1086 -0.0362142 -0.00461653 0.0431825 -1 Y
98 -0.00480318 0.0045664 -1 22.9666 -0.00860395 0.00817981 0.0386108 -1 Y
99 0.0347356 -0.00144289 -1 -19.3976 0.0622219 -0.00258466 0.0125453 -1 Y
100 0.0553077 0.00234482 -1 -43.0932 0.0990728 0.00420027 0.00351663 -1 Y
101 0.0585229 0.00234405 -1 -46.7233 0.104832 0.00419891 0.00159671 -1 Y
102 0.05456 0.000695156 -1 -41.655 0.0977334 0.00124523 0.00323198 -1 Y
103 0.0330258 0.00707332 -1 -14.5433 0.0591591 0.0126705 0.0278665 -1 Y
104 0.00288854 -0.00201767 -1 25.9667 0.00517425 -0.00361426 0.0474696 -1 Y
105 0.00249643 -0.00453211 -1 26.3173 0.00447186 -0.00811838 0.0448365 -1 Y
106 0.00385902 0.00147052 -1 23.9609 0.00691267 0.00263414 0.0490439 -1 Y
107 0.000990813 0.000565945 -1 28.0652 0.00177484 0.00101378 0.0513045 -1 Y
108 -0.00277768 0.00125136 -1 33.5639 -0.00497566 0.00224156 0.0564775 -1 Y
109 0.00506168 0.00424746 -1 21.3294 0.009067 0.00760849 0.0490754 -1 Y
110 -0.0182876 -0.000907305 -1 32.6394 -0.0327587 -0.00162526 0.0310142 -1 Y
111 -0.0464235 0.0236367 -1 21.0742 -0.0831586 0.0423405 -0.00193471 -1 Y
112 -0.0507968 0.019738 -1 21.5691 -0.0909925 0.0353567 -0.0113265 -1 Y
113 -0.0286782 0.00243297 -1 22.145 -0.0513714 0.00435819 0.00175123 -1 Y
114 -0.0184784 -0.000618979 -1 21.4935 -0.0331005 -0.00110878 0.0114722 -1 Y
115 0.00861204 -0.00257625 -1 16.8139 0.0154268 -0.00461485 0.0387235 -1 Y
116 0.0306848 -0.00248699 -1 13.0218 0.0549658 -0.00445495 0.0627757 -1 Y
117 0.0120987 -0.00586239 -1 18.1208 0.0216725 -0.0105013 0.0423216 -1 Y
118 0.0116944 0.00264694 -1 16.7522 0.0209483 0.00474146 0.0485106 -1 Y
119 0.0115532 0.0126422 -1 15.4037 0.0206953 0.022646 0.0566988 -1 Y
120 0.00176234 0.0118728 -1 19.5519 0.00315689 0.0212677 0.0495787 -1 Y
121 0.00459823 -0.00104406 -1 20.4814 0.00823682 -0.00187023 0.041249 -1 Y
122 -0.0039015 0.00775285 -1 23.3197 -0.00698876 0.0138877 0.0439104 -1 Y
123 -0.0266733 0.00415985 -1 35.7299 -0.04778 0.00745154 0.0302641 -1 Y
124 -0.0226609 -0.0182605 -1 35.3349 -0.0405926 -0.0327101 0.0110144 -1 Y
125 -0.0238757 -0.00940357 -1 35.4544 -0.0427686 -0.0168446 0.0190683 -1 Y
126 -0.00303568 -0.0245291 -1 24.6752 -0.00543782 -0.043939 0.0127619 -1 Y
127 0.00373457 -0.0215164 -1 19.4764 0.00668975 -0.0385423 0.0162589 -1 Y
128 0.0195848 -0.0148818 -1 6.54734 0.0350824 -0.0266579 0.0226638 -1 Y
129 0.0329477 0.00588627 -1 -5.97593 0.0590193 0.0105441 0.0415373 -1 Y
130 0.0105082 0.0181729 -1 11.4061 0.0188233 0.0325531 0.054174 -1 Y
131 0.00198876 0.0196945 -1 18.5702 0.00356248 0.0352789 0.0565829 -1 Y
132 -0.00417909 0.0258405 -1 23.287 -0.00748601 0.0462881 0.062928 -1 Y
133 -0.00316464 0.0218968 -1 22.8773 -0.00566883 0.0392239 0.0593724 -1 Y
134 -0.00329059 0.0221428 -1 23.2151 -0.00589443 0.0396645 0.060056 -1 Y
135 0.0221739 -0.00711892 -1 -4.67519 0.0397202 -0.0127521 0.0148853 -1 Y
136 0.0467572 0.00230762 -1 -33.3034 0.0837563 0.00413365 0.00881945 -1 Y
137 0.0568451 0.0042422 -1 -45.0524 0.101827 0.00759906 0.00424763 -1 Y
138 0.0555857 0.000696486 -1 -42.9715 0.0995708 0.00124762 0.00234289 -1 Y
139 0.0581811 0.00296792 -1 -46.453 0.10422 0.00531644 0.00226875 -1 Y
140 0.0329155 0.0108889 -1 -15.1182 0.0589617 0.0195053 0.0308085 -1 Y
141 0.00232209 0.000259004 -1 26.5325 0.00415956 0.000463954 0.0501276 -1 Y
142 -0.00760996 0.00650352 -1 38.2602 -0.0136317 0.0116498 0.0636778 -1 Y
143 0.00914193 0.000664658 -1 16.4717 0.016376 0.0011906 0.042344 -1 Y
144 0.000868064 0.00254678 -1 28.032 0.00155496 0.00456206 0.0532071 -1 Y
145 -0.00549558 0.00423741 -1 37.2076 -0.00984424 0.00759049 0.062323 -1 Y
146 0.00504232 0.00381057 -1 21.2985 0.00903231 0.00682588 0.0485241 -1 Y
147 -0.0179539 -0.00194376 -1 32.2578 -0.0321608 -0.00348186 0.0296917 -1 Y
148 -0.0447875 0.00257156 -1 25.2775 -0.080228 0.00460644 -0.0149422 -1 Y
149 -0.0526546 0.0106786 -1 23.3861 -0.0943204 0.0191286 -0.0204573 -1 Y
150 -0.0363894 0.00948359 -1 21.9253 -0.0651844 0.016988 -0.00174638 -1 Y
151 -0.0271306 0.00830151 -1 21.1832 -0.048599 0.0148705 0.0085219 -1 Y
152 0.0047783 -0.0152175 -1 19.8678 0.00855938 -0.0272591 0.0251716 -1 Y
153 0.0264851 -0.0218395 -1 17.0457 0.0474428 -0.0391212 0.0431999 -1 Y
154 0.00538411 -0.0122489 -1 21.0912 0.00964457 -0.0219414 0.0313558 -1 Y
155 0.0167514 -0.000603537 -1 15.6282 0.0300068 -0.00108112 0.0500535 -1 Y
156 -0.00533129 0.00981035 -1 22.5852 -0.00954994 0.0175733 0.0428498 -1 Y
157 0.000455857 -0.00359037 -1 22.8499 0.000816578 -0.00643143 0.0369254 -1 Y
158 -0.00178992 -0.000308098 -1 23.2117 -0.00320629 -0.000551897 0.0379771 -1 Y
159 -0.0193221 -0.00795744 -1 33.4399 -0.0346118 -0.0142542 0.0234008 -1 Y
160 -0.0480781 -0.00189935 -1 74.3402 -0.0861225 -0.00340231 0.0619045 -1 Y
161 -0.0383186 -0.00615109 -1 69.1278 -0.0686403 -0.0110185 0.0617087 -1 Y
162 -0.0340461 -0.0069075 -1 67.0027 -0.0609868 -0.0123734 0.0630873 -1 Y
163 -0.0398583 -0.00592263 -1 70.6354 -0.0713982 -0.0106092 0.062468 -1 Y
164 -0.0504965 -0.00404162 -1 77.7719 -0.0904545 -0.00723977 0.0622756 -1 Y
165 -0.0468251 0.0012888 -1 73.6157 -0.0838779 0.00230863 0.0657997 -1 Y
166 -0.041317 0.0117997 -1 67.319 -0.0740113 0.0211368 0.0736835 -1 Y
167 0.0165382 0.0283736 -1 5.69038 0.029625 0.0508257 0.0634694 -1 Y
168 0.0074378 0.0346675 -1 12.3444 0.0133234 0.0620999 0.0693101 -1 Y
169 -0.00313457 0.0386847 -1 21.1736 -0.00561497 0.069296 0.074482 -1 Y
170 -0.00854948 0.0373739 -1 26.9897 -0.0153147 0.066948 0.0757811 -1 Y
171 -0.0167076 0.0333405 -1 35.989 -0.0299284 0.059723 0.0759395 -1 Y
172 0.0445363 -0.014325 -1 -27.8134 0.0797779 -0.0256604 -0.00250838 -1 Y
173 0.0525215 -0.00117759 -1 -39.1602 0.0940818 -0.00210942 0.00277361 -1 Y
174 0.0544698 0.00247878 -1 -41.9474 0.0975719 0.00444024 0.00451218 -1 Y
175 0.0570704 0.00341522 -1 -45.3047 0.10223 0.00611769 0.0032272 -1 Y
176 0.0560784 0.00218091 -1 -43.7427 0.100453 0.00390666 0.00326805 -1 Y
177 0.036286 0.00354959 -1 -18.4458 0.0649991 0.00635838 0.0217399 -1 Y
178 0.0066969 0.00187732 -1 20.5675 0.0119962 0.00336285 0.0474549 -1 Y
179 -0.00742182 0.0133627 -1 36.8274 -0.0132947 0.0239366 0.0688005 -1 Y
180 0.00746668 0.00714451 -1 17.6554 0.0133751 0.012798 0.0490719 -1 Y
181 0.00307875 0.00478638 -1 24.3594 0.00551497 0.00857386 0.0522293 -1 Y
182 0.000662368 0.00540801 -1 27.8061 0.0011865 0.00968737 0.055603 -1 Y
183 0.00490261 0.00365296 -1 21.5639 0.00878205 0.00654355 0.0486271 -1 Y
184 -0.0232742 -0.00361014 -1 40.988 -0.0416911 -0.00646685 0.0358604 -1 Y
185 -0.0479251 -0.000759859 -1 26.1511 -0.0858483 -0.00136114 -0.0213437 -1 Y
186 -0.0516767 0.00550913 -1 24.4991 -0.0925686 0.00986851 -0.0227066 -1 Y
187 -0.0375515 0.00830108 -1 22.5081 -0.0672661 0.0148697 -0.00360671 -1 Y
188 -0.0339461 0.00575849 -1 23.082 -0.0608077 0.0103152 -0.000331989 -1 Y
189 -0.0175947 0.0110269 -1 18.645 -0.0315174 0.0197525 0.020222 -1 Y
190 0.00515744 -0.00528229 -1 17.2607 0.00923853 -0.00946217 0.031805 -1 Y
191 0.0230389 -0.00673643 -1 14.5062 0.0412696 -0.012067 0.0502056 -1 Y
192 0.021336 0.000261499 -1 13.5517 0.0382192 0.000468424 0.0536949 -1 Y
193 0.0119184 -0.00286444 -1 18.2013 0.0213495 -0.00513108 0.0454385 -1 Y
194 0.00266661 -0.0065521 -1 22.0222 0.00477671 -0.0117368 0.0353511 -1 Y
195 0.00186052 -0.00913735 -1 23.3704 0.00333275 -0.0163678 0.0338209 -1 Y
196 -0.0269073 -0.00480094 -1 63.9279 -0.0481991 -0.00859994 0.0698533 -1 Y
197 -0.0440397 -0.00559674 -1 73.5388 -0.0788884 -0.0100255 0.0621205 -1 Y
198 -0.0422454 -0.000489327 -1 70.3151 -0.0756742 -0.000876532 0.0644394 -1 Y
199 -0.0343416 0.00114344 -1 65.2422 -0.0615162 0.00204824 0.0682454 -1 Y
200 -0.0441897 -0.00647486 -1 73.4691 -0.0791571 -0.0115984 0.060845 -1 Y
201 -0.0438197 -0.0116385 -1 74.4969 -0.0784944 -0.0208482 0.0576089 -1 Y
202 -0.03997 -0.00208357 -1 69.1862 -0.0715984 -0.00373231 0.0638966 -1 Y
203 -0.0340811 0.00759678 -1 62.4673 -0.0610496 0.0136081 0.0706733 -1 Y
204 0.0135598 0.00516611 -1 13.0561 0.0242896 0.00925406 0.0473132 -1 Y
205 0.0111724 0.00896691 -1 14.4696 0.0200132 0.0160625 0.0505747 -1 Y
206 0.00242355 -0.00140213 -1 25.3393 0.00434131 -0.00251164 0.0463843 -1 Y
207 -0.00145283 0.00857889 -1 26.6213 -0.00260246 0.0153674 0.0539982 -1 Y
208 0.00219379 0.0155046 -1 21.3684 0.00392975 0.0277735 0.0572768 -1 Y
209 0.0565035 -0.000776949 -1 -43.6315 0.101215 -0.00139175 0.000870818 -1 Y
210 0.0550042 0.00198539 -1 -42.5559 0.0985291 0.00355643 0.0036531 -1 Y
211 0.0578803 0.00107077 -1 -45.5851 0.103681 0.00191808 0.00133552 -1 Y
212 0.0578004 0.00137774 -1 -45.6731 0.103538 0.00246796 0.00140035 -1 Y
213 0.0543375 0.00113042 -1 -41.2944 0.0973348 0.00202493 0.00402529 -1 Y
214 0.0285395 0.00344685 -1 -8.39449 0.0511229 0.00617435 0.0285472 -1 Y
215 0.00213188 0.00723537 -1 25.4015 0.00381884 0.0129607 0.0553818 -1 Y
216 -0.000257163 0.00651081 -1 28.7679 -0.000460657 0.0116628 0.0572042 -1 Y
217 0.0020454 0.00469824 -1 25.9137 0.00366393 0.00841596 0.0534324 -1 Y
218 0.00148943 0.00225183 -1 27.3081 0.00266802 0.00403371 0.0524795 -1 Y
219 0.000495609 0.0033268 -1 28.4824 0.000887786 0.0059593 0.0543211 -1 Y
220 0.0014113 0.00187494 -1 27.4156 0.00252806 0.00335858 0.0521546 -1 Y
221 -0.0276846 -0.00235636 -1 47.7334 -0.0495915 -0.00422095 0.0429454 -1 Y
222 -0.0535752 0.000542742 -1 26.0663 -0.0959694 0.000972216 -0.0279294 -1 Y
223 -0.0480418 -0.00385133 -1 26.6516 -0.0860575 -0.0068989 -0.0239521 -1 Y
224 -0.0344859 0.00173073 -1 23.9801 -0.0617747 0.00310027 -0.00383613 -1 Y
225 -0.0242251 0.00758864 -1 21.1008 -0.0433944 0.0135936 0.0116407 -1 Y
226 -0.00647119 0.013308 -1 15.7148 -0.0115919 0.0238386 0.0329576 -1 Y
227 0.0156504 0.0230619 -1 7.6522 0.0280346 0.0413108 0.0599706 -1 Y
228 0.0226821 0.0192559 -1 8.10854 0.0406306 0.0344931 0.0664324 -1 Y
229 0.0205986 0.00100025 -1 14.2377 0.0368983 0.00179174 0.0546723 -1 Y
230 0.0235893 -0.0128539 -1 16.7641 0.0422555 -0.0230251 0.0483555 -1 Y
231 0.00405683 -0.0164602 -1 25.55 0.00726701 -0.0294852 0.0328194 -1 Y
232 -0.00999558 -0.0038526 -1 27.1813 -0.0179051 -0.00690117 0.0297567 -1 Y
233 -0.0106271 -0.00771227 -1 28.7191 -0.0190364 -0.013815 0.0274305 -1 Y
234 -0.0348108 -0.00046034 -1 67.5034 -0.0623567 -0.000824608 0.0698429 -1 Y
235 -0.0486058 -0.00572273 -1 75.6313 -0.0870677 -0.0102511 0.0593278 -1 Y
236 -0.0246072 0.00495508 -1 58.1485 -0.0440789 0.00887605 0.0733839 -1 Y
237 -0.049259 0.0104034 -1 73.0359 -0.0882378 0.0186356 0.0712104 -1 Y
238 -0.0416699 -0.00675394 -1 71.568 -0.0746434 -0.0120983 0.0606994 -1 Y
239 -0.0373751 0.000756783 -1 66.1824 -0.0669501 0.00135563 0.0652735 -1 Y
240 -0.026864 0.00341628 -1 57.4981 -0.0481215 0.0061196 0.0674547 -1 Y
241 0.0151574 0.0104438 -1 10.6791 0.0271514 0.0187079 0.0510303 -1 Y
242 0.000183719 -0.0210673 -1 32.9887 0.000329095 -0.0377379 0.0355625 -1 Y
243 0.00477846 -0.00879955 -1 24.8828 0.00855967 -0.0157627 0.04089 -1 Y
244 -0.00545445 -0.0124012 -1 35.9269 -0.00977057 -0.0222144 0.0422282 -1 Y
245 0.0192002 -0.00167772 -1 9.07502 0.0343934 -0.00300531 0.0407784 -1 Y
246 0.0183218 0.000395432 -1 9.35384 0.03282 0.000708339 0.0422804 -1 Y
247 0.0249223 0.0125975 -1 -2.17271 0.0446434 0.022566 0.0443084 -1 Y
248 0.0571113 0.004597 -1 -45.5786 0.102304 0.00823462 0.00407402 -1 Y
249 0.0562904 0.00208972 -1 -44.0426 0.100833 0.00374332 0.00293695 -1 Y
250 0.0575534 0.00362826 -1 -45.9936 0.103096 0.00649931 0.00291581 -1 Y
251 0.0461648 0.00294062 -1 -31.1773 0.0826952 0.00526754 0.0124151 -1 Y
252 0.0104304 0.00436441 -1 15.0114 0.018684 0.00781798 0.0455457 -1 Y
253 -0.00106818 0.00195577 -1 31.0459 -0.00191343 0.00350338 0.0551816 -1 Y
254 0.00079105 0.00152563 -1 28.5339 0.00141701 0.00273286 0.0528836 -1 Y
255 0.00230149 0.000105401 -1 26.6952 0.00412267 0.000188806 0.0502197 -1 Y
256 0.000347183 0.00185151 -1 29.1012 0.00062191 0.00331661 0.0536154 -1 Y
257 0.00168467 -0.00157487 -1 27.983 0.00301775 -0.00282106 0.0498193 -1 Y
258 -0.0283671 -0.00260983 -1 48.9008 -0.050814 -0.004675 0.0437774 -1 Y
259 -0.0667495 0.0219511 -1 20.0513 -0.119569 0.0393211 -0.0337428 -1 Y
260 -0.0549762 0.00644754 -1 23.3414 -0.0984789 0.0115495 -0.0283085 -1 Y
261 -0.0264756 -0.006967 -1 25.511 -0.0474258 -0.01248 0.000608769 -1 Y
262 -0.0140601 0.00216003 -1 21.1157 -0.0251858 0.00386927 0.0199276 -1 Y
263 -0.00800478 0.020053 -1 14.5052 -0.014339 0.0359209 0.0359614 -1 Y
264 0.0269404 0.0377722 -1 2.00698 0.0482584 0.0676615 0.0815384 -1 Y
265 0.00667765 0.0276413 -1 11.0771 0.0119617 0.049514 0.058469 -1 Y
266 0.00705818 0.0237771 -1 11.5282 0.0126433 0.0425919 0.0556323 -1 Y
267 0.00611076 -0.00988603 -1 22.255 0.0109462 -0.0177089 0.0369513 -1 Y
268 -0.00255432 -0.0227973 -1 30.1527 -0.00457556 -0.0408369 0.0249188 -1 Y
269 -0.00857246 -0.0122371 -1 29.3474 -0.0153559 -0.0219203 0.0265167 -1 Y
270 -0.00911763 -0.00462493 -1 27.2374 -0.0163324 -0.00828465 0.0302421 -1 Y
271 -0.0226189 0.0276377 -1 23.9822 -0.0405172 0.0495075 0.0405031 -1 Y
272 -0.023298 0.00130528 -1 58.2012 -0.0417338 0.00233815 0.0713659 -1 Y
273 0.000523654 -0.0079947 -1 26.0683 0.000938023 -0.0143209 0.0379369 -1 Y
274 -0.0572787 0.0200989 -1 75.481 -0.102603 0.0360031 0.0748135 -1 Y
275 -0.0482349 0.000806145 -1 74.1975 -0.0864033 0.00144405 0.0643469 -1 Y
276 -0.0369402 0.00154502 -1 65.5484 -0.0661711 0.00276759 0.0656106 -1 Y
277 -0.0196885 0.000653434 -1 52.7987 -0.035268 0.0011705 0.0661776 -1 Y
278 0.0119637 -0.019649 -1 21.8905 0.0214307 -0.0351973 0.0339263 -1 Y
279 0.0113647 -0.0332209 -1 25.7153 0.0203576 -0.0595086 0.0252152 -1 Y
280 0.0154805 -0.0291158 -1 21.0652 0.0277303 -0.0521551 0.0271694 -1 Y
281 0.00886049 -0.0209142 -1 25.366 0.0158718 -0.0374637 0.0343678 -1 Y
282 0.012854 -0.0179948 -1 20.9043 0.0230254 -0.0322341 0.035208 -1 Y
283 0.0200157 -0.0157568 -1 12.2418 0.0358542 -0.0282251 0.0323275 -1 Y
284 0.0118264 0.0227883 -1 9.46658 0.0211846 0.0408207 0.05756 -1 Y
285 0.00771267 0.0118558 -1 17.3857 0.0138157 0.0212373 0.054008 -1 Y
286 0.0530043 0.0028069 -1 -40.2043 0.0949467 0.005028 0.00589531 -1 Y
287 0.0544646 0.00222077 -1 -41.7542 0.0975626 0.00397807 0.00456672 -1 Y
288 0.0370921 0.00181939 -1 -19.0646 0.0664432 0.00325909 0.0199093 -1 Y
289 0.00660922 -0.00038652 -1 21.5272 0.0118391 -0.000692375 0.0465842 -1 Y
290 -0.00525777 -0.00116969 -1 37.7874 -0.00941826 -0.00209528 0.0578544 -1 Y
291 0.0025347 0.00159211 -1 26.0555 0.00454042 0.00285195 0.0510185 -1 Y
292 0.000547105 0.00283876 -1 28.3773 0.000980031 0.00508507 0.0536827 -1 Y
293 0.00174053 0.00304796 -1 26.6247 0.00311781 0.00545982 0.0524835 -1 Y
294 0.0241224 0.0554967 -1 -18.8399 0.0432105 0.0994114 0.0600628 -1 Y
295 -0.0315781 -0.00311115 -1 54.1245 -0.056566 -0.00557301 0.0479635 -1 Y
296 -0.0721639 0.0268189 -1 18.966 -0.129267 0.0480407 -0.037924 -1 Y
297 -0.0769163 0.0274966 -1 18.4104 -0.13778 0.0492547 -0.044764 -1 Y
298 -0.0239384 0.00601499 -1 20.8528 -0.042881 0.0107747 0.00990942 -1 Y
299 -0.015657 -2.35031e-05 -1 22.0726 -0.0280464 -4.21012e-05 0.0170446 -1 Y
300 0.00210192 -0.0253887 -1 28.2661 0.00376518 -0.0454788 0.0252747 -1 Y
301 -0.0131538 -0.0503548 -1 40.8217 -0.0235625 -0.0902007 -0.000684539 -1 Y
302 -0.0189967 -0.097667 -1 60.5645 -0.0340288 -0.174951 -0.0249969 -1 Y
303 0.00651281 -0.0399744 -1 32.7942 0.0116664 -0.0716063 0.0236587 -1 Y
304 0.00128973 -0.0189728 -1 27.3992 0.00231029 -0.033986 0.0295272 -1 Y
305 -0.00603376 -0.0286029 -1 33.666 -0.0108083 -0.0512365 0.02002 -1 Y
306 0.00565596 -0.0238851 -1 26.2446 0.0101315 -0.0427854 0.0282703 -1 Y
307 0.0222417 -0.0171685 -1 16.1293 0.0398415 -0.030754 0.0407284 -1 Y
308 0.0219795 -0.000119845 -1 10.306 0.039372 -0.000214679 0.0484734 -1 Y
309 0.0080439 -0.0271878 -1 29.784 0.0144091 -0.0487016 0.0342496 -1 Y
310 -0.00946629 -0.0240889 -1 38.889 -0.016957 -0.0431505 0.0292937 -1 Y
311 -0.00709626 -0.0160979 -1 33.4591 -0.0127115 -0.0288361 0.0316365 -1 Y
312 0.00867309 -0.0281181 -1 26.5736 0.0155361 -0.0503681 0.0284796 -1 Y
313 0.0173248 -0.0160825 -1 15.9741 0.0310339 -0.0288086 0.0348031 -1 Y
314 0.0149768 -0.0216623 -1 20.3348 0.026828 -0.0388037 0.0332061 -1 Y
315 0.0137496 -0.0174167 -1 19.6807 0.0246297 -0.0311986 0.034922 -1 Y
316 0.00432941 -0.0275356 -1 30.6987 0.00775528 -0.0493246 0.0303298 -1 Y
317 0.0181419 -0.0270105 -1 17.6944 0.0324976 -0.048384 0.0272025 -1 Y
318 -0.00170565 -0.0182698 -1 35.2197 -0.00305534 -0.0327268 0.0398718 -1 Y
319 0.00312262 -0.0302219 -1 34.2344 0.00559355 -0.0541366 0.0319791 -1 Y
320 -0.00595456 0.0127654 -1 20.4551 -0.0106664 0.0228666 0.041421 -1 Y
321 0.0435254 0.00439033 -1 -30.5051 0.0779671 0.00786441 0.0114946 -1 Y
322 0.0561499 7.42436e-05 -1 -42.9661 0.100581 0.000132993 0.00246549 -1 Y
323 0.0549095 0.00124524 -1 -42.1232 0.0983595 0.0022306 0.003486 -1 Y
324 0.0534601 0.00272445 -1 -40.6791 0.0957631 0.00488032 0.00560453 -1 Y
325 0.0321281 0.00142391 -1 -12.5185 0.0575512 0.00255065 0.0241015 -1 Y
326 0.00376324 0.00352398 -1 23.8928 0.0067411 0.00631251 0.0510006 -1 Y
327 0.000711559 0.00454655 -1 27.4056 0.00127462 0.00814425 0.0540406 -1 Y
328 0.00304583 0.00429348 -1 24.2782 0.005456 0.00769093 0.0515106 -1 Y
329 0.00257469 0.00648979 -1 24.0325 0.00461206 0.0116252 0.0527882 -1 Y
330 -0.00685496 0.0108213 -1 36.5178 -0.0122793 0.0193843 0.0663086 -1 Y
331 0.000520785 0.00541093 -1 27.2838 0.000932884 0.00969261 0.054492 -1 Y
332 -0.0268887 -0.00331629 -1 46.7692 -0.0481659 -0.00594047 0.0413221 -1 Y
333 -0.0439056 -0.00326607 -1 30.9728 -0.0786482 -0.00585052 -0.00999054 -1 Y
334 -0.0758183 0.00403941 -1 28.1565 -0.135813 0.00723581 -0.0513504 -1 Y
335 -0.0396454 0.0112051 -1 21.3252 -0.0710169 0.0200718 -0.0054657 -1 Y
336 -0.0280846 0.011067 -1 19.8399 -0.0503081 0.0198243 0.00781301 -1 Y
337 -0.0275677 0.00548168 -1 22.0748 -0.049382 0.00981935 0.0064485 -1 Y
338 -0.0315231 -0.0022392 -1 26.1252 -0.0564673 -0.00401108 -0.000227306 -1 Y
339 -0.0201279 -0.00651943 -1 24.9132 -0.0360551 -0.0116783 0.00884561 -1 Y
340 0.00999253 -0.010534 -1 17.3664 0.0178996 -0.0188696 0.0330479 -1 Y
341 0.029358 -0.00670002 -1 10.8707 0.052589 -0.0120018 0.0526219 -1 Y
342 -0.0111115 -0.0339057 -1 36.95 -0.0199041 -0.0607354 0.0130419 -1 Y
343 0.0195763 -0.030053 -1 22.0148 0.035067 -0.053834 0.0335115 -1 Y
344 0.0324423 -0.043653 -1 21.1403 0.0581141 -0.0781958 0.035191 -1 Y
345 0.0141236 -0.0300049 -1 26.5497 0.0252997 -0.0537478 0.0339688 -1 Y
346 0.00511636 -0.0554114 -1 42.372 0.00916495 -0.0992586 0.0219448 -1 Y
347 0.00312758 -0.0591416 -1 44.6647 0.00560244 -0.10594 0.0192017 -1 Y
348 -0.00649817 -0.0221256 -1 35.5137 -0.0116402 -0.0396337 0.0295917 -1 Y
349 0.0172274 -0.0279208 -1 20.2991 0.0308594 -0.0500147 0.029532 -1 Y
350 0.0506461 -0.0790078 -1 15.4079 0.0907226 -0.141527 0.0123323 -1 Y
351 0.0185883 -0.0346819 -1 22.8009 0.0332972 -0.0621257 0.0285424 -1 Y
352 0.00197542 -0.0361641 -1 36.3044 0.00353857 -0.0647808 0.0276323 -1 Y
353 0.00830986 -0.0633512 -1 41.1695 0.0148855 -0.113481 0.0157194 -1 Y
354 0.0395273 -0.0232652 -1 -4.04932 0.0708054 -0.041675 0.0226869 -1 Y
355 -0.0922256 -0.00386762 -1 118.739 -0.165204 -0.00692808 0.0765697 -1 Y
356 -0.0825319 -0.0115417 -1 111.013 -0.14784 -0.0206748 0.0681836 -1 Y
357 0.0386114 -0.0030765 -1 -22.1569 0.0691647 -0.00551095 0.0113152 -1 Y
358 0.0485159 0.00115598 -1 -34.8951 0.0869067 0.00207072 0.00722307 -1 Y
359 0.0558542 0.00268823 -1 -43.7104 0.100052 0.00481544 0.00355971 -1 Y
360 0.0531511 0.00609139 -1 -41.9939 0.0952097 0.0109115 0.00648778 -1 Y
361 0.055296 0.00672259 -1 -44.7754 0.0990519 0.0120422 0.00525423 -1 Y
362 0.0436516 0.00384378 -1 -28.3836 0.0781932 0.00688537 0.01481 -1 Y
363 0.0105729 0.00987469 -1 12.3049 0.0189393 0.0176886 0.0469156 -1 Y
364 0.000820765 0.013141 -1 23.8904 0.00147024 0.0235395 0.0572613 -1 Y
365 0.00359232 0.01261 -1 20.2072 0.00643493 0.0225883 0.054062 -1 Y
366 0.000544426 0.010506 -1 25.3837 0.000975232 0.0188195 0.0566672 -1 Y
367 0.001449 0.0177326 -1 21.0494 0.0025956 0.0317644 0.0580802 -1 Y
368 -0.000243826 0.0120053 -1 25.9284 -0.000436766 0.0215051 0.0581441 -1 Y
369 -0.0231099 -0.00339508 -1 40.7854 -0.0413968 -0.00608161 0.0359638 -1 Y
370 -0.0562888 -0.0195291 -1 37.3985 -0.10083 -0.0349825 -0.0333739 -1 Y
371 -0.0623852 -0.00471822 -1 30.4195 -0.111751 -0.00845177 -0.0381609 -1 Y
372 -0.0378546 0.00237261 -1 25.0984 -0.0678091 0.00425006 -0.00585342 -1 Y
373 -0.0322599 0.00865086 -1 21.6698 -0.0577873 0.0154963 0.00263708 -1 Y
374 -0.0327244 0.00634238 -1 22.7422 -0.0586193 0.0113611 0.00139379 -1 Y
375 -0.0273802 0.00291365 -1 23.0024 -0.0490462 0.00521923 0.00557586 -1 Y
376 -0.00858416 0.00152958 -1 18.2988 -0.0153768 0.00273994 0.0218954 -1 Y
377 0.0306331 0.00284042 -1 5.76736 0.0548731 0.00508804 0.0556867 -1 Y
378 -0.00928903 0.00385515 -1 26.3734 -0.0166395 0.00690574 0.0376096 -1 Y
379 0.0301288 -0.0344988 -1 15.4555 0.0539698 -0.0617978 0.0318402 -1 Y
380 0.0360096 -0.0422619 -1 17.9867 0.0645041 -0.0757038 0.0360943 -1 Y
381 0.0247038 -0.0493738 -1 27.0302 0.0442519 -0.0884434 0.0286515 -1 Y
382 0.0204664 -0.0661101 -1 37.2551 0.0366616 -0.118423 0.0227359 -1 Y
383 -0.0106524 -0.063894 -1 54.1144 -0.0190817 -0.114453 0.0115793 -1 Y
384 -0.0315396 -0.0196882 -1 44.2871 -0.056497 -0.0352675 0.0128939 -1 Y
385 0.0110672 -0.0164644 -1 13.7146 0.0198247 -0.0294928 0.0217406 -1 Y
386 0.0334582 -0.0151802 -1 -2.15049 0.0599337 -0.0271923 0.026303 -1 Y
387 0.0520306 -0.0420413 -1 -1.54259 0.0932026 -0.0753087 0.0242362 -1 Y
388 0.0185405 -0.0523334 -1 29.9037 0.0332117 -0.093745 0.0219674 -1 Y
389 0.0230435 -0.0214541 -1 12.6518 0.041278 -0.0384307 0.0311188 -1 Y
390 0.0345928 -0.0322404 -1 2.86817 0.0619662 -0.0577524 0.0183419 -1 Y
391 0.167766 -0.010151 -1 -128.773 0.30052 -0.0181836 -0.00449187 -1 Y
392 -0.0820993 0.0113003 -1 101.916 -0.147065 0.0202423 0.0773707 -1 Y
393 0.0606693 -0.00209917 -1 -46.4337 0.108677 -0.00376025 0.000302747 -1 Y
394 0.0564226 -0.00154105 -1 -42.3233 0.10107 -0.00276048 0.0022355 -1 Y
395 0.0547928 0.00619584 -1 -44.1709 0.0981504 0.0110986 0.00505174 -1 Y
396 0.0591413 0.0103773 -1 -50.9946 0.10594 0.0185889 0.00359119 -1 Y
397 0.0622767 0.0308701 -1 -64.2218 0.111556 0.0552976 0.00674333 -1 Y
398 0.056202 0.0184684 -1 -51.0788 0.100675 0.0330824 0.00807081 -1 Y
399 0.0349167 0.00657967 -1 -18.0545 0.0625464 0.0117862 0.0237882 -1 Y
400 0.0117383 0.0204698 -1 6.14288 0.0210268 0.0366676 0.0491023 -1 Y
401 0.00309994 0.0250434 -1 15.5803 0.00555293 0.0448602 0.0586246 -1 Y
402 0.00174873 0.0232889 -1 18.3245 0.0031325 0.0417174 0.0596851 -1 Y
403 0.00323313 0.0229419 -1 16.3438 0.00579152 0.0410959 0.0578903 -1 Y
404 0.0249658 0.0266653 -1 -17.6077 0.0447213 0.0477656 0.0323788 -1 Y
405 0.0143142 0.0435166 -1 -9.36616 0.0256411 0.0779514 0.0502163 -1 Y
406 -0.0170793 -0.0057549 -1 32.2443 -0.0305941 -0.0103088 0.0267808 -1 Y
407 -0.0436519 0.00256272 -1 26.0376 -0.0781938 0.0045906 -0.0120405 -1 Y
408 -0.0538494 -0.00546513 -1 30.3057 -0.0964605 -0.0097897 -0.0273233 -1 Y
409 -0.0408332 0.00592221 -1 23.2833 -0.0731447 0.0106085 -0.00935619 -1 Y
410 -0.0276968 0.00918637 -1 20.455 -0.0496134 0.0164556 0.00740856 -1 Y
411 -0.0312054 0.0076835 -1 21.7925 -0.0558983 0.0137635 0.00327486 -1 Y
412 -0.0316188 0.00527437 -1 22.9062 -0.0566388 0.009448 0.00206669 -1 Y
413 -0.0200038 -0.000448949 -1 22.5922 -0.0358328 -0.000804203 0.0114701 -1 Y
414 -0.0212827 -0.0107683 -1 28.2792 -0.0381238 -0.0192894 0.0085874 -1 Y
415 -0.0244933 -0.00911422 -1 28.4094 -0.0438749 -0.0163263 0.00614215 -1 Y
416 0.0167085 -0.00371391 -1 15.5551 0.0299299 -0.00665274 0.0465191 -1 Y
417 0.0126763 -0.0266912 -1 21.0273 0.0227071 -0.0478121 0.0258212 -1 Y
418 -0.00726113 -0.0290326 -1 33.4181 -0.0130069 -0.0520062 0.0174195 -1 Y
419 0.0184177 -0.0562004 -1 33.3255 0.0329917 -0.100672 0.0236501 -1 Y
420 -0.0140058 -0.0361146 -1 42.7899 -0.0250886 -0.0646922 0.0169134 -1 Y
421 -0.0311476 -0.0234318 -1 45.6238 -0.0557947 -0.0419735 0.0117591 -1 Y
422 0.00635104 -0.0201456 -1 19.0151 0.0113766 -0.0360869 0.0205526 -1 Y
423 0.037727 -0.0267112 -1 0.649435 0.0675805 -0.0478479 0.0247394 -1 Y
424 0.0405334 -0.08875 -1 31.6798 0.0726075 -0.158978 0.0164178 -1 Y
425 0.0220236 -0.0621347 -1 32.2243 0.0394509 -0.111302 0.0203322 -1 Y
426 -0.0116528 -0.0442243 -1 49.8263 -0.0208738 -0.0792191 0.0238179 -1 Y
427 0.025788 -0.0253695 -1 6.78962 0.0461941 -0.0454444 0.0204113 -1 Y
428 0.183059 -0.0420647 -1 -127.198 0.327914 -0.0753506 -0.0148464 -1 Y
429 0.0675414 0.00139954 -1 -55.0888 0.120987 0.002507 -0.00161002 -1 Y
430 0.065744 0.00438968 -1 -54.9223 0.117767 0.00786324 -0.000593766 -1 Y
431 0.0673525 0.0143948 -1 -61.6739 0.120649 0.0257854 0.000536799 -1 Y
432 0.076088 0.0229274 -1 -75.3452 0.136297 0.0410699 -0.00219039 -1 Y
433 0.0672395 0.0452089 -1 -76.4081 0.120446 0.0809829 0.00763905 -1 Y
434 0.0563501 0.0484938 -1 -64.394 0.10094 0.0868671 0.0171804 -1 Y
435 0.0530657 0.0436456 -1 -58.6556 0.0950567 0.0781825 0.0174924 -1 Y
436 0.0301907 0.00566395 -1 -11.0419 0.0540807 0.0101458 0.0285708 -1 Y
437 0.00536135 -0.0160398 -1 33.6429 0.0096038 -0.0287321 0.0493037 -1 Y
438 0.0147817 0.00595631 -1 9.51363 0.0264785 0.0106696 0.0436331 -1 Y
439 0.00402446 -0.00379099 -1 28.8957 0.00720903 -0.00679081 0.0522849 -1 Y
440 0.0190587 -0.0225793 -1 15.9738 0.0341399 -0.0404463 0.0302182 -1 Y
441 0.0276371 -0.0166179 -1 -0.189068 0.0495065 -0.0297676 0.0201281 -1 Y
442 0.0567637 -0.00421082 -1 -51.1954 0.101681 -0.00754286 -0.0157552 -1 Y
443 -0.0228207 -0.00529475 -1 41.1074 -0.0408788 -0.00948451 0.0348869 -1 Y
444 -0.0370001 0.0124931 -1 20.5627 -0.0662784 0.0223789 -0.00175033 -1 Y
445 -0.039758 0.0176409 -1 17.6433 -0.0712185 0.0316001 -0.00516829 -1 Y
446 0.00485435 0.0242527 -1 9.66116 0.00869561 0.0434439 0.0498056 -1 Y
447 0.0268136 -0.0136649 -1 29.1112 0.0480313 -0.0244781 0.0736542 -1 Y
448 -0.00599958 -0.0178236 -1 37.034 -0.0107471 -0.0319274 0.0375837 -1 Y
449 -0.0360524 0.0259448 -1 13.5824 -0.0645808 0.046475 0.00176983 -1 Y
450 -0.0370624 0.0158727 -1 19.1608 -0.0663899 0.0284328 -0.000664405 -1 Y
451 -0.0298062 0.005009 -1 22.7351 -0.0533918 0.00897264 0.00399502 -1 Y
452 -0.030967 -0.000802594 -1 26.3971 -0.0554712 -0.00143769 0.00256759 -1 Y
453 -0.022857 -0.0125417 -1 29.3929 -0.0409438 -0.022466 0.0064528 -1 Y
454 -0.00670548 -0.0138147 -1 22.8628 -0.0120115 -0.0247463 0.0160134 -1 Y
455 -0.0020262 -0.0438312 -1 36.6695 -0.00362954 -0.0785149 0.0144739 -1 Y
456 0.0208874 -0.0305777 -1 18.2943 0.0374157 -0.0547739 0.0282277 -1 Y
457 0.00301759 -0.0287355 -1 27.6185 0.00540541 -0.051474 0.0218061 -1 Y
458 -0.0197436 0.0139065 -1 11.4924 -0.0353667 0.0249107 0.00776925 -1 Y
459 0.000310121 -0.0431965 -1 35.7051 0.000555521 -0.0773781 0.0167029 -1 Y
460 0.0267691 -0.0357003 -1 13.381 0.0479516 -0.06395 0.0222412 -1 Y
461 0.00381142 -0.281762 -1 160.815 0.00682741 -0.504721 -0.0152435 -1 Y
462 0.0280258 -0.16206 -1 76.1463 0.0502026 -0.290299 -0.00166251 -1 Y
463 -0.0056962 -0.137741 -1 93.4572 -0.0102036 -0.246736 0.00814348 -1 Y
464 0.115353 -0.0206817 -1 -74.2005 0.206633 -0.0370472 0.00737324 -1 Y
465 0.16745 -0.00605374 -1 -129.785 0.299953 -0.0108441 -0.00230119 -1 Y
466 0.0348748 0.00408655 -1 -7.65918 0.0624712 0.00732025 0.0393162 -1 Y
467 0.0777418 0.00508286 -1 -67.46 0.139259 0.00910495 -0.0052377 -1 Y
468 0.0889599 0.000137749 -1 -75.9959 0.159354 0.000246749 -0.00999667 -1 Y
469 0.0794916 -0.0115626 -1 -60.4502 0.142394 -0.020712 -0.00840008 -1 Y
470 0.0585727 -0.0287608 -1 -26.9237 0.104921 -0.0515194 0.00299571 -1 Y
471 0.0437512 -0.0364992 -1 -4.95347 0.0783716 -0.0653812 0.0127191 -1 Y
472 0.0371603 -0.0202835 -1 -5.31921 0.0665654 -0.0363338 0.0203796 -1 Y
473 0.0217775 -0.0188894 -1 12.797 0.0390101 -0.0338367 0.032377 -1 Y
474 0.0113954 -0.0190002 -1 26.3886 0.0204126 -0.0340351 0.0417408 -1 Y
475 0.00062023 -0.0231949 -1 43.3629 0.00111102 -0.0415491 0.0521103 -1 Y
476 0.0119878 -0.0118 -1 20.0353 0.0214738 -0.0211374 0.039144 -1 Y
477 0.0437958 -0.034675 -1 -15.7882 0.0784515 -0.0621134 -0.00429694 -1 Y
478 0.0387034 -0.0339046 -1 -8.15737 0.0693295 -0.0607334 0.00287777 -1 Y
479 0.0353344 -0.0301044 -1 -5.22023 0.0632946 -0.053926 0.00745444 -1 Y
480 -0.0199903 -0.00508424 -1 36.4845 -0.0358087 -0.00910742 0.0309157 -1 Y
481 -0.0275902 0.00785132 -1 23.1795 -0.0494224 0.0140641 0.0109081 -1 Y
482 -0.0316115 0.0111096 -1 21.2561 -0.0566258 0.0199006 0.0054549 -1 Y
483 -0.00756038 -0.000283606 -1 25.3229 -0.0135429 -0.000508024 0.0337087 -1 Y
484 0.00477421 -0.0165539 -1 34.9892 0.00855206 -0.029653 0.050302 -1 Y
485 -0.0789331 -0.0359699 -1 60.5041 -0.141393 -0.064433 -0.04187 -1 Y
486 -0.0504554 -0.00443357 -1 34.5174 -0.0903809 -0.00794187 -0.0141036 -1 Y
487 -0.0441198 -0.00546444 -1 33.2161 -0.0790319 -0.00978847 -0.00871064 -1 Y
488 -0.0360091 -0.00244629 -1 29.061 -0.0645031 -0.00438204 -0.00151396 -1 Y
489 -0.0274173 0.000952242 -1 24.0778 -0.0491127 0.00170575 0.00530385 -1 Y
490 -0.0295601 -0.00879349 -1 30.4831 -0.0529511 -0.0157518 0.00310256 -1 Y
491 -0.0091244 -0.0172696 -1 26.0416 -0.0163446 -0.0309351 0.0145271 -1 Y
492 0.000135197 -0.0192943 -1 22.2371 0.000242179 -0.034562 0.018508 -1 Y
493 0.0107059 -0.0310848 -1 24.6027 0.0191776 -0.0556824 0.0246442 -1 Y
494 -0.0285264 0.0138844 -1 17.0066 -0.0510994 0.0248712 0.00525219 -1 Y
495 -0.0221539 0.00745757 -1 16.6423 -0.0396844 0.0133588 0.0065376 -1 Y
496 -0.0180822 -0.000672539 -1 19.2753 -0.0323906 -0.00120472 0.00806614 -1 Y
497 -0.0456569 0.0137087 -1 30.2328 -0.0817854 0.0245564 0.00454239 -1 Y
498 -0.0465179 -0.00583183 -1 42.6257 -0.0833276 -0.0104466 0.00410363 -1 Y
499 0.0502807 -0.0705253 -1 5.86708 0.0900679 -0.126332 0.00418466 -1 Y
500 0.0692632 -0.0270851 -1 -34.5565 0.124071 -0.0485176 0.00621528 -1 Y
501 0.0957795 0.0408997 -1 -92.5765 0.17157 0.0732638 0.0141806 -1 Y
502 0.200785 0.0039489 -1 -167.088 0.359667 0.00707367 -0.0108511 -1 Y
503 -0.0414242 0.00112409 -1 68.0315 -0.0742032 0.00201359 0.0633012 -1 Y
504 0.075203 -0.00845229 -1 -57.2328 0.134711 -0.0151406 -0.00534887 -1 Y
505 0.0726875 -0.0258839 -1 -44.843 0.130205 -0.0463659 -0.00581925 -1 Y
506 0.0710989 -0.00973616 -1 -53.0893 0.12736 -0.0174404 -0.00514181 -1 Y
507 0.0544231 -0.0198751 -1 -27.9025 0.0974883 -0.0356023 0.00507923 -1 Y
508 0.054492 -0.0140419 -1 -31.7349 0.0976117 -0.0251533 0.00471571 -1 Y
509 0.0448586 -0.0163132 -1 -18.1226 0.0803553 -0.0292219 0.0128301 -1 Y
510 0.026843 -0.0119515 -1 2.58263 0.0480839 -0.0214087 0.0289178 -1 Y
511 0.00817373 -0.00248926 -1 21.2627 0.0146416 -0.00445901 0.0460274 -1 Y
512 -0.0028521 -0.000386799 -1 34.8315 -0.00510897 -0.000692874 0.0568394 -1 Y
513 0.00267248 0.0169472 -1 16.9307 0.00478722 0.0303575 0.0516942 -1 Y
514 0.0332734 0.0032742 -1 -20.8142 0.0596028 0.00586508 0.0131025 -1 Y
515 0.0370537 -0.00806593 -1 -20.0665 0.0663744 -0.0144485 0.00745983 -1 Y
516 0.0229817 -0.00886046 -1 1.73828 0.0411671 -0.0158718 0.025403 -1 Y
517 -0.0213782 -0.00397256 -1 38.0247 -0.0382948 -0.00711606 0.0328931 -1 Y
518 -0.030562 0.000282349 -1 27.8249 -0.0547459 0.000505773 0.00680585 -1 Y
519 -0.031526 0.00273765 -1 26.2064 -0.0564726 0.00490395 0.00526581 -1 Y
520 -0.0315384 -0.00191004 -1 29.4222 -0.0564949 -0.00342146 0.00589959 -1 Y
521 0.0159877 -0.00774136 -1 26.2881 0.0286388 -0.0138671 0.0600479 -1 Y
522 -0.0695124 -0.0230428 -1 50.515 -0.124518 -0.0412767 -0.0324478 -1 Y
523 -0.0546743 -0.00770492 -1 37.3221 -0.0979383 -0.0138019 -0.0185469 -1 Y
524 -0.0427332 -0.00759262 -1 34.1246 -0.0765482 -0.0136007 -0.00748021 -1 Y
525 -0.0338202 -0.00533333 -1 30.0854 -0.0605821 -0.0095536 0.000216666 -1 Y
526 -0.0284543 0.00358834 -1 22.6501 -0.0509703 0.0064278 0.00419245 -1 Y
527 -0.0543526 0.00107084 -1 42.0458 -0.0973619 0.00191819 -0.000357564 -1 Y
528 -0.0207365 0.154192 -1 -74.4326 -0.0371454 0.276204 0.00632061 -1 Y
529 -0.0210665 0.016451 -1 11.7725 -0.0377365 0.0294687 0.00916399 -1 Y
530 -0.0146329 0.00447666 -1 15.8771 -0.0262119 0.00801906 0.0124191 -1 Y
531 0.0310639 0.0236553 -1 -16.9597 0.0556448 0.0423738 0.0387389 -1 Y
532 -0.0161937 0.015647 -1 17.1658 -0.0290079 0.0280286 0.0245366 -1 Y
533 -0.00286845 0.0659324 -1 -16.7788 -0.00513826 0.118105 0.0374699 -1 Y
534 -0.0485541 0.0221397 -1 27.0051 -0.0869751 0.0396589 0.00392177 -1 Y
535 0.00707571 0.294868 -1 -186.383 0.0126747 0.528198 -0.000485172 -1 Y
536 0.00370405 0.197475 -1 -120.469 0.00663508 0.353738 0.00589066 -1 Y
537 0.228862 0.0516598 -1 -215.267 0.409962 0.0925384 -0.00523929 -1 Y
538 0.0806523 0.0623498 -1 -92.0097 0.144473 0.111687 0.0172696 -1 Y
539 0.0913675 0.0377886 -1 -85.9435 0.163667 0.0676908 0.0163697 -1 Y
540 -0.00943619 0.00543821 -1 32.7147 -0.0169031 0.00974148 0.0502527 -1 Y
541 -0.0484479 0.0170262 -1 63.6056 -0.0867848 0.0304991 0.0628885 -1 Y
542 0.0354075 0.107054 -1 -87.0629 0.0634255 0.191766 0.0112941 -1 Y
543 0.0555258 0.0112547 -1 -48.7544 0.0994636 0.0201605 0.00345635 -1 Y
544 0.0759431 0.0196922 -1 -76.9379 0.136037 0.0352746 -0.00867112 -1 Y
545 0.0558448 0.0381754 -1 -64.0521 0.100035 0.0683836 0.0059788 -1 Y
546 0.0334383 0.0227804 -1 -27.3388 0.0598981 0.0408067 0.0228514 -1 Y
547 0.0259916 0.010556 -1 -9.91848 0.0465588 0.0189089 0.029983 -1 Y
548 0.0122737 0.0164747 -1 3.99363 0.0219859 0.0295112 0.0417698 -1 Y
549 0.0360353 0.0434505 -1 -45.5699 0.0645501 0.0778329 0.0166538 -1 Y
550 0.035964 0.0366192 -1 -41.8368 0.0644224 0.0655961 0.0157657 -1 Y
551 0.0131114 0.00776221 -1 13.7546 0.0234864 0.0139045 0.0507118 -1 Y
552 0.00518677 0.0138835 -1 21.1336 0.00929107 0.0248696 0.0592721 -1 Y
553 0.0199625 0.00564619 -1 -2.34619 0.035759 0.010114 0.0296443 -1 Y
554 -0.0212529 -0.00222409 -1 36.7588 -0.0380705 -0.00398402 0.0327233 -1 Y
555 -0.0287479 -0.00354691 -1 30.3043 -0.0514961 -0.00635359 0.00955981 -1 Y
556 -0.0301322 0.000130362 -1 27.9519 -0.053976 0.000233518 0.00746175 -1 Y
557 -0.0409028 -0.0129444 -1 37.3435 -0.0732692 -0.0231873 -0.0050419 -1 Y
558 -0.177479 -3.12465 -1 2267.51 -0.317919 -5.59719 0.376888 -1 Y
559 0.00506635 -0.0454865 -1 78.77 0.00907537 -0.08148 0.0965185 -1 Y
560 2.33755 0.252203 -1 -592.928 4.18726 0.451773 2.47208 -1 Y
561 -0.104722 0.0184272 -1 72.0988 -0.187588 0.0330088 0.00125665 -1 Y
562 -0.0998865 0.0301178 -1 62.4869 -0.178927 0.0539501 0.00365011 -1 Y
563 -0.103688 0.0237747 -1 68.113 -0.185736 0.0425877 0.00143956 -1 Y
564 -0.0122226 0.102192 -1 -41.4624 -0.0218944 0.183058 0.0201267 -1 Y
565 0.00857399 0.15015 -1 -83.5251 0.0153586 0.268963 0.026653 -1 Y
566 0.00168604 0.0541369 -1 -10.8635 0.00302021 0.0969755 0.0414929 -1 Y
567 -0.000992873 0.0775624 -1 -25.5543 -0.00177854 0.138938 0.0371624 -1 Y
568 -0.00681283 0.319626 -1 -192.555 -0.0122038 0.572547 -0.0039613 -1 Y
569 -0.00507766 0.0515998 -1 -5.96005 -0.00909562 0.0924309 0.0379976 -1 Y
570 -0.018088 0.0530346 -1 2.0568 -0.032401 0.0950011 0.0355816 -1 Y
571 0.010432 0.339803 -1 -218.444 0.0186868 0.608689 -0.00382785 -1 Y
572 0.000554094 0.327214 -1 -202.61 0.000992549 0.58614 -0.00324734 -1 Y
573 -0.00129593 0.334098 -1 -206.039 -0.0023214 0.59847 -0.00443448 -1 Y
574 0.0371232 0.310393 -1 -221.912 0.0664989 0.556008 -0.00453701 -1 Y
575 0.0706613 0.0769958 -1 -92.6691 0.126576 0.137923 0.0180082 -1 Y
576 0.0352455 0.0528143 -1 -41.5945 0.0631354 0.0946064 0.032619 -1 Y
577 0.0344199 0.0687233 -1 -53.2025 0.0616565 0.123104 0.0281903 -1 Y
578 -0.0151268 0.0176391 -1 29.6197 -0.0270968 0.031597 0.0500462 -1 Y
579 -0.0286634 0.125152 -1 -29.5284 -0.0513448 0.224185 0.042994 -1 Y
580 0.025927 0.252744 -1 -175.927 0.0464431 0.45274 -0.00127938 -1 Y
581 0.068587 0.158186 -1 -159.799 0.12286 0.283358 -0.0154905 -1 Y
582 0.0428644 0.0657546 -1 -66.1105 0.076783 0.117786 0.0140265 -1 Y
583 0.0160036 0.0479205 -1 -21.5595 0.0286673 0.0858401 0.0358696 -1 Y
584 0.0170626 0.0328439 -1 -12.9212 0.0305643 0.0588333 0.0362988 -1 Y
585 0.0228098 0.0336979 -1 -21.508 0.0408593 0.0603632 0.0301002 -1 Y
586 0.0472249 0.0667305 -1 -75.947 0.0845941 0.119535 0.00383922 -1 Y
587 0.0262997 0.053717 -1 -36.5897 0.0471107 0.0962235 0.0299755 -1 Y
588 0.0281496 0.0480815 -1 -36.1813 0.0504245 0.0861286 0.0271964 -1 Y
589 0.00883938 0.0274214 -1 6.42167 0.015834 0.04912 0.0530499 -1 Y
590 -0.0217697 0.00496126 -1 68.5233 -0.038996 0.00888711 0.0955594 -1 Y
591 -0.0175823 -0.00318753 -1 31.5904 -0.0314952 -0.00570983 0.027696 -1 Y
592 0.96394 -0.0685398 -1 39.2783 1.72671 -0.122776 1.3325 -1 N
593 1.30221 -0.0923258 -1 19.6841 2.33265 -0.165384 1.74173 -1 Y
594 0.0388683 -0.0566077 -1 95.4282 0.0696249 -0.101402 0.160719 -1 Y
595 0.0186652 0.0110429 -1 134.711 0.033435 0.0197812 0.274512 -1 Y
596 3.94924 4.22072 -1 -3642.06 7.07429 7.56059 3.61908 -1 N
597 -0.101778 0.00342758 -1 82.2166 -0.182316 0.00613984 0.00698246 -1 Y
598 -0.102113 0.0185267 -1 71.3727 -0.182916 0.0331869 0.00370593 -1 Y
599 -0.105279 0.0237433 -1 68.7932 -0.188587 0.0425314 0.00039339 -1 Y
600 -0.102999 0.0205034 -1 70.1171 -0.184503 0.0367278 0.00239689 -1 Y
601 0.00173118 0.365657 -1 -231.609 0.00310107 0.655003 -0.0112165 -1 Y
602 0.00914485 0.369986 -1 -238.005 0.0163812 0.662757 -0.00751515 -1 Y
603 0.012908 0.357228 -1 -230.5 0.0231222 0.639904 -0.00283226 -1 Y
604 0.0107451 0.350568 -1 -224.591 0.0192478 0.627973 -0.00261403 -1 Y
605 0.00304202 0.350611 -1 -220.268 0.00544917 0.62805 -0.00565586 -1 Y
606 -0.00388803 0.350031 -1 -215.57 -0.00696464 0.627012 -0.00763735 -1 Y
607 -0.000572758 0.355073 -1 -221.29 -0.00102598 0.636044 -0.00766488 -1 Y
608 -0.00368322 0.347453 -1 -213.593 -0.00659777 0.622394 -0.00665284 -1 Y
609 -0.000602817 0.345521 -1 -214.433 -0.00107983 0.618932 -0.00593514 -1 Y
610 -0.00304506 0.35396 -1 -218.6 -0.00545462 0.63405 -0.00756584 -1 Y
611 0.00518623 0.345761 -1 -219.738 0.00929011 0.619363 -0.00696712 -1 Y
612 0.0070823 0.353148 -1 -226.854 0.0126865 0.632595 -0.0088954 -1 Y
613 0.00444532 0.359378 -1 -228.995 0.00796291 0.643755 -0.00961319 -1 Y
614 0.00207544 0.338338 -1 -211.059 0.00371773 0.606066 -0.00401803 -1 Y
615 0.00194554 0.339175 -1 -211.434 0.00348505 0.607564 -0.00395702 -1 Y
616 0.00959495 0.322014 -1 -207.027 0.0171875 0.576824 -0.00406307 -1 Y
617 0.00990796 0.316246 -1 -203.179 0.0177481 0.566492 -0.00307233 -1 Y
618 0.00499982 0.303131 -1 -187.83 0.00895618 0.542999 0.00298245 -1 Y
619 0.00212862 0.251171 -1 -146.66 0.00381301 0.449922 0.0154468 -1 Y
620 0.00105557 0.26414 -1 -154.686 0.00189085 0.473155 0.0138069 -1 Y
621 0.00921221 0.240769 -1 -148.256 0.0165019 0.43129 0.011279 -1 Y
622 0.0179703 0.208813 -1 -136.972 0.0321902 0.374047 0.00887742 -1 Y
623 0.0304252 0.0966492 -1 -72.946 0.0545007 0.173128 0.0179969 -1 Y
624 0.0183593 0.0700395 -1 -37.1623 0.0328871 0.125462 0.0355153 -1 Y
625 0.00808936 0.0745957 -1 -26.0735 0.0144905 0.133623 0.0456574 -1 Y
626 0.00311384 0.0829742 -1 -23.9385 0.00557783 0.148632 0.0515215 -1 Y
627 0.0170079 0.12507 -1 -76.7823 0.0304663 0.224037 0.0232193 -1 Y
628 -0.0289531 -0.00396465 -1 50.1856 -0.0518637 -0.00710188 0.0437648 -1 Y
629 0.448277 0.0996883 -1 -78.5463 0.803 0.178572 0.591085 -1 N
630 0.0598474 -0.038243 -1 79.8283 0.107205 -0.0685048 0.182166 -1 Y
631 0.0504691 0.00791279 -1 132.092 0.0904055 0.0141742 0.310661 -1 Y
632 0.0505119 0.00791531 -1 132.083 0.0904821 0.0141787 0.310708 -1 Y
633 0.0471402 -3.22364 -1 2589.77 0.0844423 -5.77451 1.14834 -1 Y
634 -0.0709753 -0.0199319 -1 91.7729 -0.127138 -0.0357041 0.0413753 -1 Y
635 -0.088725 0.00569236 -1 77.0238 -0.158933 0.0101967 0.0184014 -1 Y
636 -0.101243 0.0168006 -1 72.4129 -0.181356 0.030095 0.00488492 -1 Y
637 0.00732012 0.360092 -1 -229.64 0.0131125 0.645034 -0.00599141 -1 Y
638 0.00847945 0.365612 -1 -234.421 0.0151893 0.654922 -0.00684461 -1 Y
639 0.00768504 0.364424 -1 -233.149 0.0137662 0.652793 -0.00699002 -1 Y
640 0.00683138 0.363432 -1 -231.954 0.0122371 0.651016 -0.00714239 -1 Y
641 0.00611214 0.360074 -1 -229.028 0.0109487 0.645001 -0.00661119 -1 Y
642 0.00329858 0.359032 -1 -226.649 0.00590876 0.643135 -0.00745317 -1 Y
643 -0.000615628 0.357815 -1 -223.329 -0.00110278 0.640955 -0.00835919 -1 Y
644 -0.00181765 0.356767 -1 -221.737 -0.00325596 0.639077 -0.00835659 -1 Y
645 0.000343986 0.35905 -1 -225.016 0.000616182 0.643167 -0.00866309 -1 Y
646 0.00221001 0.360681 -1 -227.598 0.0039588 0.646088 -0.00885796 -1 Y
647 0.000256062 0.360962 -1 -226.184 0.000458684 0.646593 -0.00878006 -1 Y
648 -0.000416719 0.361484 -1 -226.148 -0.00074647 0.647527 -0.00908905 -1 Y
649 0.0041131 0.360533 -1 -229.364 0.0073678 0.645824 -0.00948066 -1 Y
650 0.00533232 0.359734 -1 -229.783 0.0095518 0.644393 -0.00938415 -1 Y
651 0.00175391 0.358999 -1 -225.791 0.00314179 0.643076 -0.00812455 -1 Y
652 -0.000119101 0.360457 -1 -225.094 -0.000213346 0.645688 -0.00792918 -1 Y
653 0.00396225 0.348547 -1 -220.386 0.00709759 0.624353 -0.00680858 -1 Y
654 0.00393681 0.34494 -1 -217.493 0.00705201 0.617892 -0.00563993 -1 Y
655 0.00134254 0.343974 -1 -213.677 0.00240489 0.616162 -0.00357032 -1 Y
656 -0.00637954 0.355214 -1 -213.227 -0.0114277 0.636295 -0.00140046 -1 Y
657 0.0034391 0.364915 -1 -232.503 0.00616046 0.653674 -0.0112168 -1 Y
658 0.00440444 0.367318 -1 -235.637 0.00788968 0.657978 -0.0128001 -1 Y
659 0.00226464 0.37067 -1 -235.519 0.00405665 0.663982 -0.0119542 -1 Y
660 0.00142882 0.37423 -1 -237.148 0.00255945 0.67036 -0.0121465 -1 Y
661 0.00139055 0.382489 -1 -243.424 0.0024909 0.685154 -0.0143442 -1 Y
662 0.00292878 0.381027 -1 -244.49 0.00524633 0.682535 -0.0156566 -1 Y
663 0.00260613 0.372785 -1 -237.685 0.00466836 0.667772 -0.0130109 -1 Y
664 0.00788476 0.379933 -1 -251.445 0.014124 0.680576 -0.0221797 -1 Y
665 -0.0367839 -0.00206223 -1 61.2294 -0.0658912 -0.00369407 0.0543563 -1 Y
666 0.126341 1.51685 -1 -1196.79 0.226315 2.71713 -0.295998 -1 N
667 0.0388308 0.325576 -1 -205.075 0.0695577 0.583205 0.0437572 -1 Y
668 0.0167971 0.342911 -1 -217.523 0.0300888 0.614257 0.0099661 -1 Y
669 0.0108641 0.351883 -1 -224.371 0.019461 0.630329 -0.000646184 -1 Y
670 0.0158867 0.356688 -1 -229.223 0.028458 0.638937 0.00296374 -1 Y
671 0.00993777 0.343199 -1 -216.756 0.0178016 0.614773 0.00210671 -1 Y
672 0.0110599 0.36242 -1 -232.841 0.0198116 0.649204 -0.00392398 -1 Y
673 0.0111842 0.362566 -1 -232.964 0.0200343 0.649465 -0.00381099 -1 Y
674 0.00946785 0.362273 -1 -232.115 0.0169598 0.648941 -0.00501442 -1 Y
675 0.00723854 0.364101 -1 -232.706 0.0129664 0.652215 -0.00717886 -1 Y
676 0.00676858 0.362216 -1 -230.923 0.0121246 0.648838 -0.00672515 -1 Y
677 0.00471317 0.359319 -1 -227.571 0.00844272 0.643648 -0.00680323 -1 Y
678 0.00331234 0.359038 -1 -226.57 0.0059334 0.643145 -0.00729021 -1 Y
679 -0.00139807 0.355507 -1 -220.967 -0.00250436 0.63682 -0.00777591 -1 Y
680 -0.00366314 0.353173 -1 -217.602 -0.0065618 0.632639 -0.00751673 -1 Y
681 -0.000508075 0.353717 -1 -220.138 -0.000910117 0.633614 -0.00701047 -1 Y
682 0.00209943 0.354737 -1 -222.718 0.00376072 0.635442 -0.00682973 -1 Y
683 0.00166239 0.355844 -1 -223.257 0.00297784 0.637424 -0.00719302 -1 Y
684 -0.00029646 0.355457 -1 -221.346 -0.000531049 0.636731 -0.00696808 -1 Y
685 -0.00236688 0.353945 -1 -218.442 -0.0042398 0.634023 -0.00636378 -1 Y
686 0.0028342 0.351986 -1 -221.424 0.00507691 0.630514 -0.00649709 -1 Y
687 0.00796948 0.351907 -1 -225.986 0.0142757 0.630371 -0.00747496 -1 Y
688 0.00458965 0.350452 -1 -221.528 0.00822146 0.627766 -0.0058945 -1 Y
689 -0.00104423 0.357225 -1 -221.428 -0.00187053 0.639898 -0.00624767 -1 Y
690 -0.000802017 0.357281 -1 -221.854 -0.00143665 0.639999 -0.00659953 -1 Y
691 0.000555161 0.353375 -1 -220.216 0.000994462 0.633001 -0.00604049 -1 Y
692 0.00118543 0.352596 -1 -220.334 0.00212346 0.631606 -0.00621293 -1 Y
693 0.00215247 0.35144 -1 -220.48 0.00385573 0.629535 -0.00637151 -1 Y
694 0.0012333 0.351652 -1 -219.398 0.00220921 0.629914 -0.00551677 -1 Y
695 0.000724409 0.35119 -1 -218.215 0.00129764 0.629087 -0.00463988 -1 Y
696 0.000983045 0.355205 -1 -221.592 0.00176093 0.63628 -0.00589575 -1 Y
697 -0.000301469 0.348758 -1 -214.535 -0.000540022 0.624732 -0.00221338 -1 Y
698 0.00467265 0.353867 -1 -225.613 0.00837013 0.633882 -0.00928514 -1 Y
699 0.00438622 0.347017 -1 -219.761 0.00785705 0.621613 -0.00676747 -1 Y
700 0.000658245 0.340049 -1 -208.641 0.00117912 0.60913 0.000106656 -1 Y
701 0.00935773 0.342959 -1 -224.507 0.0167625 0.614343 -0.0125778 -1 Y
702 -0.0425104 -0.000626653 -1 69.091 -0.0761491 -0.00112252 0.0617726 -1 Y
703 0.0672009 0.357244 -1 -233.284 0.120377 0.639932 0.0676102 -1 Y
704 0.046331 0.341806 -1 -219.016 0.0829929 0.612278 0.047123 -1 Y
705 0.0200054 0.357971 -1 -230.573 0.0358358 0.641235 0.00768604 -1 Y
706 0.0149243 0.365096 -1 -236.106 0.0267339 0.653998 -0.00142121 -1 Y
707 0.0130651 0.35805 -1 -229.658 0.0234035 0.641376 -0.000249151 -1 Y
708 0.0113183 0.356777 -1 -228.207 0.0202744 0.639095 -0.00149402 -1 Y
709 0.0118255 0.356883 -1 -228.424 0.021183 0.639286 -0.00105513 -1 Y
710 0.0111758 0.360179 -1 -231.04 0.0200192 0.645189 -0.00300985 -1 Y
711 0.00914378 0.357005 -1 -227.608 0.0163793 0.639503 -0.00321216 -1 Y
712 0.00717759 0.357207 -1 -226.959 0.0128572 0.639866 -0.00458073 -1 Y
713 0.00608581 0.354597 -1 -224.271 0.0109015 0.635191 -0.00417979 -1 Y
714 0.00550321 0.354208 -1 -223.74 0.00985791 0.634494 -0.00447382 -1 Y
715 0.00349503 0.353125 -1 -221.785 0.00626066 0.632553 -0.00498989 -1 Y
716 0.000184736 0.349982 -1 -217.31 0.000330917 0.626924 -0.00509799 -1 Y
717 -0.0019998 0.346738 -1 -213.339 -0.00358225 0.621113 -0.00464075 -1 Y
718 0.000966418 0.347819 -1 -216.275 0.00173115 0.623048 -0.00452233 -1 Y
719 0.00445505 0.35002 -1 -220.551 0.00798034 0.626992 -0.00482932 -1 Y
720 0.00306638 0.352095 -1 -221.261 0.00549282 0.630709 -0.00576947 -1 Y
721 -0.00166482 0.353046 -1 -218.324 -0.00298219 0.632412 -0.00614932 -1 Y
722 -0.00489261 0.34938 -1 -212.596 -0.00876415 0.625846 -0.00450455 -1 Y
723 0.0013993 0.3462 -1 -215.415 0.00250657 0.620148 -0.00415193 -1 Y
724 0.00640118 0.344282 -1 -218.333 0.0114665 0.616712 -0.0044048 -1 Y
725 0.00782211 0.343089 -1 -218.633 0.0140118 0.614575 -0.00424413 -1 Y
726 0.00195073 0.349395 -1 -218.026 0.00349435 0.625873 -0.00453847 -1 Y
727 -0.000187063 0.353281 -1 -219.134 -0.000335086 0.632834 -0.00526926 -1 Y
728 -0.00109626 0.352767 -1 -217.775 -0.00196374 0.631912 -0.00469652 -1 Y
729 -0.000272628 0.352475 -1 -218.505 -0.00048836 0.631389 -0.00514987 -1 Y
730 0.00104339 0.352547 -1 -220.109 0.00186903 0.631517 -0.00606657 -1 Y
731 0.000656998 0.349231 -1 -216.764 0.00117688 0.625579 -0.00429102 -1 Y
732 0.00169481 0.346084 -1 -215.386 0.00303591 0.619941 -0.00381656 -1 Y
733 0.001733 0.343136 -1 -212.911 0.00310432 0.61466 -0.00258504 -1 Y
734 -0.000886075 0.338436 -1 -205.38 -0.00158723 0.606242 0.00195925 -1 Y
735 0.000359488 0.336458 -1 -205.425 0.000643952 0.602699 0.00148058 -1 Y
736 -0.00151756 0.330878 -1 -197.991 -0.00271841 0.592702 0.00593693 -1 Y
737 -0.00252055 0.327757 -1 -193.848 -0.00451508 0.587113 0.00846959 -1 Y
738 -0.000132352 0.326371 -1 -196.276 -0.000237082 0.584629 0.00602301 -1 Y
739 -0.000341006 0.325879 -1 -195.604 -0.000610844 0.583747 0.00638611 -1 Y
740 0.0590191 0.354195 -1 -230.412 0.105721 0.634471 0.0580261 -1 Y
741 0.0480095 -1.51363 -1 1405.29 0.0859996 -2.71136 0.907736 -1 Y
742 0.0243022 0.356766 -1 -229.927 0.0435327 0.639076 0.0134846 -1 Y
743 0.0163697 0.356028 -1 -228.373 0.029323 0.637753 0.00441599 -1 Y
744 0.0127109 0.356514 -1 -228.26 0.0227691 0.638625 6.37588e-05 -1 Y
745 0.0128179 0.356876 -1 -228.635 0.0229607 0.639274 -5.76431e-05 -1 Y
746 0.011887 0.35449 -1 -226.236 0.0212932 0.634998 0.00029853 -1 Y
747 0.00923237 0.353789 -1 -224.823 0.016538 0.633742 -0.00165531 -1 Y
748 0.00852925 0.350863 -1 -221.994 0.0152785 0.628501 -0.000806497 -1 Y
749 0.00671898 0.352154 -1 -222.463 0.0120357 0.630814 -0.00275242 -1 Y
750 0.00476838 0.351382 -1 -220.961 0.00854161 0.629432 -0.00364829 -1 Y
751 0.00189708 0.349686 -1 -218.024 0.00339824 0.626394 -0.00429556 -1 Y
752 -0.00223499 0.344938 -1 -211.547 -0.00400355 0.617888 -0.00375437 -1 Y
753 -0.0035445 0.344036 -1 -210.039 -0.00634927 0.616272 -0.00389168 -1 Y
754 0.000258623 0.347876 -1 -215.934 0.000463271 0.623151 -0.00484283 -1 Y
755 0.00476778 0.350797 -1 -221.559 0.00854054 0.628383 -0.0053314 -1 Y
756 0.00514026 0.351109 -1 -222.035 0.00920777 0.628942 -0.00531524 -1 Y
757 0.00475082 0.350015 -1 -220.763 0.00851015 0.626984 -0.00479695 -1 Y
758 -0.0365459 0.229668 -1 -91.4239 -0.0654648 0.411405 0.0357325 -1 Y
759 0.110713 -0.240884 -1 237.964 0.198321 -0.431497 0.312614 -1 Y
760 0.00174575 0.343551 -1 -213.557 0.00312716 0.615404 -0.00325648 -1 Y
761 0.00681982 0.343472 -1 -218.035 0.0122164 0.615263 -0.00417156 -1 Y
762 0.00627521 0.0156239 -1 -18.9997 0.0112408 0.0279871 -0.007875 -1 Y
763 0.00616164 0.0168327 -1 -19.9791 0.0110374 0.0301525 -0.00845309 -1 Y
764 5.49214e-05 0.350362 -1 -216.979 9.83809e-05 0.627604 -0.00428734 -1 Y
765 0.000100587 0.351091 -1 -217.631 0.000180181 0.628911 -0.00458509 -1 Y
766 -0.00383027 0.351125 -1 -213.272 -0.00686117 0.628972 -0.00234165 -1 Y
767 0.000157341 0.34938 -1 -216.328 0.000281846 0.625845 -0.00405849 -1 Y
768 -0.00278477 0.347113 -1 -210.656 -0.00498837 0.621785 -0.000610074 -1 Y
769 -0.00224173 0.344049 -1 -208.595 -0.00401561 0.616296 0.000468316 -1 Y
770 -0.00376109 0.339901 -1 -202.899 -0.00673725 0.608866 0.0039084 -1 Y
771 -0.00217123 0.335956 -1 -201.507 -0.00388933 0.601798 0.00431373 -1 Y
772 -0.00376922 0.33522 -1 -198.609 -0.00675182 0.600481 0.00640001 -1 Y
773 -0.00476944 0.333629 -1 -195.742 -0.00854352 0.597631 0.00833916 -1 Y
774 -0.00510536 0.330441 -1 -192.295 -0.00914524 0.591919 0.0105002 -1 Y
775 -0.00868756 0.328621 -1 -185.191 -0.015562 0.58866 0.0160572 -1 Y
776 -0.0055355 0.327741 -1 -189.226 -0.00991575 0.587083 0.0123908 -1 Y
777 1.24948 0.0131231 -1 -20.3989 2.23819 0.0235075 1.71159 -1 N
778 0.0469306 -0.588848 -1 568.075 0.084067 -1.0548 0.429893 -1 Y
779 0.0150961 0.351396 -1 -223.999 0.0270417 0.629457 0.00535389 -1 Y
780 0.0158264 0.352157 -1 -224.831 0.0283499 0.630819 0.00572281 -1 Y
781 0.0144463 0.350795 -1 -223.275 0.0258777 0.62838 0.00507839 -1 Y
782 0.0110092 0.350688 -1 -222.458 0.0197208 0.628188 0.00163035 -1 Y
783 0.00917319 0.348356 -1 -219.834 0.016432 0.62401 0.00118483 -1 Y
784 0.00964948 0.349827 -1 -221.428 0.0172851 0.626646 0.000627179 -1 Y
785 0.00909826 0.353188 -1 -224.454 0.0162977 0.632666 -0.00183884 -1 Y
786 0.00706859 0.353304 -1 -223.727 0.012662 0.632874 -0.00325263 -1 Y
787 0.00425019 0.352718 -1 -221.865 0.00761338 0.631825 -0.00451957 -1 Y
788 -0.00163083 0.348009 -1 -214.576 -0.00292131 0.623389 -0.00493505 -1 Y
789 -0.00432524 0.345247 -1 -210.639 -0.00774781 0.618442 -0.00472582 -1 Y
790 -0.00507007 0.343457 -1 -208.658 -0.00908202 0.615236 -0.00420312 -1 Y
791 0.000893012 0.346156 -1 -214.942 0.00159965 0.62007 -0.0040708 -1 Y
792 0.00509674 0.348403 -1 -219.623 0.0091298 0.624095 -0.00404716 -1 Y
793 0.0050372 0.351294 -1 -222.212 0.00902315 0.629274 -0.00556911 -1 Y
794 0.00454333 0.350026 -1 -220.643 0.00813848 0.627003 -0.00486223 -1 Y
795 -0.0122532 0.22321 -1 58.6908 -0.0219492 0.399837 0.326293 -1 N
796 0.0829736 0.208639 -1 -151.794 0.148631 0.373736 0.0728169 -1 Y
797 -0.0822453 0.0652112 -1 190.153 -0.147326 0.116813 0.290236 -1 Y
798 0.0841444 0.387139 -1 -268.115 0.150728 0.693483 0.0620665 -1 Y
799 0.00769318 0.344803 -1 -220.058 0.0137808 0.617646 -0.00508336 -1 Y
800 0.00819073 0.344071 -1 -219.875 0.0146721 0.616335 -0.00485961 -1 Y
801 0.0076221 0.347136 -1 -222.119 0.0136535 0.621826 -0.00629317 -1 Y
802 0.00249856 0.349688 -1 -218.919 0.00447567 0.626396 -0.00503348 -1 Y
803 -0.00294815 0.353333 -1 -216.261 -0.00528103 0.632926 -0.0039952 -1 Y
804 -0.00363337 0.350228 -1 -212.537 -0.00650847 0.627364 -0.00174292 -1 Y
805 -0.00508856 0.349573 -1 -210.143 -0.00911515 0.626192 -0.000257453 -1 Y
806 -0.00477804 0.347683 -1 -208.77 -0.00855892 0.622805 0.000552448 -1 Y
807 -0.00629945 0.346835 -1 -205.972 -0.0112842 0.621287 0.002446 -1 Y
808 -0.00429655 0.344929 -1 -206.879 -0.00769642 0.617872 0.00158008 -1 Y
809 -0.00511894 0.344054 -1 -204.936 -0.00916956 0.616304 0.00291295 -1 Y
810 -0.00775495 0.342592 -1 -199.703 -0.0138915 0.613686 0.00687865 -1 Y
811 -0.00609105 0.336714 -1 -196.63 -0.0109109 0.603156 0.00826291 -1 Y
812 -0.0067668 0.335189 -1 -194.245 -0.0121214 0.600425 0.00987652 -1 Y
813 -0.00676779 0.335346 -1 -194.366 -0.0121232 0.600707 0.00983199 -1 Y
814 0.0458197 0.374897 -1 -359.77 0.082077 0.671554 -0.165342 -1 Y
815 0.018382 0.311991 -1 -296.977 0.0329276 0.558869 -0.160734 -1 Y
816 0.0137425 0.349645 -1 -222.177 0.0246171 0.62632 0.00479446 -1 Y
817 0.0131538 0.343669 -1 -216.181 0.0235625 0.615616 0.00808621 -1 Y
818 0.0125872 0.343541 -1 -215.929 0.0225475 0.615386 0.00760328 -1 Y
819 0.0110132 0.344035 -1 -216.139 0.0197279 0.616272 0.00558423 -1 Y
820 0.0098005 0.347813 -1 -219.538 0.0175557 0.623038 0.0019917 -1 Y
821 0.0120709 0.350543 -1 -222.904 0.0216226 0.627929 0.00216311 -1 Y
822 0.0107779 0.351198 -1 -223.074 0.0193065 0.629103 0.000776985 -1 Y
823 0.00785296 0.351894 -1 -222.538 0.014067 0.630349 -0.00159038 -1 Y
824 -0.00147849 0.346784 -1 -213.467 -0.00264843 0.621196 -0.00409172 -1 Y
825 -0.00600408 0.341159 -1 -205.812 -0.0107551 0.61112 -0.00296941 -1 Y
826 -0.0035417 0.340719 -1 -206.666 -0.00634426 0.610331 -0.00152758 -1 Y
827 -0.00292482 0.34607 -1 -212.285 -0.00523924 0.619916 -0.00479032 -1 Y
828 0.00278505 0.351141 -1 -220.69 0.00498888 0.629001 -0.00618368 -1 Y
829 0.00343402 0.349902 -1 -219.959 0.00615136 0.62678 -0.00533318 -1 Y
830 0.00645034 0.350092 -1 -222.186 0.0115545 0.627122 -0.00485694 -1 Y
831 -0.0055833 -0.0147702 -1 138.428 -0.0100014 -0.026458 0.219633 -1 Y
832 0.0901135 -0.0267177 -1 -46.2708 0.161421 -0.0478594 0.0149484 -1 N
833 -0.00457365 0.00970909 -1 -3.72395 -0.00819278 0.0173919 -0.00244323 -1 Y
834 -0.00834124 -0.0028626 -1 11.9839 -0.0149417 -0.00512779 0.00640904 -1 Y
835 -0.00547968 -0.00364911 -1 10.1104 -0.00981577 -0.00653665 0.00624009 -1 Y
836 0.136807 0.0179035 -1 -148.02 0.245063 0.0320707 -0.051081 -1 Y
837 0.0243431 -0.109682 -1 83.9821 0.0436059 -0.196474 0.0633522 -1 N
838 0.00782339 0.345223 -1 -220.567 0.0140141 0.618399 -0.00534626 -1 Y
839 0.00473576 0.347137 -1 -218.972 0.00848317 0.621827 -0.00476659 -1 Y
840 -0.00243515 0.351405 -1 -214.985 -0.00436209 0.629473 -0.00311604 -1 Y
841 -0.00460563 0.349831 -1 -210.907 -0.00825009 0.626654 -0.000652371 -1 Y
842 -0.00512472 0.350501 -1 -210.959 -0.00917993 0.627854 -0.000744302 -1 Y
843 -0.00562097 0.350064 -1 -209.89 -0.0100689 0.627071 -2.3382e-05 -1 Y
844 -0.00534581 0.350278 -1 -210.451 -0.00957596 0.627453 -0.000397621 -1 Y
845 -0.00548162 0.348715 -1 -208.779 -0.00981924 0.624655 0.000670437 -1 Y
846 -0.00530331 0.348333 -1 -208.709 -0.00949983 0.623969 0.000629886 -1 Y
847 -0.00852346 0.345984 -1 -201.688 -0.0152681 0.619763 0.00597496 -1 Y
848 -0.0114992 0.347475 -1 -198.822 -0.0205985 0.622432 0.00848619 -1 Y
849 -0.00972216 0.345786 -1 -199.928 -0.0174153 0.619406 0.00719114 -1 Y
850 -0.00950414 0.342618 -1 -197.045 -0.0170248 0.613733 0.0091514 -1 Y
851 1.06254 -0.404768 -1 416.431 1.90332 -0.725063 1.77033 -1 N
852 0.273912 -0.327313 -1 369.361 0.49066 -0.586317 0.676935 -1 Y
853 0.0390889 0.285044 -1 -271.837 0.0700201 0.5106 -0.11682 -1 Y
854 0.0155797 0.339655 -1 -212.593 0.0279079 0.608424 0.0134372 -1 Y
855 0.015892 0.340462 -1 -213.438 0.0284674 0.60987 0.0132528 -1 Y
856 0.0133255 0.342429 -1 -214.978 0.0238701 0.613393 0.00910326 -1 Y
857 0.0129579 0.346736 -1 -219.345 0.0232114 0.621108 0.00555221 -1 Y
858 0.0131192 0.349229 -1 -221.892 0.0235004 0.625575 0.0039834 -1 Y
859 0.00896326 0.348429 -1 -219.612 0.0160559 0.624143 0.0013641 -1 Y
860 0.00263585 0.347288 -1 -215.975 0.0047216 0.622097 -0.0022508 -1 Y
861 -0.00357217 0.344034 -1 -209.994 -0.00639883 0.616269 -0.00385201 -1 Y
862 -0.00626389 0.342317 -1 -206.925 -0.0112205 0.613193 -0.00404006 -1 Y
863 -0.00566124 0.337433 -1 -202.267 -0.010141 0.604445 -0.000272291 -1 Y
864 0.167919 0.168567 -1 -256.244 0.300794 0.301955 -0.0360141 -1 Y
865 0.0284615 -0.164442 -1 198.276 0.0509832 -0.294566 0.211007 -1 Y
866 -0.132163 -0.727021 -1 884.997 -0.236743 -1.30231 0.589739 -1 Y
867 0.0217708 -0.321726 -1 374.677 0.0389981 -0.576309 0.342509 -1 Y
868 0.00907966 -0.222528 -1 249.569 0.0162644 -0.398616 0.211767 -1 Y
869 -0.0380066 -0.152031 -1 201.702 -0.0680813 -0.272334 0.138173 -1 Y
870 -0.0272279 -0.126367 -1 165.847 -0.0487734 -0.226361 0.117727 -1 Y
871 -0.00979315 -0.115016 -1 139.291 -0.0175425 -0.206028 0.107457 -1 Y
872 -0.0142789 -0.130923 -1 160.231 -0.0255778 -0.234523 0.12092 -1 Y
873 -0.0575453 -0.163424 -1 235.598 -0.103081 -0.292743 0.158379 -1 Y
874 -0.0843268 -0.183876 -1 283.196 -0.151055 -0.329377 0.182872 -1 Y
875 -0.098511 -0.210531 -1 325.186 -0.176463 -0.377124 0.208309 -1 N
876 -0.0097335 -0.173068 -1 321.263 -0.0174356 -0.310017 0.364875 -1 Y
877 -0.0013035 0.350822 -1 -215.827 -0.00233495 0.628428 -0.00365398 -1 Y
878 -0.0037708 0.349128 -1 -211.145 -0.00675465 0.625393 -0.000670738 -1 Y
879 -0.00623771 0.350452 -1 -209.535 -0.0111736 0.627766 0.000162278 -1 Y
880 -0.00565019 0.349952 -1 -209.743 -0.0101212 0.62687 7.3418e-05 -1 Y
881 -0.00629734 0.348708 -1 -207.643 -0.0112804 0.624641 0.00152745 -1 Y
882 -0.0060446 0.350193 -1 -209.499 -0.0108277 0.627301 0.000213522 -1 Y
883 -0.00786063 0.345074 -1 -201.693 -0.0140808 0.618133 0.00590553 -1 Y
884 -0.0100388 0.347404 -1 -200.832 -0.0179826 0.622306 0.00690352 -1 Y
885 -0.0137532 0.347458 -1 -195.419 -0.0246361 0.622403 0.011322 -1 Y
886 -0.0110534 0.346744 -1 -198.798 -0.0198 0.621124 0.0083605 -1 Y
887 -0.00812627 0.347168 -1 -203.649 -0.0145566 0.621883 0.00435258 -1 Y
888 0.278655 -0.0417328 -1 51.6088 0.499155 -0.0747561 0.432357 -1 Y
889 -0.222018 0.00534505 -1 47.0719 -0.397701 0.0095746 -0.219518 -1 Y
890 0.00558355 0.389259 -1 -410.888 0.0100018 0.697281 -0.295541 -1 N
891 0.0137103 0.333614 -1 -205.965 0.0245592 0.597604 0.0159919 -1 Y
892 0.0159892 0.331512 -1 -203.95 0.0286415 0.593838 0.0204326 -1 Y
893 0.0140065 0.335284 -1 -207.485 0.0250899 0.600595 0.0155294 -1 Y
894 0.0151154 0.3408 -1 -213.589 0.0270763 0.610476 0.0122747 -1 Y
895 0.0129613 0.34531 -1 -217.634 0.0232177 0.618554 0.00703053 -1 Y
896 0.0108291 0.34582 -1 -217.451 0.0193982 0.619468 0.0049429 -1 Y
897 0.00488969 0.358024 -1 -228.248 0.00875891 0.641329 -0.00914189 -1 Y
898 0.0963102 -0.0436026 -1 23.1097 0.172521 -0.0781055 0.127306 -1 Y
899 -0.98456 0.0863309 -1 515.666 -1.76365 0.154645 -0.366718 -1 Y
900 0.0305802 -0.208207 -1 230.584 0.0547783 -0.372961 0.223638 -1 Y
901 -0.623307 0.115545 -1 315.274 -1.11653 0.206976 -0.186306 -1 Y
902 0.085923 -0.0448041 -1 5.15478 0.153914 -0.0802577 0.0800503 -1 Y
903 0.106435 -0.0221609 -1 195.656 0.190657 -0.0396968 0.467649 -1 Y
904 0.817985 -0.0400206 -1 -316.033 1.46526 -0.0716891 0.536293 -1 Y
905 -0.00198514 -0.317569 -1 419.186 -0.00355598 -0.568861 0.392246 -1 Y
906 0.00132812 -2.29854 -1 2726.03 0.00237907 -4.11737 2.31953 -1 N
907 -0.249549 4.99228 -1 -5041.5 -0.447017 8.94269 -3.83487 -1 N
908 5.83717e-05 -2.297 -1 2725.45 0.000104561 -4.11461 2.31841 -1 N
909 -0.00149138 -2.29585 -1 2725.6 -0.00267151 -4.11257 2.31777 -1 N
910 -0.00110059 -2.29378 -1 2722.98 -0.0019715 -4.10886 2.31592 -1 N
911 0.049392 0.0707706 -1 -99.2761 0.0884761 0.126771 -0.0298058 -1 Y
912 -0.274085 -0.108813 -1 459.919 -0.490969 -0.194917 0.31096 -1 Y
913 1.14669 1.36075 -1 -2687.78 2.05407 2.43752 -1.66868 -1 N
914 -1.44728 0.000954134 -1 1727.65 -2.59252 0.00170914 1.02943 -1 Y
915 -0.0717328 -0.0621969 -1 168.003 -0.128495 -0.111413 0.128818 -1 Y
916 -0.0717421 -0.0632728 -1 169.215 -0.128512 -0.113341 0.129778 -1 Y
917 -0.0755611 -0.0628291 -1 173.676 -0.135353 -0.112546 0.132795 -1 Y
918 -0.0630465 0.00256161 -1 86.5873 -0.112935 0.00458862 0.0674619 -1 Y
919 -0.0471551 0.00712202 -1 59.9337 -0.0844691 0.0127577 0.0475732 -1 Y
920 -0.0236627 0.0154722 -1 17.9602 -0.0423871 0.0277155 0.0153834 -1 Y
921 -0.00810413 0.0143972 -1 -3.16922 -0.0145169 0.0257898 -0.0013221 -1 Y
922 -0.0113421 0.349688 -1 -201.395 -0.0203171 0.626397 0.00656324 -1 Y
923 -0.00982042 0.345991 -1 -199.71 -0.0175913 0.619775 0.0076589 -1 Y
924 -0.0115566 0.343865 -1 -194.741 -0.0207014 0.615966 0.0116939 -1 Y
925 0.0754619 -0.00882772 -1 10.9119 0.135175 -0.0158131 0.114362 -1 Y
926 0.465538 0.108239 -1 -142.784 0.833919 0.193888 0.511338 -1 N
927 0.208428 0.364715 -1 -341.521 0.373358 0.653315 0.0813501 -1 Y
928 0.0848124 -0.125781 -1 145.995 0.151925 -0.225312 0.238896 -1 Y
929 0.0157595 0.33019 -1 -202.739 0.0282301 0.591471 0.0208213 -1 Y
930 0.0187427 0.331226 -1 -204.45 0.0335739 0.593325 0.0230665 -1 Y
931 0.0206833 0.335651 -1 -209.719 0.0370501 0.601252 0.0212596 -1 Y
932 0.0181712 0.34338 -1 -217.442 0.0325501 0.615097 0.0125183 -1 Y
933 0.022598 0.352357 -1 -228.998 0.0404799 0.631179 0.00800911 -1 Y
934 0.0149366 0.368139 -1 -243.179 0.0267559 0.659447 -0.0105616 -1 Y
935 0.288051 0.180988 -1 -92.6482 0.515987 0.324204 0.4315 -1 Y
936 0.13188 0.172175 -1 -257.034 0.236236 0.308418 -0.0835166 -1 N
937 -0.341362 0.0433783 -1 352.309 -0.611483 0.0777036 0.19226 -1 Y
938 0.311769 0.113763 -1 -128.122 0.558472 0.203784 0.329736 -1 Y
939 -0.0829439 0.517175 -1 -303.267 -0.148578 0.926417 -0.0915945 -1 Y
940 0.101286 -0.0219101 -1 198.425 0.181435 -0.0392476 0.465644 -1 Y
941 0.00855394 -2.30138 -1 2724.02 0.0153227 -4.12247 2.32298 -1 Y
942 0.00205718 -2.30282 -1 2730.38 0.00368502 -4.12504 2.32359 -1 Y
943 7.93695e-05 -2.2992 -1 2727.84 0.000142175 -4.11856 2.32027 -1 Y
944 0.00163571 -2.29837 -1 2725.61 0.00293006 -4.11708 2.31941 -1 Y
945 0.000987074 -2.29691 -1 2724.55 0.00176815 -4.11446 2.31822 -1 Y
946 -0.000749603 -2.29576 -1 2724.88 -0.00134277 -4.1124 2.31763 -1 Y
947 -0.000500088 -2.29293 -1 2721.5 -0.000895809 -4.10733 2.31508 -1 Y
948 0.000109472 -2.29574 -1 2724 0.000196098 -4.11237 2.31728 -1 Y
949 -0.00147509 -2.29791 -1 2728.04 -0.00264233 -4.11625 2.31986 -1 Y
950 0.0915791 0.0427819 -1 -43.3949 0.164046 0.0766353 0.0968092 -1 Y
951 0.0375054 0.00180349 -1 206.485 0.0671834 0.00323059 0.416842 -1 Y
952 0.132344 0.107968 -1 -63.0915 0.237068 0.193404 0.188879 -1 Y
953 -0.0280491 -0.117095 -1 408.113 -0.0502444 -0.209752 0.552317 -1 Y
954 -0.219674 0.616734 -1 -348.096 -0.393503 1.10476 -0.252939 -1 Y
955 8.61801 20.8183 -1 -34902.3 15.4375 37.2918 -26.9832 -1 N
956 -0.0356961 0.00494891 -1 46.5144 -0.0639425 0.00886499 0.0375489 -1 Y
957 -0.0183706 0.0161966 -1 9.48946 -0.0329074 0.029013 0.00861782 -1 Y
958 -0.00893943 0.0129598 -1 -0.462706 -0.0160132 0.0232149 0.000729003 -1 Y
959 -0.00438513 0.0105975 -1 -4.39657 -0.00785509 0.0189833 -0.00240796 -1 Y
960 -0.00441547 0.005933 -1 0.884662 -0.00790945 0.0106278 0.00181261 -1 Y
961 0.116276 -0.00600998 -1 -162.352 0.208286 -0.0107657 -0.130477 -1 Y
962 -0.00337191 -0.275496 -1 320.656 -0.00604012 -0.493496 0.262433 -1 N
963 0.0450579 0.215977 -1 -234.691 0.0807124 0.38688 -0.117567 -1 Y
964 0.322653 -0.171997 -1 229.458 0.577969 -0.308099 0.665792 -1 Y
965 0.0418829 -0.170241 -1 280.117 0.075025 -0.304953 0.367213 -1 Y
966 0.33002 0.0150307 -1 75.3879 0.591165 0.0269245 0.606472 -1 Y
967 0.0722673 -0.20979 -1 406.691 0.129453 -0.375797 0.589252 -1 Y
968 0.0496599 -1.77964 -1 2089.6 0.0889559 -3.18787 1.82641 -1 N
969 -0.130195 -0.235385 -1 507.319 -0.233218 -0.421645 0.457692 -1 Y
970 0.229976 -0.126483 -1 311.986 0.411956 -0.22657 0.731227 -1 N
971 -0.138111 0.0244086 -1 195.631 -0.247399 0.0437231 0.178466 -1 Y
972 -0.0262433 -0.205062 -1 446.642 -0.0470096 -0.367328 0.527888 -1 Y
973 0.0217034 0.216205 -1 -31.9773 0.0388773 0.387289 0.206524 -1 Y
974 0.08247 -0.0336303 -1 209.948 0.147729 -0.060242 0.447181 -1 Y
975 0.00315015 0.226571 -1 -237.639 0.00564287 0.405858 -0.169486 -1 Y
976 0.00372344 0.224502 -1 -235.597 0.00666981 0.40215 -0.167329 -1 Y
977 0.0118438 -2.29231 -1 2711.13 0.0212158 -4.10621 2.31464 -1 Y
978 0.00750299 -2.29724 -1 2719.79 0.0134401 -4.11505 2.31854 -1 Y
979 0.00532039 -2.30125 -1 2726.01 0.00953043 -4.12224 2.32211 -1 Y
980 0.00138296 -2.29888 -1 2726.25 0.00247729 -4.11799 2.31964 -1 N
981 0.00131678 -2.30007 -1 2727.78 0.00235875 -4.12012 2.32094 -1 N
982 0.000765464 -2.29825 -1 2726.13 0.00137118 -4.11686 2.31923 -1 Y
983 0.000393975 -2.29869 -1 2727.02 0.000705729 -4.11766 2.31981 -1 Y
984 -0.000109453 -2.2977 -1 2726.38 -0.000196064 -4.11587 2.31906 -1 Y
985 -2.42487e-05 -2.29752 -1 2726 -4.34367e-05 -4.11556 2.3187 -1 Y
986 0.000531098 -2.29673 -1 2724.55 0.000951357 -4.11414 2.31777 -1 N
987 0.000811326 -2.29176 -1 2718.33 0.00145333 -4.10524 2.31258 -1 Y
988 0.0348199 0.000875953 -1 210.615 0.0623729 0.0015691 0.419376 -1 Y
989 0.00103106 -2.29471 -1 2721.61 0.00184693 -4.11052 2.31547 -1 N
990 0.00168265 -2.29562 -1 2721.97 0.00301414 -4.11216 2.31603 -1 Y
991 -0.221992 0.617142 -1 -345.593 -0.397654 1.10549 -0.251318 -1 Y
992 -0.131296 -0.14818 -1 534.466 -0.235191 -0.265435 0.597695 -1 Y
993 -0.0230041 0.00437752 -1 29.6087 -0.0412074 0.00784147 0.0248312 -1 Y
994 -0.0178302 0.00715223 -1 19.0538 -0.0319392 0.0128118 0.0164451 -1 Y
995 -0.00491441 0.0171228 -1 -10.994 -0.0088032 0.0306722 -0.00771586 -1 Y
996 -0.00761355 0.00804542 -1 3.29469 -0.0136382 0.0144118 0.00388416 -1 Y
997 -0.00568016 0.00464029 -1 4.2694 -0.0101749 0.00831217 0.00461564 -1 Y
998 0.114353 -0.00871001 -1 -156.186 0.204841 -0.0156023 -0.125214 -1 Y
